95200.0,-119.78,36.83,18.0,4164.0,741.0,1817.0,681.0,4.2153,INLAND
353800.0,-118.48,34.01,31.0,1829.0,458.0,719.0,392.0,4.4,<1H OCEAN
210700.0,-117.18,32.92,4.0,15025.0,2616.0,7560.0,2392.0,5.196,<1H OCEAN
174100.0,-121.86,37.35,46.0,1448.0,330.0,1094.0,331.0,2.4968,<1H OCEAN
176100.0,-116.97,32.74,14.0,7410.0,1344.0,3597.0,1274.0,4.2192,<1H OCEAN
147300.0,-117.46,34.04,3.0,12870.0,2315.0,5820.0,1759.0,4.2429,INLAND
222300.0,-117.82,33.79,26.0,2641.0,633.0,3657.0,617.0,4.1339,<1H OCEAN
202600.0,-118.56,34.37,23.0,3927.0,728.0,1984.0,707.0,4.8536,<1H OCEAN
74300.0,-119.26,36.5,35.0,1689.0,371.0,1475.0,329.0,2.5719,INLAND
158500.0,-118.2,33.98,30.0,2369.0,753.0,3259.0,770.0,2.1964,<1H OCEAN
149500.0,-117.31,34.04,5.0,2785.0,577.0,1310.0,536.0,3.39,INLAND
148900.0,-117.89,33.87,32.0,1569.0,422.0,835.0,386.0,3.0465,<1H OCEAN
213400.0,-118.06,33.82,24.0,3983.0,675.0,1568.0,638.0,4.6458,<1H OCEAN
108900.0,-121.38,38.49,11.0,8537.0,1643.0,4224.0,1648.0,2.9647,INLAND
221400.0,-118.37,34.17,10.0,1431.0,473.0,1438.0,429.0,2.2756,<1H OCEAN
447400.0,-117.55,33.52,15.0,426.0,62.0,133.0,45.0,5.136,<1H OCEAN
168400.0,-117.14,33.15,17.0,1149.0,182.0,702.0,192.0,5.5696,<1H OCEAN
410500.0,-122.53,37.92,42.0,1741.0,301.0,723.0,306.0,5.5379,NEAR BAY
500001.0,-118.39,33.83,32.0,2075.0,539.0,954.0,519.0,5.637,NEAR OCEAN
82400.0,-123.82,40.12,33.0,2985.0,591.0,1221.0,486.0,2.087,<1H OCEAN
290700.0,-122.77,38.33,32.0,2054.0,324.0,843.0,306.0,4.5875,<1H OCEAN
60200.0,-122.63,38.96,20.0,2507.0,577.0,1072.0,457.0,2.3083,INLAND
65600.0,-121.86,40.77,17.0,2816.0,639.0,1027.0,406.0,2.503,INLAND
250500.0,-122.43,37.72,52.0,2206.0,478.0,1583.0,456.0,3.7105,NEAR BAY
167900.0,-121.82,37.37,42.0,2913.0,577.0,1873.0,580.0,3.7214,<1H OCEAN
245200.0,-121.83,37.23,22.0,5507.0,841.0,2785.0,848.0,6.0889,<1H OCEAN
82400.0,-114.58,33.61,25.0,2907.0,680.0,1841.0,633.0,2.6768,INLAND
306700.0,-122.47,37.76,52.0,2465.0,489.0,1170.0,498.0,4.0793,NEAR BAY
176700.0,-120.91,37.74,19.0,1690.0,327.0,855.0,296.0,3.25,INLAND
108800.0,-117.55,33.88,19.0,2472.0,618.0,2143.0,610.0,2.2372,INLAND
168900.0,-117.01,32.8,20.0,2705.0,545.0,1198.0,497.0,3.7159,<1H OCEAN
104300.0,-122.35,40.25,10.0,1621.0,318.0,866.0,283.0,3.5,INLAND
187500.0,-117.97,33.83,16.0,2035.0,564.0,1118.0,503.0,3.2546,<1H OCEAN
241700.0,-117.74,33.62,16.0,1889.0,590.0,686.0,537.0,3.4706,<1H OCEAN
458600.0,-118.42,34.0,31.0,1930.0,456.0,1002.0,410.0,3.9798,<1H OCEAN
176100.0,-118.21,33.83,38.0,793.0,193.0,601.0,187.0,2.8837,NEAR OCEAN
174100.0,-117.13,32.75,37.0,4142.0,1031.0,1936.0,968.0,2.693,NEAR OCEAN
140900.0,-118.37,34.03,43.0,1350.0,287.0,811.0,307.0,3.3636,<1H OCEAN
304900.0,-117.8,33.85,16.0,4151.0,637.0,1558.0,604.0,5.806,<1H OCEAN
77500.0,-119.01,35.28,10.0,7011.0,1453.0,4163.0,1307.0,2.7659,INLAND
321600.0,-122.3,37.92,32.0,3943.0,605.0,1524.0,614.0,6.0677,NEAR BAY
253400.0,-122.06,37.58,15.0,8112.0,1376.0,4576.0,1348.0,5.6758,NEAR BAY
94200.0,-120.89,37.33,27.0,2692.0,481.0,1518.0,447.0,2.0417,INLAND
68600.0,-122.37,37.96,37.0,1572.0,402.0,1046.0,350.0,0.7403,NEAR BAY
382100.0,-118.16,33.77,49.0,3382.0,787.0,1314.0,756.0,3.8125,NEAR OCEAN
271200.0,-119.89,34.44,25.0,3160.0,507.0,1514.0,523.0,5.0767,NEAR OCEAN
78500.0,-117.12,32.71,33.0,1256.0,331.0,1315.0,321.0,1.9286,NEAR OCEAN
500001.0,-119.7,34.47,32.0,3725.0,569.0,1304.0,527.0,7.7261,<1H OCEAN
97400.0,-119.57,36.27,20.0,2673.0,452.0,1394.0,449.0,2.625,INLAND
104200.0,-120.43,36.18,29.0,579.0,116.0,218.0,99.0,2.1458,INLAND
161300.0,-117.98,34.09,31.0,3073.0,617.0,2640.0,594.0,3.5,INLAND
73100.0,-116.87,33.91,37.0,1858.0,361.0,1632.0,310.0,2.7536,INLAND
240500.0,-121.91,37.25,31.0,1944.0,343.0,975.0,334.0,4.9205,<1H OCEAN
80600.0,-117.7,33.6,26.0,1021.0,230.0,301.0,208.0,2.625,<1H OCEAN
240800.0,-121.32,38.16,14.0,2049.0,398.0,1071.0,369.0,3.5,INLAND
175000.0,-118.3,34.07,18.0,3759.0,,3296.0,1462.0,2.2708,<1H OCEAN
372200.0,-118.35,34.1,16.0,2930.0,1038.0,1648.0,980.0,2.6458,<1H OCEAN
136100.0,-120.43,34.95,50.0,1966.0,413.0,985.0,403.0,2.3506,<1H OCEAN
226100.0,-118.05,33.72,17.0,1875.0,472.0,900.0,406.0,5.2589,<1H OCEAN
243800.0,-117.69,33.47,19.0,2595.0,621.0,1728.0,571.0,3.668,<1H OCEAN
265700.0,-122.07,37.94,43.0,1454.0,234.0,683.0,258.0,4.475,NEAR BAY
63200.0,-120.5,37.3,29.0,1572.0,456.0,1697.0,429.0,1.76,INLAND
175800.0,-118.06,33.97,39.0,1639.0,300.0,988.0,309.0,3.9612,<1H OCEAN
72100.0,-119.86,36.81,4.0,4530.0,1070.0,1804.0,837.0,3.3942,INLAND
353300.0,-122.45,37.64,19.0,6326.0,1025.0,3444.0,984.0,6.2498,NEAR OCEAN
145600.0,-117.65,34.09,33.0,2446.0,396.0,1209.0,412.0,4.3958,INLAND
200000.0,-118.38,34.18,24.0,1983.0,651.0,2251.0,574.0,2.4792,<1H OCEAN
144300.0,-121.3,38.65,26.0,3192.0,447.0,1132.0,418.0,4.5278,INLAND
196400.0,-122.67,38.44,29.0,2551.0,448.0,1165.0,456.0,4.3587,<1H OCEAN
294000.0,-121.47,37.58,14.0,1594.0,292.0,887.0,287.0,4.6625,INLAND
500001.0,-122.02,37.01,20.0,1005.0,138.0,345.0,129.0,10.0968,NEAR OCEAN
312500.0,-121.0,39.0,4.0,170.0,23.0,93.0,27.0,10.9891,INLAND
121600.0,-119.69,36.74,23.0,2097.0,385.0,911.0,405.0,3.5128,INLAND
41800.0,-121.55,39.48,41.0,461.0,107.0,284.0,90.0,2.2045,INLAND
169400.0,-118.3,33.93,29.0,2228.0,396.0,1140.0,352.0,3.7969,<1H OCEAN
208300.0,-117.14,33.39,17.0,2889.0,587.0,1931.0,510.0,3.8547,<1H OCEAN
159200.0,-118.07,33.91,29.0,2387.0,570.0,1978.0,548.0,3.1957,<1H OCEAN
69000.0,-119.72,36.76,23.0,6403.0,,3573.0,1260.0,2.3006,INLAND
193200.0,-118.41,34.21,35.0,2215.0,459.0,1594.0,446.0,4.0167,<1H OCEAN
238500.0,-121.87,37.66,39.0,522.0,116.0,161.0,102.0,2.4896,INLAND
136400.0,-118.21,34.05,28.0,950.0,357.0,1485.0,345.0,1.9271,<1H OCEAN
255400.0,-118.33,33.86,38.0,914.0,176.0,519.0,174.0,6.0335,<1H OCEAN
319700.0,-118.15,34.12,36.0,6119.0,1513.0,2719.0,1402.0,3.8427,<1H OCEAN
223900.0,-118.72,34.28,17.0,2654.0,478.0,1392.0,451.0,5.4459,<1H OCEAN
68900.0,-118.16,35.05,44.0,1297.0,307.0,776.0,278.0,2.5875,INLAND
55200.0,-119.31,36.63,26.0,1874.0,416.0,1834.0,432.0,1.6486,INLAND
341700.0,-118.22,34.21,29.0,2174.0,418.0,1030.0,395.0,3.5707,<1H OCEAN
160100.0,-121.56,37.0,20.0,3976.0,953.0,3866.0,950.0,2.5387,INLAND
287500.0,-122.27,37.88,52.0,1693.0,391.0,669.0,367.0,3.5417,NEAR BAY
275000.0,-120.64,35.15,7.0,7922.0,1442.0,2863.0,1197.0,4.849,<1H OCEAN
72100.0,-121.41,38.53,37.0,1058.0,224.0,588.0,231.0,2.9737,INLAND
269700.0,-118.35,33.91,32.0,1660.0,366.0,928.0,398.0,4.3187,<1H OCEAN
177600.0,-118.14,33.91,37.0,932.0,171.0,578.0,175.0,4.375,<1H OCEAN
77100.0,-117.28,34.13,44.0,2469.0,568.0,1363.0,517.0,1.8396,INLAND
250000.0,-122.37,37.81,26.0,5416.0,1045.0,4531.0,962.0,2.7909,NEAR BAY
270900.0,-122.3,37.57,36.0,1973.0,352.0,1169.0,370.0,5.033,NEAR BAY
248100.0,-117.85,33.81,26.0,4186.0,767.0,2447.0,777.0,4.9917,<1H OCEAN
166900.0,-120.65,35.48,19.0,2310.0,471.0,1341.0,441.0,3.225,<1H OCEAN
198500.0,-118.13,34.06,30.0,1692.0,398.0,1130.0,365.0,2.8672,<1H OCEAN
185100.0,-120.98,37.69,18.0,3176.0,468.0,1296.0,471.0,5.5684,INLAND
412500.0,-122.06,37.73,5.0,3596.0,467.0,1738.0,512.0,7.0568,NEAR BAY
178700.0,-117.17,32.81,33.0,3064.0,506.0,1355.0,488.0,4.22,NEAR OCEAN
52000.0,-119.04,36.07,17.0,2623.0,659.0,1912.0,618.0,1.5893,INLAND
140400.0,-122.72,38.44,48.0,707.0,166.0,458.0,172.0,3.1797,<1H OCEAN
92900.0,-117.1,32.67,15.0,1635.0,553.0,1347.0,597.0,1.2745,NEAR OCEAN
340000.0,-122.03,37.69,20.0,200.0,25.0,83.0,31.0,6.5,NEAR BAY
402500.0,-118.08,33.81,20.0,6295.0,937.0,2292.0,874.0,7.6084,<1H OCEAN
370200.0,-122.16,37.83,16.0,4596.0,705.0,1480.0,650.0,7.52,NEAR BAY
297600.0,-122.45,38.28,20.0,3306.0,503.0,1374.0,460.0,5.7984,NEAR BAY
159300.0,-117.36,33.6,10.0,4097.0,813.0,2082.0,731.0,3.2258,<1H OCEAN
129200.0,-121.34,38.0,32.0,3877.0,687.0,1642.0,647.0,4.0444,INLAND
150400.0,-117.81,34.11,21.0,3481.0,808.0,1866.0,746.0,3.6201,INLAND
291300.0,-121.91,36.59,31.0,2034.0,335.0,966.0,322.0,4.6964,NEAR OCEAN
243600.0,-118.3,34.16,40.0,1875.0,460.0,869.0,438.0,3.2321,<1H OCEAN
253800.0,-117.84,34.0,26.0,797.0,117.0,383.0,114.0,6.8758,<1H OCEAN
266100.0,-117.9,33.67,26.0,2507.0,393.0,1333.0,392.0,6.1601,<1H OCEAN
108700.0,-121.32,38.56,18.0,1169.0,186.0,614.0,192.0,4.5766,INLAND
163600.0,-118.28,34.76,19.0,3430.0,601.0,1817.0,571.0,4.7875,INLAND
98800.0,-121.85,39.72,18.0,7272.0,1559.0,5022.0,1524.0,1.6911,INLAND
130900.0,-117.22,33.92,5.0,16884.0,2865.0,9509.0,2688.0,4.0938,INLAND
184400.0,-117.93,33.93,25.0,2431.0,534.0,1702.0,523.0,3.7933,<1H OCEAN
124200.0,-118.31,33.97,52.0,1595.0,325.0,823.0,302.0,3.2188,<1H OCEAN
165800.0,-118.08,33.98,36.0,1492.0,282.0,1041.0,270.0,4.0677,<1H OCEAN
80000.0,-122.18,37.73,42.0,909.0,215.0,646.0,198.0,2.9063,NEAR BAY
113600.0,-121.3,37.97,52.0,2980.0,537.0,1128.0,510.0,4.061,INLAND
59200.0,-122.13,39.0,23.0,3832.0,774.0,2435.0,747.0,2.2754,INLAND
500001.0,-118.42,34.06,40.0,2933.0,565.0,1077.0,536.0,6.1527,<1H OCEAN
64300.0,-120.06,36.94,19.0,901.0,183.0,700.0,190.0,2.2375,INLAND
311800.0,-122.26,37.53,4.0,5233.0,1109.0,1690.0,907.0,6.2007,NEAR BAY
112500.0,-118.29,34.09,28.0,1562.0,648.0,1974.0,597.0,1.9766,<1H OCEAN
221800.0,-118.56,34.23,36.0,2406.0,432.0,1242.0,454.0,4.6944,<1H OCEAN
126900.0,-122.24,38.13,37.0,3223.0,564.0,1325.0,539.0,4.0938,NEAR BAY
330400.0,-117.95,33.98,15.0,16042.0,2602.0,7732.0,2552.0,5.6716,<1H OCEAN
273000.0,-122.2,37.8,43.0,3045.0,499.0,1115.0,455.0,4.9559,NEAR BAY
103300.0,-117.32,34.24,29.0,1290.0,263.0,323.0,113.0,1.9265,INLAND
135000.0,-117.02,32.69,7.0,6055.0,1004.0,3031.0,952.0,4.436,NEAR OCEAN
151900.0,-118.15,34.02,37.0,2344.0,631.0,2195.0,610.0,2.7022,<1H OCEAN
159700.0,-117.92,33.74,18.0,1639.0,491.0,2513.0,458.0,2.1838,<1H OCEAN
153300.0,-120.11,39.24,21.0,3005.0,574.0,385.0,150.0,3.1193,INLAND
164500.0,-121.03,39.14,10.0,3138.0,524.0,1275.0,511.0,4.0775,INLAND
116400.0,-118.31,34.0,47.0,1551.0,362.0,1329.0,322.0,1.9792,<1H OCEAN
500001.0,-117.9,33.61,19.0,2897.0,413.0,860.0,367.0,13.1738,<1H OCEAN
500001.0,-118.48,33.96,16.0,895.0,181.0,237.0,149.0,12.0088,<1H OCEAN
268900.0,-122.51,37.76,43.0,2345.0,624.0,1439.0,614.0,2.8448,NEAR OCEAN
148100.0,-121.65,36.7,29.0,4964.0,1056.0,2773.0,1036.0,3.0827,<1H OCEAN
148800.0,-118.15,34.18,45.0,2612.0,664.0,3117.0,584.0,2.3029,<1H OCEAN
150000.0,-116.93,32.85,5.0,4116.0,990.0,2770.0,905.0,3.1142,<1H OCEAN
166700.0,-122.28,38.31,52.0,58.0,18.0,48.0,22.0,1.76,NEAR BAY
380000.0,-121.34,38.59,22.0,3273.0,480.0,1151.0,463.0,8.05,INLAND
242900.0,-121.95,37.28,19.0,7027.0,1847.0,3759.0,1753.0,3.1509,<1H OCEAN
270100.0,-118.48,34.33,9.0,2384.0,395.0,1697.0,402.0,6.0891,<1H OCEAN
294800.0,-118.92,34.17,17.0,1552.0,246.0,685.0,244.0,5.9836,<1H OCEAN
69700.0,-121.56,39.13,17.0,2277.0,608.0,1607.0,562.0,1.5085,INLAND
225800.0,-118.1,33.84,36.0,1915.0,316.0,850.0,319.0,4.7222,<1H OCEAN
128800.0,-122.22,37.78,50.0,1920.0,530.0,1525.0,477.0,1.4886,NEAR BAY
113500.0,-117.33,34.41,13.0,3684.0,604.0,1767.0,585.0,3.7478,INLAND
288200.0,-117.25,32.74,36.0,3548.0,956.0,1648.0,866.0,2.6962,NEAR OCEAN
143000.0,-118.37,34.04,42.0,1809.0,424.0,1094.0,382.0,2.767,<1H OCEAN
500001.0,-122.56,37.92,37.0,1926.0,290.0,721.0,298.0,8.9248,NEAR BAY
267900.0,-117.28,33.1,13.0,2644.0,422.0,1197.0,399.0,6.5338,NEAR OCEAN
167800.0,-117.99,33.79,35.0,2301.0,467.0,2272.0,454.0,3.9566,<1H OCEAN
500001.0,-122.46,37.78,52.0,3429.0,773.0,1584.0,696.0,3.7887,NEAR BAY
103600.0,-118.24,33.91,36.0,1446.0,316.0,1286.0,314.0,2.7083,<1H OCEAN
124000.0,-121.34,38.68,28.0,3379.0,552.0,1543.0,556.0,4.2743,INLAND
244800.0,-118.62,34.2,29.0,2421.0,402.0,1120.0,388.0,5.0309,<1H OCEAN
164200.0,-118.22,33.96,36.0,1542.0,458.0,1711.0,468.0,1.9028,<1H OCEAN
243800.0,-118.36,34.09,33.0,3463.0,1170.0,1845.0,1134.0,2.0205,<1H OCEAN
105800.0,-118.39,37.37,25.0,3295.0,824.0,1477.0,770.0,1.8325,INLAND
177000.0,-117.09,33.1,21.0,2876.0,539.0,1387.0,499.0,3.8292,<1H OCEAN
162500.0,-118.2,33.78,52.0,2662.0,893.0,3018.0,763.0,2.3305,NEAR OCEAN
96800.0,-120.77,37.64,8.0,3294.0,667.0,2277.0,652.0,2.6417,INLAND
64700.0,-117.4,34.58,18.0,755.0,169.0,483.0,165.0,1.4196,INLAND
103000.0,-117.53,34.1,5.0,2185.0,488.0,1379.0,458.0,3.7917,INLAND
179300.0,-122.13,37.68,44.0,2147.0,399.0,1175.0,401.0,4.1974,NEAR BAY
104200.0,-119.96,38.94,27.0,1492.0,393.0,717.0,254.0,1.8906,INLAND
283200.0,-118.43,33.96,16.0,14891.0,3984.0,6270.0,3595.0,5.1064,<1H OCEAN
175000.0,-119.05,35.34,14.0,3580.0,984.0,1933.0,912.0,2.6637,INLAND
500001.0,-122.4,37.8,52.0,1860.0,575.0,679.0,448.0,4.775,NEAR BAY
158900.0,-116.92,32.81,23.0,2668.0,528.0,1510.0,524.0,3.3669,<1H OCEAN
273300.0,-122.1,37.19,18.0,808.0,136.0,420.0,145.0,7.1831,NEAR OCEAN
175000.0,-118.25,34.07,43.0,764.0,322.0,1275.0,306.0,2.0,<1H OCEAN
221100.0,-118.23,34.12,32.0,2094.0,491.0,1413.0,479.0,4.5089,<1H OCEAN
219600.0,-117.37,33.94,14.0,9286.0,1269.0,3565.0,1238.0,6.6635,INLAND
500001.0,-118.57,34.27,20.0,7384.0,845.0,2795.0,872.0,9.6047,<1H OCEAN
159700.0,-118.21,33.81,45.0,1693.0,337.0,1255.0,333.0,3.6923,NEAR OCEAN
92700.0,-118.27,33.93,36.0,1467.0,369.0,1247.0,347.0,1.8191,<1H OCEAN
261000.0,-119.72,34.42,52.0,1759.0,387.0,980.0,402.0,4.0125,NEAR OCEAN
211900.0,-118.07,34.08,38.0,2462.0,553.0,1843.0,538.0,3.2312,<1H OCEAN
200000.0,-118.3,34.17,37.0,350.0,115.0,342.0,111.0,3.0687,<1H OCEAN
286000.0,-121.81,38.58,17.0,1964.0,314.0,808.0,286.0,5.9629,INLAND
43300.0,-115.51,33.24,32.0,1995.0,523.0,1069.0,410.0,1.6552,INLAND
137500.0,-118.0,33.75,26.0,1382.0,387.0,1977.0,368.0,2.7589,<1H OCEAN
109200.0,-118.18,34.05,41.0,389.0,102.0,455.0,107.0,2.7031,<1H OCEAN
275000.0,-122.09,37.4,24.0,3983.0,1126.0,2645.0,1072.0,3.6742,NEAR BAY
243800.0,-122.02,37.36,21.0,2471.0,677.0,1486.0,689.0,3.9038,<1H OCEAN
165000.0,-118.32,34.04,39.0,1294.0,330.0,1140.0,313.0,2.2554,<1H OCEAN
72600.0,-122.38,40.58,34.0,1262.0,267.0,520.0,259.0,1.6983,INLAND
48000.0,-119.42,36.35,20.0,1469.0,303.0,1031.0,259.0,1.6645,INLAND
183800.0,-122.26,37.82,31.0,4596.0,1331.0,2048.0,1180.0,2.8345,NEAR BAY
115800.0,-120.19,38.03,17.0,8651.0,1579.0,2071.0,757.0,3.1076,INLAND
131000.0,-117.69,34.07,35.0,3222.0,559.0,1970.0,550.0,3.7083,INLAND
138200.0,-122.03,37.98,45.0,2842.0,567.0,1261.0,535.0,3.6042,NEAR BAY
364700.0,-118.41,34.15,24.0,3891.0,866.0,1568.0,830.0,4.1656,<1H OCEAN
237900.0,-121.88,37.44,23.0,1310.0,267.0,910.0,261.0,5.3994,<1H OCEAN
385200.0,-119.27,34.29,32.0,2274.0,406.0,982.0,393.0,5.3254,NEAR OCEAN
322700.0,-122.45,37.78,43.0,1452.0,397.0,897.0,393.0,4.1319,NEAR BAY
297600.0,-117.96,33.99,25.0,1348.0,210.0,660.0,200.0,5.2852,<1H OCEAN
