70800.0,-120.0,36.7,33.0,1902.0,370.0,1168.0,358.0,2.6852,INLAND
500001.0,-118.85,34.04,21.0,3837.0,578.0,1509.0,509.0,8.4476,NEAR OCEAN
204200.0,-117.23,32.87,15.0,2290.0,662.0,1034.0,594.0,3.0104,NEAR OCEAN
325000.0,-119.86,34.41,24.0,1576.0,580.0,1630.0,531.0,1.24,NEAR OCEAN
155000.0,-116.96,32.71,18.0,2413.0,533.0,1129.0,551.0,2.4567,<1H OCEAN
86800.0,-117.28,34.17,26.0,3728.0,888.0,1765.0,727.0,1.7456,INLAND
216200.0,-117.89,33.82,24.0,1268.0,210.0,700.0,224.0,5.0605,<1H OCEAN
294000.0,-118.27,34.46,10.0,2184.0,405.0,1119.0,370.0,4.7437,INLAND
83800.0,-121.61,39.13,21.0,1432.0,328.0,933.0,336.0,1.6823,INLAND
187500.0,-118.16,33.96,24.0,1635.0,507.0,2480.0,481.0,2.4432,<1H OCEAN
283100.0,-117.15,34.04,14.0,2845.0,420.0,1172.0,377.0,7.5822,INLAND
142800.0,-117.87,33.86,28.0,2292.0,531.0,2197.0,509.0,3.4856,<1H OCEAN
91300.0,-121.3,38.89,45.0,1529.0,317.0,793.0,281.0,2.9866,INLAND
133000.0,-121.36,38.62,34.0,2447.0,503.0,1077.0,456.0,3.058,INLAND
185400.0,-118.37,34.17,15.0,3327.0,1011.0,2683.0,857.0,2.3784,<1H OCEAN
245400.0,-117.7,33.5,4.0,2351.0,445.0,834.0,397.0,5.5677,<1H OCEAN
127200.0,-117.25,33.21,9.0,1944.0,488.0,1992.0,453.0,2.066,<1H OCEAN
355000.0,-122.57,37.98,49.0,2860.0,552.0,1178.0,522.0,4.625,NEAR BAY
360800.0,-118.36,33.82,26.0,5166.0,1313.0,2738.0,1239.0,3.3565,<1H OCEAN
78200.0,-119.84,36.54,19.0,1310.0,241.0,702.0,217.0,2.4375,INLAND
196400.0,-122.67,38.43,17.0,1804.0,304.0,750.0,298.0,4.5588,<1H OCEAN
106300.0,-119.93,36.32,25.0,8363.0,1636.0,7679.0,1580.0,2.0285,INLAND
238000.0,-121.96,36.99,23.0,3209.0,748.0,1423.0,666.0,2.7375,NEAR OCEAN
386400.0,-122.43,37.76,52.0,3708.0,849.0,1531.0,822.0,3.3565,NEAR BAY
173400.0,-121.86,37.32,13.0,2519.0,581.0,2094.0,530.0,4.3621,<1H OCEAN
266700.0,-122.09,37.41,14.0,753.0,193.0,421.0,153.0,4.2463,NEAR BAY
65400.0,-121.47,38.55,48.0,968.0,310.0,706.0,274.0,0.9948,INLAND
264100.0,-122.44,37.71,31.0,2370.0,441.0,1524.0,470.0,5.0201,NEAR BAY
148800.0,-122.94,38.53,49.0,1141.0,239.0,505.0,184.0,3.7143,<1H OCEAN
83000.0,-117.23,33.77,5.0,2108.0,496.0,1666.0,461.0,2.0,INLAND
153000.0,-117.08,32.59,8.0,2888.0,662.0,2441.0,683.0,2.7048,NEAR OCEAN
170500.0,-120.87,37.64,40.0,1010.0,155.0,488.0,157.0,3.8984,INLAND
231300.0,-117.96,33.8,33.0,1984.0,420.0,1119.0,387.0,3.4821,<1H OCEAN
362500.0,-117.82,33.65,18.0,2105.0,302.0,830.0,286.0,6.3822,<1H OCEAN
235700.0,-118.46,34.0,39.0,614.0,174.0,538.0,159.0,2.3542,<1H OCEAN
261600.0,-118.11,33.96,29.0,2784.0,582.0,1278.0,550.0,4.3882,<1H OCEAN
84200.0,-117.09,32.7,15.0,869.0,217.0,887.0,216.0,1.4583,NEAR OCEAN
109600.0,-118.26,34.02,41.0,848.0,323.0,1428.0,313.0,1.5603,<1H OCEAN
357600.0,-117.66,33.58,6.0,4186.0,,1794.0,541.0,9.6986,<1H OCEAN
67600.0,-118.91,35.37,32.0,4121.0,755.0,2590.0,721.0,3.3462,INLAND
310700.0,-122.2,37.96,9.0,6306.0,962.0,2581.0,911.0,6.7741,NEAR BAY
261400.0,-122.08,37.61,6.0,2605.0,474.0,1568.0,433.0,5.0406,NEAR BAY
125300.0,-120.43,37.32,16.0,1170.0,178.0,566.0,181.0,5.2522,INLAND
500001.0,-122.2,37.9,36.0,2107.0,287.0,740.0,280.0,10.3416,NEAR BAY
204500.0,-118.36,33.93,27.0,4445.0,1231.0,3340.0,1113.0,3.1656,<1H OCEAN
110300.0,-120.44,34.97,22.0,1619.0,360.0,1509.0,384.0,1.7941,<1H OCEAN
215000.0,-117.17,32.73,52.0,1578.0,487.0,879.0,446.0,2.4069,NEAR OCEAN
166700.0,-122.13,37.47,30.0,1480.0,294.0,1126.0,301.0,4.983,NEAR BAY
52100.0,-119.25,35.75,36.0,1598.0,443.0,1658.0,417.0,1.517,INLAND
100000.0,-119.25,36.71,13.0,2813.0,579.0,1385.0,512.0,2.2202,INLAND
146900.0,-117.96,34.04,34.0,1381.0,265.0,1020.0,268.0,4.025,<1H OCEAN
153900.0,-121.45,38.58,44.0,2314.0,415.0,796.0,388.0,3.4914,INLAND
183100.0,-121.89,37.35,47.0,2879.0,631.0,2229.0,606.0,3.2599,<1H OCEAN
500001.0,-117.87,33.63,9.0,6163.0,1004.0,1912.0,903.0,10.8289,<1H OCEAN
137500.0,-121.24,37.9,16.0,50.0,10.0,20.0,6.0,2.625,INLAND
500001.0,-118.38,34.07,21.0,3653.0,956.0,1510.0,890.0,3.5573,<1H OCEAN
342900.0,-118.33,34.11,48.0,1601.0,464.0,784.0,461.0,3.0642,<1H OCEAN
301300.0,-119.51,34.4,24.0,3422.0,596.0,1763.0,601.0,5.2039,NEAR OCEAN
196900.0,-118.06,33.8,21.0,2196.0,504.0,1215.0,477.0,4.8,<1H OCEAN
322600.0,-117.7,33.61,16.0,2371.0,725.0,1738.0,686.0,3.6484,<1H OCEAN
136200.0,-122.04,37.99,36.0,2765.0,495.0,1478.0,441.0,4.125,NEAR BAY
201700.0,-121.54,36.7,12.0,6758.0,1241.0,3918.0,1100.0,3.525,<1H OCEAN
141500.0,-118.05,33.93,31.0,894.0,203.0,883.0,190.0,3.6771,<1H OCEAN
45000.0,-119.79,36.75,52.0,377.0,97.0,530.0,96.0,1.0,INLAND
273500.0,-122.42,37.66,28.0,3520.0,672.0,1746.0,602.0,4.9236,NEAR OCEAN
96900.0,-117.64,34.05,32.0,1129.0,251.0,1378.0,268.0,3.0057,INLAND
174100.0,-118.37,34.22,11.0,2127.0,581.0,1989.0,530.0,2.9028,<1H OCEAN
109100.0,-121.29,38.6,29.0,1276.0,225.0,600.0,223.0,4.0938,INLAND
315200.0,-122.01,38.36,15.0,476.0,67.0,213.0,73.0,7.1053,INLAND
161100.0,-121.18,38.07,21.0,2333.0,377.0,1073.0,332.0,4.8125,INLAND
394100.0,-121.72,37.16,21.0,1062.0,179.0,631.0,185.0,4.7386,<1H OCEAN
95200.0,-117.45,34.01,26.0,3042.0,598.0,1720.0,551.0,2.76,INLAND
213300.0,-121.09,38.68,15.0,5218.0,711.0,1949.0,659.0,4.7083,INLAND
85000.0,-121.61,39.76,31.0,2431.0,512.0,1026.0,427.0,2.5428,INLAND
400700.0,-118.39,33.86,24.0,2386.0,582.0,1152.0,568.0,4.8971,<1H OCEAN
227000.0,-117.24,33.4,16.0,2704.0,463.0,1322.0,424.0,3.7857,<1H OCEAN
244900.0,-118.11,33.94,37.0,1434.0,262.0,786.0,256.0,4.4375,<1H OCEAN
131700.0,-120.63,38.68,14.0,1821.0,316.0,769.0,266.0,3.0789,INLAND
164600.0,-118.37,34.23,32.0,1444.0,317.0,1177.0,311.0,3.6,<1H OCEAN
201100.0,-121.78,37.67,28.0,1773.0,278.0,804.0,269.0,4.8571,INLAND
287500.0,-118.35,34.07,45.0,7803.0,2154.0,3359.0,2041.0,3.3594,<1H OCEAN
500001.0,-118.38,33.82,34.0,1822.0,364.0,750.0,366.0,5.9907,NEAR OCEAN
55000.0,-118.15,34.14,45.0,543.0,191.0,454.0,181.0,2.3,<1H OCEAN
228700.0,-119.02,34.26,40.0,1498.0,292.0,707.0,249.0,3.7974,<1H OCEAN
97900.0,-119.07,35.27,25.0,3081.0,635.0,1830.0,591.0,2.5804,INLAND
143100.0,-119.69,36.85,20.0,2655.0,432.0,1081.0,379.0,4.5398,INLAND
331200.0,-118.28,34.17,52.0,2332.0,433.0,1135.0,440.0,5.5658,<1H OCEAN
500001.0,-122.07,37.34,35.0,1172.0,184.0,512.0,175.0,7.3561,<1H OCEAN
227900.0,-122.28,37.88,52.0,1909.0,416.0,811.0,406.0,3.006,NEAR BAY
113500.0,-120.63,35.59,9.0,5782.0,1184.0,3026.0,1130.0,2.6528,<1H OCEAN
79500.0,-121.49,38.51,30.0,3166.0,607.0,1857.0,579.0,3.1768,INLAND
275000.0,-118.41,33.92,29.0,1436.0,401.0,674.0,343.0,3.6389,<1H OCEAN
285800.0,-118.04,33.87,17.0,2358.0,396.0,1387.0,364.0,6.299,<1H OCEAN
164400.0,-117.17,34.12,2.0,3867.0,573.0,1275.0,433.0,5.4138,INLAND
500001.0,-122.45,37.77,52.0,3188.0,708.0,1526.0,664.0,3.3068,NEAR BAY
270600.0,-122.49,37.6,33.0,3507.0,669.0,1697.0,660.0,4.0795,NEAR OCEAN
175000.0,-117.91,33.83,9.0,1160.0,368.0,735.0,325.0,1.119,<1H OCEAN
231700.0,-120.67,35.3,32.0,4202.0,986.0,2309.0,956.0,2.2165,NEAR OCEAN
226600.0,-118.11,34.1,44.0,2012.0,435.0,1454.0,456.0,3.3229,<1H OCEAN
179500.0,-120.93,37.72,18.0,391.0,71.0,247.0,71.0,4.3864,INLAND
212900.0,-122.27,37.78,45.0,1169.0,263.0,723.0,286.0,3.9444,NEAR BAY
108300.0,-117.13,32.8,15.0,1606.0,375.0,784.0,342.0,3.7237,NEAR OCEAN
60000.0,-119.36,36.21,18.0,1082.0,202.0,793.0,213.0,2.4032,INLAND
211700.0,-122.55,38.42,24.0,2220.0,411.0,894.0,365.0,4.2891,<1H OCEAN
145900.0,-117.09,32.64,38.0,2095.0,536.0,1240.0,550.0,2.7218,NEAR OCEAN
178400.0,-122.1,37.69,41.0,746.0,,387.0,161.0,3.9063,NEAR BAY
287200.0,-118.1,33.79,35.0,2370.0,379.0,996.0,380.0,5.7368,<1H OCEAN
257100.0,-122.12,37.89,30.0,3227.0,733.0,1260.0,684.0,4.125,NEAR BAY
173400.0,-122.07,38.27,8.0,6761.0,1234.0,3237.0,1177.0,4.3586,INLAND
137500.0,-116.3,33.68,10.0,2387.0,481.0,863.0,304.0,2.8882,INLAND
166900.0,-121.36,38.01,16.0,1080.0,166.0,507.0,182.0,4.5278,INLAND
178000.0,-117.88,34.12,34.0,912.0,165.0,522.0,150.0,4.0417,<1H OCEAN
202600.0,-122.33,38.33,15.0,3193.0,468.0,1303.0,426.0,5.3017,NEAR BAY
122900.0,-118.44,34.29,32.0,1260.0,382.0,1434.0,342.0,2.0286,<1H OCEAN
161300.0,-117.93,34.09,35.0,782.0,153.0,499.0,163.0,4.2062,<1H OCEAN
200000.0,-117.85,33.79,46.0,1846.0,383.0,867.0,336.0,3.4234,<1H OCEAN
160200.0,-121.2,38.28,20.0,1732.0,307.0,999.0,305.0,3.9808,INLAND
140100.0,-118.11,34.68,6.0,7430.0,1184.0,3489.0,1115.0,5.3267,INLAND
126600.0,-121.87,39.75,22.0,1707.0,296.0,822.0,297.0,3.6625,INLAND
61100.0,-116.51,33.96,16.0,4913.0,1395.0,2518.0,1132.0,1.4665,INLAND
190700.0,-117.87,33.88,28.0,3333.0,752.0,2026.0,722.0,3.5667,<1H OCEAN
112500.0,-118.29,34.0,6.0,1487.0,468.0,1509.0,403.0,1.4639,<1H OCEAN
164900.0,-118.07,33.99,35.0,1625.0,302.0,1134.0,288.0,4.5595,<1H OCEAN
88800.0,-122.17,37.75,44.0,1218.0,248.0,763.0,254.0,2.3281,NEAR BAY
59300.0,-121.26,37.95,44.0,819.0,184.0,677.0,183.0,1.725,INLAND
142500.0,-121.83,37.99,18.0,2741.0,449.0,1507.0,460.0,4.7566,INLAND
96300.0,-118.26,33.97,44.0,1246.0,308.0,1031.0,295.0,1.9556,<1H OCEAN
301500.0,-122.6,38.11,23.0,8642.0,1294.0,3594.0,1253.0,5.3962,<1H OCEAN
292100.0,-122.27,37.56,17.0,3211.0,847.0,1553.0,812.0,4.9434,NEAR BAY
241400.0,-118.26,34.09,36.0,3503.0,833.0,2652.0,788.0,3.8448,<1H OCEAN
320500.0,-118.53,34.27,33.0,1927.0,305.0,896.0,293.0,5.634,<1H OCEAN
53100.0,-122.37,41.41,28.0,1729.0,419.0,929.0,370.0,1.27,INLAND
178300.0,-118.0,34.15,43.0,2583.0,633.0,1544.0,617.0,2.5417,INLAND
97500.0,-122.18,37.77,27.0,909.0,236.0,396.0,157.0,2.0786,NEAR BAY
145500.0,-117.14,32.76,32.0,2587.0,681.0,1246.0,650.0,2.1727,NEAR OCEAN
162500.0,-117.16,32.72,52.0,788.0,463.0,805.0,391.0,0.9142,NEAR OCEAN
154300.0,-118.15,34.02,42.0,2729.0,725.0,3004.0,722.0,2.3438,<1H OCEAN
302700.0,-118.01,33.7,24.0,3856.0,567.0,1741.0,588.0,7.248,<1H OCEAN
98100.0,-117.42,33.96,33.0,2275.0,469.0,1691.0,459.0,2.7452,INLAND
128900.0,-121.13,39.31,17.0,3442.0,705.0,1693.0,619.0,2.8102,INLAND
108200.0,-118.26,34.01,43.0,2179.0,682.0,2624.0,609.0,1.8641,<1H OCEAN
175000.0,-117.84,33.73,20.0,2572.0,732.0,1534.0,669.0,2.4211,<1H OCEAN
128000.0,-118.25,33.79,32.0,1205.0,340.0,1799.0,370.0,2.375,NEAR OCEAN
244100.0,-122.46,37.72,45.0,2399.0,419.0,1225.0,399.0,4.0855,NEAR OCEAN
336600.0,-121.7,36.55,21.0,3905.0,583.0,1528.0,586.0,7.6245,<1H OCEAN
234000.0,-118.13,34.19,42.0,2203.0,412.0,1012.0,377.0,4.0714,INLAND
144600.0,-117.05,33.03,16.0,87.0,20.0,32.0,21.0,4.3571,<1H OCEAN
154900.0,-121.05,39.23,20.0,1634.0,374.0,1053.0,390.0,1.5313,INLAND
81100.0,-121.43,38.66,35.0,1814.0,367.0,1076.0,372.0,2.7179,INLAND
255100.0,-121.91,37.44,19.0,2174.0,484.0,1645.0,484.0,5.0362,<1H OCEAN
75000.0,-122.59,38.92,15.0,1410.0,329.0,599.0,273.0,2.1953,INLAND
254100.0,-119.26,34.28,41.0,2822.0,564.0,1288.0,541.0,3.0799,NEAR OCEAN
164100.0,-121.71,38.56,20.0,8627.0,1516.0,4071.0,1466.0,4.2198,INLAND
221700.0,-118.11,33.86,36.0,2750.0,487.0,1386.0,458.0,4.9904,<1H OCEAN
151800.0,-122.25,37.8,43.0,2344.0,647.0,1710.0,644.0,1.6504,NEAR BAY
108400.0,-117.1,34.21,22.0,4397.0,931.0,1145.0,445.0,4.5268,INLAND
311900.0,-117.25,32.81,39.0,1846.0,350.0,765.0,329.0,3.9187,NEAR OCEAN
89500.0,-118.24,33.95,40.0,1193.0,280.0,1210.0,286.0,1.35,<1H OCEAN
213200.0,-123.7,39.32,18.0,1652.0,352.0,711.0,292.0,3.1071,<1H OCEAN
169200.0,-117.24,33.05,15.0,3029.0,555.0,1559.0,546.0,5.3129,NEAR OCEAN
397600.0,-118.01,33.67,16.0,3581.0,780.0,1644.0,774.0,5.041,NEAR OCEAN
483300.0,-122.47,37.79,52.0,2383.0,477.0,990.0,464.0,3.9688,NEAR BAY
105100.0,-118.2,33.9,33.0,1435.0,322.0,1298.0,299.0,2.7813,<1H OCEAN
150500.0,-121.32,38.63,20.0,7003.0,1409.0,3107.0,1315.0,3.0348,INLAND
228200.0,-118.58,34.22,35.0,2560.0,441.0,1428.0,468.0,5.6345,<1H OCEAN
151800.0,-118.19,33.96,40.0,979.0,296.0,934.0,292.0,2.6354,<1H OCEAN
326700.0,-118.4,33.99,36.0,1225.0,213.0,591.0,227.0,5.4663,<1H OCEAN
146300.0,-115.39,32.76,16.0,1136.0,196.0,481.0,185.0,6.2558,INLAND
156300.0,-116.68,33.16,26.0,1820.0,374.0,1001.0,324.0,2.1797,INLAND
439300.0,-118.13,33.76,44.0,1543.0,463.0,652.0,406.0,4.25,NEAR OCEAN
149600.0,-120.98,37.68,24.0,705.0,114.0,347.0,141.0,3.1912,INLAND
65600.0,-116.09,34.15,13.0,9444.0,1997.0,4166.0,1482.0,2.6111,INLAND
70500.0,-117.32,34.12,37.0,2868.0,574.0,2055.0,563.0,2.3508,INLAND
181600.0,-122.13,37.67,38.0,2012.0,347.0,880.0,332.0,3.1734,NEAR BAY
37900.0,-122.37,37.93,45.0,3150.0,756.0,1798.0,749.0,1.75,NEAR BAY
462200.0,-118.27,34.22,34.0,8206.0,1186.0,3141.0,1150.0,7.2812,<1H OCEAN
14999.0,-117.02,36.4,19.0,619.0,239.0,490.0,164.0,2.1,INLAND
225000.0,-122.42,37.79,52.0,3457.0,1021.0,2286.0,994.0,2.565,NEAR BAY
111400.0,-116.97,32.8,15.0,3927.0,1018.0,2204.0,977.0,2.4367,<1H OCEAN
248000.0,-121.81,37.23,19.0,2635.0,427.0,1497.0,410.0,6.3178,<1H OCEAN
150000.0,-118.2,34.05,41.0,1268.0,398.0,1887.0,407.0,2.625,<1H OCEAN
182100.0,-118.18,34.13,52.0,2228.0,475.0,1311.0,452.0,3.5341,<1H OCEAN
118000.0,-117.28,33.85,16.0,3498.0,702.0,2372.0,672.0,2.3229,INLAND
157400.0,-118.43,34.32,34.0,2657.0,515.0,1948.0,532.0,4.233,<1H OCEAN
216700.0,-118.18,33.82,43.0,2210.0,469.0,1042.0,418.0,3.5,NEAR OCEAN
133500.0,-118.31,33.95,44.0,1558.0,333.0,1095.0,316.0,4.0043,<1H OCEAN
500001.0,-122.21,37.37,34.0,1476.0,217.0,613.0,223.0,8.2883,NEAR OCEAN
500001.0,-118.18,34.16,34.0,5012.0,746.0,1699.0,715.0,9.4987,<1H OCEAN
275700.0,-117.76,34.12,16.0,9020.0,1509.0,3575.0,1486.0,4.2415,INLAND
251400.0,-118.86,34.22,22.0,1230.0,200.0,673.0,195.0,6.2708,<1H OCEAN
72300.0,-124.1,40.5,30.0,1927.0,393.0,996.0,374.0,2.2357,<1H OCEAN
276600.0,-121.16,38.75,27.0,771.0,108.0,315.0,111.0,8.4882,INLAND
210200.0,-118.11,34.02,40.0,1727.0,309.0,932.0,313.0,3.95,<1H OCEAN
311400.0,-122.03,37.35,19.0,3811.0,1227.0,1930.0,1153.0,3.5154,<1H OCEAN
303400.0,-121.96,37.3,23.0,4040.0,843.0,2181.0,843.0,4.0403,<1H OCEAN
139400.0,-118.36,34.04,48.0,1769.0,429.0,993.0,405.0,2.3214,<1H OCEAN
151400.0,-121.75,36.91,42.0,1368.0,468.0,2312.0,484.0,2.5599,<1H OCEAN
79200.0,-123.28,40.77,25.0,767.0,206.0,301.0,121.0,1.625,INLAND
87500.0,-122.28,37.82,52.0,1170.0,235.0,701.0,233.0,1.6098,NEAR BAY
43100.0,-119.02,36.06,41.0,2279.0,538.0,1908.0,511.0,1.3952,INLAND
135500.0,-117.61,34.09,23.0,1945.0,362.0,1483.0,383.0,4.4205,INLAND
163100.0,-122.04,37.95,33.0,1653.0,334.0,814.0,328.0,3.1406,NEAR BAY
374500.0,-118.4,34.15,44.0,2515.0,510.0,967.0,484.0,5.0754,<1H OCEAN
164000.0,-121.84,37.35,22.0,2914.0,768.0,2962.0,762.0,2.2031,<1H OCEAN
132500.0,-120.03,38.19,26.0,7005.0,1358.0,416.0,189.0,2.125,INLAND
500001.0,-122.42,37.78,27.0,1728.0,884.0,1211.0,752.0,0.8543,NEAR BAY
207200.0,-118.08,34.09,34.0,1823.0,457.0,1485.0,401.0,3.7222,<1H OCEAN
