406200.0,-117.25,32.96,18.0,4773.0,743.0,1970.0,716.0,6.6199,NEAR OCEAN
391800.0,-122.26,37.88,52.0,2551.0,417.0,894.0,404.0,6.2425,NEAR BAY
335600.0,-117.04,33.09,16.0,4677.0,581.0,1902.0,566.0,6.1834,<1H OCEAN
500001.0,-122.2,37.35,17.0,3095.0,442.0,1173.0,424.0,13.2986,NEAR BAY
500001.0,-117.91,33.62,35.0,2426.0,359.0,937.0,387.0,9.2175,<1H OCEAN
150000.0,-118.38,34.22,32.0,362.0,100.0,348.0,102.0,2.2679,<1H OCEAN
329400.0,-118.4,34.0,34.0,1816.0,335.0,872.0,339.0,4.85,<1H OCEAN
117200.0,-118.2,34.05,40.0,1082.0,318.0,1085.0,273.0,1.7054,<1H OCEAN
243200.0,-118.11,34.08,42.0,3172.0,644.0,1829.0,642.0,3.3966,<1H OCEAN
194100.0,-118.46,34.32,10.0,5777.0,1112.0,2917.0,1056.0,4.1514,<1H OCEAN
133100.0,-121.81,38.43,30.0,1674.0,297.0,756.0,292.0,3.9286,INLAND
166000.0,-118.6,37.39,19.0,2682.0,518.0,1134.0,399.0,3.2132,INLAND
172000.0,-117.23,33.23,13.0,2899.0,657.0,1946.0,579.0,2.9875,<1H OCEAN
122800.0,-117.63,34.1,15.0,4799.0,1209.0,2554.0,1057.0,2.6582,INLAND
181100.0,-121.86,37.38,15.0,2052.0,405.0,1380.0,409.0,5.8686,<1H OCEAN
84500.0,-117.98,35.1,4.0,923.0,166.0,352.0,135.0,4.5724,INLAND
179100.0,-121.74,38.56,18.0,3960.0,1151.0,2248.0,1144.0,1.7257,INLAND
230400.0,-122.01,37.38,32.0,726.0,204.0,538.0,203.0,4.505,<1H OCEAN
206900.0,-122.12,37.12,51.0,2419.0,485.0,1078.0,435.0,2.7933,NEAR OCEAN
75400.0,-119.45,35.15,33.0,5050.0,964.0,2293.0,919.0,3.1592,INLAND
178700.0,-118.11,34.0,33.0,2886.0,726.0,2650.0,728.0,2.625,<1H OCEAN
218100.0,-122.26,38.29,10.0,969.0,160.0,482.0,180.0,6.5799,NEAR BAY
205100.0,-117.92,33.81,34.0,988.0,173.0,759.0,184.0,5.6047,<1H OCEAN
283900.0,-117.31,33.17,7.0,2349.0,312.0,809.0,282.0,5.552,NEAR OCEAN
272400.0,-118.05,34.11,48.0,1410.0,304.0,677.0,274.0,3.2596,INLAND
197400.0,-118.12,33.97,35.0,708.0,145.0,471.0,153.0,3.2,<1H OCEAN
90900.0,-120.1,36.96,20.0,2100.0,317.0,910.0,274.0,4.8187,INLAND
183400.0,-118.14,33.89,33.0,2867.0,786.0,1774.0,705.0,2.9292,<1H OCEAN
100000.0,-116.21,33.68,34.0,584.0,176.0,625.0,166.0,1.5809,INLAND
55000.0,-124.1,40.47,52.0,1196.0,236.0,965.0,265.0,3.5345,<1H OCEAN
177400.0,-117.13,32.81,19.0,2157.0,554.0,1349.0,535.0,2.7652,NEAR OCEAN
500001.0,-122.23,37.82,52.0,3242.0,366.0,1001.0,352.0,12.2138,NEAR BAY
205800.0,-118.22,34.13,40.0,2749.0,580.0,1375.0,511.0,4.825,<1H OCEAN
123100.0,-117.11,32.74,33.0,1126.0,267.0,621.0,241.0,3.2422,NEAR OCEAN
315800.0,-118.35,34.09,42.0,2210.0,643.0,1228.0,605.0,2.5982,<1H OCEAN
80800.0,-121.59,39.75,20.0,908.0,206.0,481.0,211.0,2.2,INLAND
179100.0,-119.18,34.19,36.0,4519.0,1081.0,4818.0,1061.0,2.8561,NEAR OCEAN
183800.0,-121.75,37.69,26.0,2647.0,536.0,1422.0,522.0,3.7212,INLAND
271300.0,-122.53,37.95,22.0,7446.0,1979.0,2980.0,1888.0,3.5838,NEAR BAY
325000.0,-118.18,33.77,37.0,2653.0,754.0,1087.0,698.0,2.3523,NEAR OCEAN
191700.0,-118.75,34.42,28.0,1000.0,206.0,545.0,154.0,2.4167,<1H OCEAN
223400.0,-122.02,37.56,23.0,4332.0,857.0,2461.0,829.0,4.3594,NEAR BAY
98700.0,-122.21,37.77,46.0,1234.0,375.0,1183.0,354.0,2.3309,NEAR BAY
500001.0,-118.56,34.06,24.0,2332.0,349.0,761.0,325.0,7.3031,<1H OCEAN
120700.0,-117.02,33.76,20.0,1317.0,203.0,453.0,158.0,2.8393,INLAND
181300.0,-121.95,37.27,17.0,1330.0,271.0,408.0,258.0,1.7171,<1H OCEAN
160000.0,-120.62,35.12,22.0,1240.0,294.0,768.0,288.0,2.655,<1H OCEAN
158300.0,-122.09,37.66,39.0,1160.0,259.0,725.0,274.0,2.2222,NEAR BAY
247100.0,-117.79,33.7,16.0,6259.0,1098.0,3785.0,1114.0,6.3298,<1H OCEAN
47500.0,-120.48,41.82,20.0,1367.0,284.0,429.0,181.0,2.0227,INLAND
183600.0,-117.83,33.74,23.0,6114.0,1623.0,4088.0,1521.0,3.0382,<1H OCEAN
258700.0,-117.87,34.07,21.0,4723.0,882.0,2210.0,768.0,3.8167,<1H OCEAN
329200.0,-118.53,34.27,32.0,1931.0,298.0,948.0,314.0,5.3847,<1H OCEAN
84000.0,-117.32,34.07,26.0,971.0,245.0,592.0,207.0,2.1125,INLAND
89700.0,-117.3,34.17,30.0,2483.0,573.0,1172.0,438.0,1.875,INLAND
154600.0,-118.2,33.99,31.0,1186.0,387.0,2087.0,409.0,1.9132,<1H OCEAN
55000.0,-121.58,39.14,52.0,662.0,160.0,520.0,149.0,0.8928,INLAND
98300.0,-121.3,37.98,47.0,2373.0,461.0,990.0,444.0,4.175,INLAND
357600.0,-118.75,34.18,4.0,16704.0,2704.0,6187.0,2207.0,6.6122,NEAR OCEAN
184100.0,-117.08,32.77,25.0,3911.0,849.0,1580.0,767.0,2.7778,NEAR OCEAN
225000.0,-122.46,37.71,49.0,1711.0,348.0,1138.0,325.0,2.875,NEAR OCEAN
500001.0,-122.41,37.81,31.0,3991.0,1311.0,2305.0,1201.0,1.8981,NEAR BAY
158300.0,-116.98,32.74,17.0,3943.0,843.0,1995.0,766.0,2.6944,<1H OCEAN
139000.0,-121.22,38.68,10.0,6262.0,1278.0,2954.0,1169.0,3.4506,INLAND
450000.0,-118.38,34.06,29.0,3946.0,1008.0,1676.0,876.0,2.7824,<1H OCEAN
105100.0,-121.3,37.96,52.0,1475.0,238.0,736.0,260.0,3.6591,INLAND
162900.0,-120.43,34.96,24.0,2739.0,414.0,1171.0,413.0,4.8155,<1H OCEAN
87700.0,-122.38,40.2,16.0,2722.0,511.0,1366.0,495.0,2.8447,INLAND
185700.0,-122.59,38.58,18.0,3753.0,752.0,1454.0,668.0,3.7585,<1H OCEAN
97800.0,-121.42,38.47,11.0,5665.0,1507.0,3422.0,1299.0,2.3343,INLAND
110300.0,-122.35,37.95,31.0,2449.0,595.0,1801.0,548.0,2.6328,NEAR BAY
330000.0,-118.36,33.82,28.0,67.0,15.0,49.0,11.0,6.1359,<1H OCEAN
230700.0,-117.81,33.8,25.0,2765.0,475.0,1666.0,474.0,6.0531,<1H OCEAN
203700.0,-118.0,33.94,36.0,2911.0,534.0,1395.0,486.0,5.1738,<1H OCEAN
252100.0,-122.07,37.93,25.0,7201.0,1521.0,3264.0,1433.0,3.7433,NEAR BAY
166100.0,-120.93,37.56,17.0,1812.0,361.0,672.0,334.0,1.55,INLAND
121000.0,-118.31,34.01,48.0,2544.0,532.0,1357.0,498.0,2.5263,<1H OCEAN
57400.0,-116.85,34.98,26.0,3606.0,792.0,1683.0,608.0,2.6587,INLAND
350200.0,-117.98,33.69,22.0,3957.0,520.0,1774.0,527.0,7.0907,<1H OCEAN
58800.0,-120.26,37.13,33.0,1239.0,250.0,648.0,227.0,2.0278,INLAND
83400.0,-121.5,38.49,32.0,4013.0,725.0,2032.0,675.0,3.3689,INLAND
500000.0,-122.49,37.5,21.0,1209.0,309.0,801.0,259.0,4.5625,NEAR OCEAN
122400.0,-117.38,34.07,6.0,1156.0,191.0,910.0,234.0,4.9091,INLAND
176300.0,-121.84,37.32,22.0,3015.0,581.0,2491.0,530.0,4.3419,<1H OCEAN
266700.0,-118.41,33.96,15.0,412.0,128.0,310.0,137.0,3.9792,<1H OCEAN
77300.0,-122.63,38.95,11.0,686.0,127.0,246.0,86.0,1.7083,INLAND
322200.0,-118.54,34.25,26.0,2639.0,378.0,1191.0,401.0,6.2788,<1H OCEAN
268800.0,-118.27,34.09,52.0,3225.0,763.0,1559.0,710.0,3.9674,<1H OCEAN
257700.0,-118.24,34.13,37.0,1644.0,395.0,959.0,383.0,3.3636,<1H OCEAN
380000.0,-122.41,37.79,52.0,3598.0,1011.0,2062.0,966.0,2.9871,NEAR BAY
146500.0,-122.91,38.49,37.0,2469.0,519.0,1137.0,474.0,3.6343,<1H OCEAN
296700.0,-118.01,33.95,35.0,1755.0,322.0,774.0,290.0,5.0861,<1H OCEAN
89700.0,-118.28,33.94,38.0,637.0,204.0,679.0,162.0,1.5714,<1H OCEAN
350000.0,-122.43,37.76,52.0,2250.0,566.0,1051.0,562.0,2.8458,NEAR BAY
138500.0,-121.23,37.82,8.0,1289.0,235.0,867.0,239.0,4.6821,INLAND
207800.0,-118.3,33.89,30.0,2756.0,858.0,1806.0,787.0,3.0329,<1H OCEAN
83000.0,-119.69,36.79,5.0,2613.0,476.0,1490.0,481.0,4.0993,INLAND
164100.0,-117.9,33.73,32.0,2930.0,833.0,5116.0,854.0,3.7147,<1H OCEAN
188500.0,-121.99,37.81,17.0,465.0,83.0,146.0,75.0,4.9018,<1H OCEAN
156700.0,-118.61,34.73,25.0,3080.0,587.0,1558.0,510.0,5.0839,INLAND
233100.0,-122.33,37.58,43.0,1772.0,422.0,1573.0,401.0,2.7474,NEAR OCEAN
100000.0,-116.95,32.81,15.0,2619.0,599.0,1513.0,537.0,2.543,<1H OCEAN
99300.0,-117.26,34.43,11.0,4597.0,782.0,2534.0,776.0,3.3368,INLAND
145200.0,-120.96,37.66,15.0,2485.0,434.0,1296.0,434.0,3.8542,INLAND
82500.0,-121.31,38.68,16.0,5179.0,1271.0,2181.0,1151.0,2.1009,INLAND
52500.0,-119.09,36.42,17.0,877.0,219.0,966.0,218.0,2.0,INLAND
187200.0,-122.14,37.7,17.0,1463.0,292.0,695.0,330.0,4.5859,NEAR BAY
446600.0,-118.23,34.18,45.0,2332.0,,943.0,339.0,8.1132,<1H OCEAN
366100.0,-118.36,34.15,34.0,3659.0,921.0,1338.0,835.0,3.6202,<1H OCEAN
74700.0,-119.86,36.78,7.0,2232.0,490.0,1274.0,499.0,2.9853,INLAND
151700.0,-118.44,34.28,47.0,843.0,194.0,800.0,180.0,3.3687,<1H OCEAN
222100.0,-117.84,33.8,35.0,1490.0,251.0,629.0,257.0,4.3661,<1H OCEAN
435000.0,-118.42,33.85,43.0,1584.0,477.0,799.0,433.0,5.0322,NEAR OCEAN
70600.0,-119.05,36.06,23.0,2344.0,407.0,1184.0,406.0,3.1625,INLAND
263700.0,-117.12,32.95,4.0,9018.0,1572.0,4438.0,1498.0,4.988,<1H OCEAN
107200.0,-115.56,32.96,21.0,2164.0,480.0,1164.0,421.0,3.8177,INLAND
184700.0,-121.93,37.32,51.0,2711.0,728.0,1607.0,724.0,3.0,<1H OCEAN
208300.0,-117.25,32.75,32.0,3551.0,1037.0,1731.0,935.0,2.2017,NEAR OCEAN
234900.0,-118.62,34.2,32.0,3233.0,553.0,1678.0,545.0,5.0025,<1H OCEAN
184400.0,-118.4,34.02,27.0,515.0,201.0,397.0,228.0,2.4135,<1H OCEAN
89500.0,-119.73,36.72,26.0,2645.0,1005.0,1660.0,991.0,0.6991,INLAND
339000.0,-118.45,33.99,52.0,1829.0,472.0,779.0,424.0,3.1607,<1H OCEAN
103400.0,-121.46,38.65,8.0,3746.0,767.0,2161.0,744.0,3.2039,INLAND
135500.0,-121.1,38.92,21.0,4064.0,871.0,1847.0,859.0,3.0321,INLAND
121600.0,-120.47,37.32,15.0,3952.0,984.0,2024.0,1026.0,2.558,INLAND
67900.0,-119.81,36.76,48.0,2059.0,388.0,834.0,405.0,2.9306,INLAND
235400.0,-121.92,36.62,52.0,1410.0,303.0,578.0,285.0,2.5625,NEAR OCEAN
218700.0,-121.82,37.26,10.0,3030.0,574.0,1623.0,589.0,5.1356,<1H OCEAN
284100.0,-117.9,33.65,30.0,1634.0,373.0,771.0,364.0,3.4125,<1H OCEAN
143000.0,-121.06,38.91,18.0,6501.0,1416.0,2954.0,1373.0,2.5373,INLAND
93800.0,-119.4,36.59,37.0,1486.0,296.0,977.0,290.0,3.5074,INLAND
175500.0,-122.72,38.45,41.0,1743.0,373.0,780.0,357.0,3.1467,<1H OCEAN
265800.0,-118.12,34.02,25.0,2655.0,558.0,1466.0,525.0,3.0529,<1H OCEAN
122800.0,-122.24,37.8,52.0,1803.0,420.0,1321.0,401.0,2.957,NEAR BAY
194500.0,-116.38,33.74,7.0,17579.0,3479.0,3581.0,1820.0,4.084,INLAND
140600.0,-120.0,38.52,16.0,3045.0,543.0,202.0,102.0,3.15,INLAND
92500.0,-117.11,32.67,46.0,928.0,236.0,790.0,235.0,1.6806,NEAR OCEAN
368200.0,-122.29,37.53,41.0,839.0,190.0,419.0,215.0,5.012,NEAR OCEAN
182500.0,-121.9,37.36,38.0,1141.0,333.0,1028.0,291.0,2.7333,<1H OCEAN
180400.0,-117.89,34.1,27.0,3341.0,728.0,1762.0,679.0,2.9437,<1H OCEAN
140400.0,-117.06,32.56,17.0,2803.0,683.0,2768.0,676.0,1.7958,NEAR OCEAN
181300.0,-118.45,34.19,11.0,2479.0,900.0,2466.0,855.0,2.2264,<1H OCEAN
71900.0,-119.03,35.34,36.0,3474.0,645.0,1679.0,616.0,2.7256,INLAND
102400.0,-118.3,33.98,48.0,1998.0,410.0,1176.0,382.0,3.0455,<1H OCEAN
374600.0,-121.51,37.02,19.0,2372.0,394.0,1142.0,365.0,4.0238,INLAND
254200.0,-121.87,37.43,22.0,3805.0,596.0,2118.0,621.0,6.2892,<1H OCEAN
152400.0,-117.19,34.03,36.0,2223.0,361.0,942.0,331.0,4.6806,INLAND
136900.0,-118.2,33.88,40.0,2945.0,725.0,2858.0,690.0,3.2368,<1H OCEAN
137500.0,-117.95,34.14,33.0,1943.0,440.0,1526.0,353.0,3.038,INLAND
309200.0,-117.6,33.41,29.0,2193.0,389.0,922.0,387.0,4.5476,NEAR OCEAN
92500.0,-119.3,36.32,23.0,3521.0,615.0,1712.0,636.0,3.3875,INLAND
91800.0,-122.17,37.75,37.0,1379.0,287.0,835.0,259.0,2.4962,NEAR BAY
500001.0,-118.4,34.03,36.0,1831.0,296.0,871.0,269.0,8.1484,<1H OCEAN
259300.0,-122.08,37.7,32.0,2718.0,447.0,1156.0,410.0,5.2497,NEAR BAY
116100.0,-122.11,38.01,39.0,1313.0,306.0,575.0,231.0,3.1711,NEAR BAY
96900.0,-121.21,37.79,33.0,811.0,185.0,446.0,198.0,1.6724,INLAND
258000.0,-118.01,33.79,23.0,2663.0,430.0,1499.0,403.0,5.7837,<1H OCEAN
500001.0,-118.44,33.81,33.0,3994.0,990.0,1647.0,931.0,5.0106,NEAR OCEAN
500001.0,-118.41,34.06,43.0,2665.0,556.0,1015.0,506.0,4.1411,<1H OCEAN
54300.0,-118.08,33.76,26.0,1967.0,577.0,692.0,538.0,1.6111,<1H OCEAN
60600.0,-122.36,40.69,32.0,3611.0,772.0,2060.0,759.0,1.7427,INLAND
98600.0,-117.48,34.09,32.0,1650.0,328.0,1124.0,290.0,3.1838,INLAND
162500.0,-118.28,34.01,46.0,441.0,167.0,621.0,144.0,1.8824,<1H OCEAN
215000.0,-117.52,33.82,14.0,3776.0,580.0,1877.0,559.0,5.1365,INLAND
86400.0,-122.23,38.15,33.0,1253.0,238.0,753.0,236.0,1.756,NEAR BAY
117800.0,-121.87,38.02,31.0,3644.0,746.0,2229.0,678.0,3.1389,INLAND
209000.0,-118.15,33.95,35.0,2753.0,702.0,1592.0,614.0,2.7875,<1H OCEAN
139100.0,-117.75,34.08,33.0,1067.0,194.0,600.0,201.0,4.0368,INLAND
500001.0,-122.06,37.38,20.0,3401.0,768.0,1497.0,747.0,4.2188,NEAR BAY
265200.0,-117.88,33.96,16.0,19059.0,3079.0,10988.0,3061.0,5.5469,<1H OCEAN
303400.0,-116.95,32.77,25.0,3308.0,421.0,1201.0,414.0,6.3191,<1H OCEAN
163400.0,-121.04,38.81,11.0,3522.0,623.0,1456.0,544.0,3.93,INLAND
130700.0,-121.35,38.66,8.0,3322.0,805.0,1694.0,774.0,2.7011,INLAND
102500.0,-117.52,33.88,21.0,722.0,178.0,770.0,165.0,2.5656,INLAND
500001.0,-122.37,37.56,21.0,7189.0,874.0,2440.0,846.0,11.6833,NEAR OCEAN
157500.0,-121.48,38.58,52.0,2501.0,757.0,1081.0,708.0,1.5872,INLAND
231300.0,-118.35,33.91,19.0,1949.0,559.0,1282.0,498.0,2.7813,<1H OCEAN
43500.0,-121.62,41.78,40.0,3272.0,663.0,1467.0,553.0,1.7885,INLAND
187500.0,-118.14,34.15,52.0,407.0,160.0,227.0,148.0,1.5156,<1H OCEAN
128100.0,-118.29,34.04,31.0,700.0,299.0,1272.0,298.0,2.1542,<1H OCEAN
109400.0,-117.43,33.93,31.0,1273.0,262.0,686.0,254.0,2.4922,INLAND
290600.0,-118.29,34.07,19.0,3013.0,1118.0,2465.0,1008.0,2.5386,<1H OCEAN
156300.0,-117.14,32.72,45.0,1140.0,310.0,840.0,339.0,1.6156,NEAR OCEAN
213300.0,-117.99,33.79,21.0,2695.0,707.0,1888.0,683.0,3.2857,<1H OCEAN
375400.0,-117.9,33.88,28.0,2696.0,346.0,947.0,356.0,9.0055,<1H OCEAN
214500.0,-117.68,33.49,17.0,2232.0,372.0,1072.0,385.0,4.245,<1H OCEAN
279300.0,-122.42,37.73,35.0,1871.0,342.0,1055.0,310.0,4.625,NEAR BAY
244900.0,-118.11,33.79,36.0,1993.0,354.0,884.0,337.0,5.587,<1H OCEAN
270700.0,-118.07,34.11,41.0,2869.0,563.0,1627.0,533.0,5.0736,<1H OCEAN
146300.0,-118.22,33.82,30.0,1680.0,469.0,1779.0,429.0,3.6086,NEAR OCEAN
209000.0,-119.26,34.27,36.0,1972.0,382.0,1029.0,411.0,3.7337,NEAR OCEAN
156100.0,-118.21,33.94,41.0,1807.0,442.0,1628.0,443.0,2.84,<1H OCEAN
112500.0,-119.4,36.04,39.0,915.0,199.0,580.0,175.0,1.8894,INLAND
110400.0,-123.84,39.46,47.0,1150.0,244.0,552.0,201.0,2.5192,<1H OCEAN
174300.0,-117.97,33.86,35.0,1691.0,367.0,1265.0,378.0,3.5855,<1H OCEAN
117400.0,-118.19,33.91,33.0,915.0,225.0,826.0,212.0,2.7708,<1H OCEAN
87500.0,-121.26,37.99,27.0,429.0,102.0,179.0,90.0,2.3333,INLAND
87200.0,-120.85,37.78,30.0,1120.0,248.0,609.0,237.0,2.2386,INLAND
257800.0,-122.25,37.81,29.0,4656.0,1414.0,2304.0,1250.0,2.4912,NEAR BAY
357400.0,-119.72,34.43,46.0,1332.0,329.0,746.0,310.0,3.6719,<1H OCEAN
85400.0,-122.18,39.7,23.0,1658.0,307.0,836.0,297.0,3.35,INLAND
157300.0,-117.92,34.03,35.0,1341.0,233.0,898.0,216.0,4.1118,<1H OCEAN
61600.0,-119.58,36.11,21.0,2004.0,385.0,1397.0,398.0,2.2169,INLAND
141600.0,-122.33,37.94,43.0,1876.0,389.0,807.0,377.0,3.1571,NEAR BAY
246300.0,-122.51,38.17,8.0,5875.0,1115.0,2808.0,1029.0,3.6392,NEAR BAY
411900.0,-122.03,37.36,28.0,2490.0,345.0,948.0,361.0,6.4913,<1H OCEAN
287700.0,-122.49,37.7,36.0,1946.0,340.0,828.0,313.0,5.2811,NEAR OCEAN
