103600.0,-117.76,34.06,33.0,1831.0,486.0,1625.0,472.0,1.9937,INLAND
83700.0,-119.76,36.8,20.0,6257.0,1346.0,2795.0,1267.0,2.2094,INLAND
133200.0,-117.35,34.2,5.0,9269.0,1605.0,4916.0,1519.0,4.4367,INLAND
121000.0,-121.76,36.77,27.0,1608.0,503.0,2031.0,498.0,2.3384,<1H OCEAN
224500.0,-119.19,34.21,27.0,1887.0,487.0,1339.0,428.0,2.9185,NEAR OCEAN
184600.0,-118.43,34.22,34.0,1588.0,360.0,1080.0,340.0,3.66,<1H OCEAN
500001.0,-122.45,37.79,52.0,1457.0,215.0,495.0,208.0,10.7097,NEAR BAY
223100.0,-119.88,34.43,16.0,2206.0,541.0,1227.0,554.0,3.75,NEAR OCEAN
96100.0,-120.01,38.92,23.0,964.0,246.0,485.0,198.0,1.7188,INLAND
115100.0,-121.26,38.11,8.0,2770.0,642.0,1611.0,633.0,3.1284,INLAND
135200.0,-118.29,34.03,38.0,1501.0,437.0,1777.0,441.0,2.0848,<1H OCEAN
275100.0,-122.0,37.54,29.0,4133.0,744.0,2023.0,749.0,5.1616,<1H OCEAN
500001.0,-118.41,33.89,35.0,1194.0,292.0,507.0,295.0,9.0812,<1H OCEAN
142000.0,-121.43,38.57,46.0,2443.0,476.0,939.0,457.0,3.5893,INLAND
218800.0,-118.19,33.78,21.0,2741.0,1029.0,2924.0,969.0,1.3274,NEAR OCEAN
159400.0,-118.09,33.91,14.0,2369.0,604.0,1546.0,464.0,3.7969,<1H OCEAN
171300.0,-118.31,33.9,28.0,1576.0,400.0,891.0,378.0,2.6312,<1H OCEAN
210400.0,-122.31,38.34,19.0,4187.0,684.0,1827.0,605.0,4.5293,NEAR BAY
370000.0,-122.44,37.76,52.0,2110.0,454.0,816.0,438.0,3.9079,NEAR BAY
57500.0,-118.97,35.38,35.0,1673.0,426.0,1041.0,413.0,1.375,INLAND
345700.0,-122.56,37.98,36.0,2649.0,542.0,1111.0,557.0,4.8056,NEAR BAY
426900.0,-121.92,37.29,35.0,2189.0,307.0,800.0,320.0,7.6659,<1H OCEAN
96100.0,-117.11,33.75,17.0,4174.0,851.0,1845.0,780.0,2.2618,INLAND
212500.0,-122.42,37.64,41.0,98.0,20.0,68.0,19.0,2.225,NEAR OCEAN
71300.0,-117.18,34.3,33.0,399.0,87.0,71.0,27.0,1.875,INLAND
85100.0,-120.49,40.31,16.0,1821.0,360.0,969.0,359.0,3.4643,INLAND
500001.0,-119.63,34.42,42.0,1765.0,263.0,753.0,260.0,8.5608,<1H OCEAN
185600.0,-118.17,34.68,13.0,5341.0,773.0,2288.0,724.0,6.6772,INLAND
183400.0,-118.09,33.94,36.0,2762.0,472.0,1576.0,493.0,4.0846,<1H OCEAN
305800.0,-119.21,34.12,15.0,5778.0,1285.0,1722.0,829.0,4.3427,NEAR OCEAN
281800.0,-117.81,33.76,32.0,2053.0,339.0,835.0,323.0,5.5654,<1H OCEAN
159400.0,-117.96,34.48,32.0,1896.0,342.0,806.0,299.0,4.5769,INLAND
122900.0,-122.42,40.6,5.0,2614.0,433.0,1275.0,411.0,3.4464,INLAND
295100.0,-118.09,33.7,13.0,4770.0,969.0,2261.0,972.0,5.883,NEAR OCEAN
247300.0,-118.64,34.19,28.0,3274.0,571.0,1424.0,521.0,4.4167,<1H OCEAN
116500.0,-121.38,38.62,34.0,2352.0,610.0,1127.0,592.0,2.2,INLAND
240900.0,-117.13,32.73,52.0,1148.0,214.0,481.0,215.0,5.454,NEAR OCEAN
85100.0,-117.18,34.06,26.0,1953.0,446.0,1284.0,414.0,1.3485,INLAND
212800.0,-117.9,34.15,21.0,2056.0,461.0,1332.0,429.0,3.3942,INLAND
202300.0,-118.11,34.07,19.0,3215.0,907.0,3072.0,870.0,2.3393,<1H OCEAN
500001.0,-117.77,33.51,29.0,3590.0,772.0,1070.0,603.0,4.4464,<1H OCEAN
181400.0,-117.2,32.84,32.0,2033.0,394.0,989.0,389.0,3.2583,NEAR OCEAN
265600.0,-118.33,33.87,44.0,724.0,133.0,373.0,133.0,3.9167,<1H OCEAN
113800.0,-121.07,39.23,39.0,2099.0,433.0,929.0,423.0,1.9886,INLAND
154600.0,-118.2,33.97,30.0,1911.0,562.0,2055.0,534.0,2.3917,<1H OCEAN
195800.0,-118.36,33.97,18.0,1284.0,283.0,990.0,289.0,4.0179,<1H OCEAN
267400.0,-121.88,37.27,27.0,2019.0,335.0,1020.0,351.0,5.8178,<1H OCEAN
500001.0,-118.05,34.15,32.0,5131.0,665.0,1877.0,622.0,8.2004,INLAND
132200.0,-121.99,38.34,16.0,1470.0,261.0,748.0,256.0,4.0433,INLAND
200000.0,-122.28,37.87,52.0,589.0,132.0,288.0,131.0,3.5156,NEAR BAY
162500.0,-121.0,37.64,19.0,121.0,41.0,658.0,41.0,0.9573,INLAND
65800.0,-122.34,41.06,33.0,2149.0,498.0,631.0,273.0,1.8816,INLAND
249000.0,-122.41,37.74,52.0,831.0,175.0,415.0,159.0,1.9464,NEAR BAY
137500.0,-121.64,36.67,28.0,256.0,66.0,214.0,60.0,3.0197,<1H OCEAN
293200.0,-122.29,37.54,43.0,2268.0,438.0,1151.0,449.0,4.9091,NEAR OCEAN
83600.0,-119.81,36.51,31.0,1241.0,254.0,767.0,226.0,2.7321,INLAND
178100.0,-118.12,33.98,44.0,932.0,179.0,717.0,180.0,3.6875,<1H OCEAN
189000.0,-122.14,37.46,27.0,5580.0,2009.0,4165.0,1763.0,2.4375,NEAR BAY
94900.0,-118.46,35.13,19.0,3109.0,640.0,1457.0,620.0,2.6417,INLAND
322300.0,-122.07,37.41,26.0,1184.0,225.0,815.0,218.0,5.7657,NEAR BAY
93400.0,-120.96,37.61,23.0,3497.0,887.0,2467.0,816.0,1.9444,INLAND
225000.0,-117.92,33.64,5.0,949.0,287.0,497.0,244.0,2.75,<1H OCEAN
318500.0,-118.01,34.16,47.0,1745.0,270.0,753.0,275.0,5.532,INLAND
252100.0,-117.59,33.4,22.0,3167.0,743.0,1797.0,642.0,4.0076,NEAR OCEAN
172900.0,-118.13,34.02,43.0,396.0,91.0,261.0,73.0,2.9044,<1H OCEAN
221000.0,-121.75,37.29,15.0,1486.0,310.0,455.0,296.0,4.3365,<1H OCEAN
95300.0,-119.38,36.56,14.0,3965.0,804.0,1945.0,733.0,2.6906,INLAND
92100.0,-124.13,40.62,43.0,2131.0,399.0,910.0,389.0,2.5804,NEAR OCEAN
208300.0,-122.16,38.05,34.0,2434.0,428.0,926.0,423.0,4.6776,NEAR BAY
184200.0,-117.76,33.94,40.0,1092.0,213.0,457.0,190.0,5.1165,<1H OCEAN
361000.0,-122.47,37.75,45.0,2399.0,426.0,911.0,423.0,4.4312,NEAR BAY
97000.0,-121.82,39.75,37.0,2236.0,372.0,974.0,379.0,3.2016,INLAND
158200.0,-118.2,33.85,46.0,1854.0,462.0,1360.0,429.0,2.4844,<1H OCEAN
147900.0,-122.74,38.44,23.0,2819.0,612.0,1644.0,546.0,2.6576,<1H OCEAN
169100.0,-118.28,33.78,20.0,2233.0,591.0,1915.0,558.0,3.2011,<1H OCEAN
168800.0,-118.32,33.94,37.0,2740.0,504.0,1468.0,479.0,4.5368,<1H OCEAN
81700.0,-116.89,33.75,23.0,2719.0,538.0,930.0,485.0,2.0154,INLAND
463600.0,-118.41,34.03,20.0,4374.0,1311.0,2165.0,1185.0,3.6019,<1H OCEAN
68200.0,-117.29,34.12,47.0,1648.0,432.0,1308.0,385.0,1.2069,INLAND
56800.0,-121.28,37.94,44.0,1406.0,357.0,1489.0,386.0,1.4688,INLAND
250500.0,-122.57,38.27,7.0,6508.0,1028.0,2902.0,1010.0,5.3707,<1H OCEAN
143200.0,-122.73,38.43,29.0,2677.0,691.0,1880.0,664.0,2.1864,<1H OCEAN
247600.0,-121.97,37.36,36.0,765.0,134.0,306.0,136.0,4.575,<1H OCEAN
340700.0,-121.98,37.26,27.0,2331.0,461.0,1178.0,447.0,4.6654,<1H OCEAN
293900.0,-120.82,35.31,16.0,3924.0,699.0,1325.0,638.0,2.5172,NEAR OCEAN
57500.0,-117.09,32.64,20.0,1999.0,651.0,1302.0,592.0,1.6321,NEAR OCEAN
500001.0,-118.43,34.05,22.0,4251.0,1073.0,1581.0,881.0,5.2555,<1H OCEAN
182000.0,-122.0,37.98,35.0,1192.0,201.0,535.0,172.0,4.9219,INLAND
184300.0,-117.92,33.79,26.0,2737.0,614.0,1877.0,606.0,2.8622,<1H OCEAN
189600.0,-117.01,32.76,22.0,3626.0,824.0,1800.0,769.0,2.8594,<1H OCEAN
268100.0,-118.1,33.86,21.0,3052.0,624.0,1588.0,568.0,4.3397,<1H OCEAN
443600.0,-119.69,34.43,44.0,2440.0,485.0,1011.0,442.0,4.149,<1H OCEAN
67500.0,-115.38,32.81,35.0,1263.0,262.0,950.0,241.0,1.8958,INLAND
301200.0,-118.25,34.22,30.0,2062.0,396.0,1089.0,375.0,5.5362,<1H OCEAN
214500.0,-117.23,33.16,2.0,4624.0,946.0,2091.0,808.0,3.6736,NEAR OCEAN
164600.0,-118.03,33.96,37.0,1180.0,256.0,614.0,242.0,3.117,<1H OCEAN
453600.0,-118.1,33.94,34.0,1947.0,284.0,841.0,277.0,6.1814,<1H OCEAN
294700.0,-121.95,37.33,36.0,1683.0,286.0,740.0,324.0,4.7604,<1H OCEAN
350400.0,-118.36,34.01,33.0,3140.0,466.0,1214.0,464.0,6.5044,<1H OCEAN
387200.0,-122.07,37.88,11.0,1077.0,318.0,590.0,264.0,3.5536,NEAR BAY
166500.0,-117.13,32.81,26.0,2119.0,444.0,1202.0,440.0,3.2308,NEAR OCEAN
304100.0,-117.67,34.13,10.0,2846.0,362.0,1221.0,355.0,7.7234,INLAND
221000.0,-118.44,34.18,36.0,2077.0,496.0,1206.0,528.0,2.2326,<1H OCEAN
361200.0,-121.86,37.22,18.0,7245.0,1029.0,2893.0,1049.0,6.9508,<1H OCEAN
119400.0,-121.28,37.82,10.0,9205.0,1774.0,5935.0,1673.0,3.65,INLAND
500001.0,-118.68,34.13,9.0,11251.0,1594.0,3029.0,1227.0,6.7273,<1H OCEAN
122300.0,-120.57,38.2,13.0,4110.0,847.0,1796.0,706.0,2.6417,INLAND
142000.0,-117.03,32.73,34.0,2061.0,,1169.0,400.0,3.5096,NEAR OCEAN
162500.0,-118.3,34.17,30.0,48.0,14.0,74.0,16.0,5.0056,<1H OCEAN
132600.0,-117.61,34.1,9.0,18956.0,4095.0,10323.0,3832.0,3.6033,INLAND
217300.0,-118.28,34.1,49.0,2843.0,880.0,2004.0,796.0,2.7875,<1H OCEAN
146800.0,-117.5,33.92,28.0,2101.0,337.0,1061.0,348.0,4.55,INLAND
124800.0,-120.84,37.52,16.0,4527.0,887.0,2531.0,825.0,3.7065,INLAND
194200.0,-122.31,37.94,38.0,2172.0,403.0,945.0,384.0,4.3958,NEAR BAY
270600.0,-122.29,37.89,52.0,979.0,175.0,374.0,153.0,5.1675,NEAR BAY
247300.0,-122.32,37.93,40.0,3056.0,489.0,1103.0,481.0,5.1067,NEAR BAY
175400.0,-117.91,33.84,35.0,1244.0,324.0,1603.0,322.0,2.9583,<1H OCEAN
82400.0,-121.44,38.51,27.0,7212.0,1606.0,4828.0,1549.0,2.214,INLAND
80100.0,-114.47,34.4,19.0,7650.0,1901.0,1129.0,463.0,1.82,INLAND
106400.0,-121.02,37.68,28.0,2875.0,560.0,1608.0,558.0,3.5489,INLAND
461100.0,-118.47,34.01,43.0,1160.0,304.0,393.0,250.0,2.9167,<1H OCEAN
162600.0,-118.17,33.87,40.0,2462.0,587.0,1821.0,536.0,3.5646,<1H OCEAN
56700.0,-119.44,36.59,28.0,1343.0,330.0,1331.0,305.0,1.516,INLAND
218200.0,-117.86,34.09,29.0,3855.0,585.0,2205.0,609.0,5.5496,<1H OCEAN
327300.0,-118.34,34.06,52.0,1482.0,336.0,768.0,300.0,3.7167,<1H OCEAN
252600.0,-122.44,37.66,21.0,5108.0,1510.0,3288.0,1405.0,3.1927,NEAR OCEAN
113700.0,-120.44,34.97,26.0,1705.0,344.0,1605.0,307.0,3.7589,<1H OCEAN
191700.0,-117.96,34.07,35.0,2819.0,529.0,1508.0,485.0,4.6118,<1H OCEAN
391300.0,-117.06,32.79,21.0,3787.0,492.0,1246.0,457.0,9.6023,<1H OCEAN
51100.0,-119.35,36.2,29.0,1938.0,404.0,1487.0,414.0,1.7462,INLAND
213400.0,-122.15,37.68,30.0,2261.0,443.0,929.0,383.0,4.2841,NEAR BAY
157800.0,-118.03,34.06,27.0,2510.0,783.0,3481.0,726.0,2.4875,<1H OCEAN
500001.0,-122.09,37.37,27.0,1269.0,186.0,464.0,182.0,6.8374,NEAR BAY
165500.0,-117.94,33.92,32.0,1053.0,207.0,1038.0,222.0,4.6696,<1H OCEAN
90700.0,-120.96,37.64,41.0,1467.0,328.0,673.0,310.0,2.7917,INLAND
120700.0,-117.07,32.75,31.0,2036.0,501.0,1263.0,442.0,2.5583,NEAR OCEAN
187500.0,-117.37,33.2,19.0,928.0,317.0,845.0,319.0,1.6318,NEAR OCEAN
114800.0,-122.22,37.77,40.0,494.0,114.0,547.0,135.0,2.8015,NEAR BAY
224100.0,-122.25,37.83,52.0,2376.0,559.0,939.0,519.0,3.1484,NEAR BAY
308100.0,-118.77,34.24,6.0,16222.0,2309.0,6700.0,2080.0,6.4963,<1H OCEAN
98300.0,-118.28,33.99,46.0,2577.0,703.0,2446.0,687.0,1.275,<1H OCEAN
204200.0,-122.09,38.0,6.0,10191.0,1882.0,4377.0,1789.0,5.2015,NEAR BAY
168100.0,-121.77,38.01,13.0,2983.0,534.0,1417.0,510.0,3.9861,INLAND
261300.0,-118.49,34.26,25.0,8389.0,1872.0,4483.0,1747.0,3.5497,<1H OCEAN
67500.0,-122.53,38.01,16.0,1495.0,292.0,472.0,284.0,3.4432,NEAR BAY
98900.0,-122.9,39.23,39.0,1295.0,240.0,534.0,179.0,3.9519,INLAND
243800.0,-121.91,36.62,52.0,1220.0,267.0,488.0,265.0,3.7454,<1H OCEAN
62300.0,-121.26,37.96,43.0,940.0,208.0,690.0,181.0,2.3056,INLAND
136800.0,-117.38,33.94,21.0,2468.0,380.0,1164.0,385.0,4.0625,INLAND
139600.0,-118.22,34.03,45.0,554.0,214.0,888.0,218.0,1.8125,<1H OCEAN
169900.0,-117.05,33.13,17.0,2385.0,372.0,1118.0,369.0,4.2813,<1H OCEAN
49400.0,-119.76,36.75,35.0,2347.0,526.0,1676.0,481.0,1.6548,INLAND
133800.0,-119.33,36.3,11.0,3045.0,,1563.0,516.0,5.4337,INLAND
97100.0,-117.31,33.25,13.0,3075.0,630.0,1843.0,674.0,2.8558,<1H OCEAN
138000.0,-121.36,38.56,17.0,6225.0,938.0,3064.0,947.0,5.2881,INLAND
385900.0,-118.35,34.13,39.0,1610.0,278.0,511.0,278.0,4.3333,<1H OCEAN
79300.0,-117.27,34.09,36.0,848.0,186.0,737.0,169.0,0.9838,INLAND
200000.0,-118.33,34.09,30.0,1679.0,682.0,1445.0,579.0,2.1403,<1H OCEAN
192600.0,-122.08,37.63,33.0,691.0,127.0,431.0,149.0,4.25,NEAR BAY
247900.0,-121.23,38.04,32.0,1829.0,262.0,677.0,243.0,6.1805,INLAND
146900.0,-120.18,39.17,18.0,1703.0,360.0,354.0,163.0,3.6563,INLAND
274600.0,-117.69,33.65,16.0,5805.0,852.0,2356.0,795.0,6.1062,<1H OCEAN
52600.0,-119.82,36.72,25.0,2581.0,528.0,1642.0,509.0,1.6435,INLAND
500001.0,-118.36,34.1,36.0,2963.0,838.0,1129.0,745.0,2.5588,<1H OCEAN
350000.0,-117.82,33.67,15.0,1010.0,274.0,649.0,261.0,2.5197,<1H OCEAN
188200.0,-118.13,34.09,21.0,3862.0,1186.0,2773.0,1102.0,2.7816,<1H OCEAN
220700.0,-117.98,33.84,31.0,1252.0,225.0,714.0,226.0,4.6042,<1H OCEAN
77600.0,-121.45,38.55,19.0,3374.0,808.0,1412.0,753.0,1.4889,INLAND
88800.0,-121.14,39.86,16.0,2534.0,557.0,638.0,244.0,2.2101,INLAND
430600.0,-121.62,37.61,26.0,1786.0,306.0,771.0,279.0,5.7239,INLAND
248400.0,-117.66,33.61,17.0,3464.0,519.0,1713.0,530.0,6.0471,<1H OCEAN
97800.0,-121.78,38.68,39.0,2806.0,662.0,1659.0,638.0,1.9787,INLAND
115800.0,-118.25,33.89,36.0,406.0,71.0,268.0,77.0,3.9,<1H OCEAN
147800.0,-116.94,32.83,38.0,1701.0,317.0,872.0,304.0,3.7831,<1H OCEAN
137000.0,-121.26,38.69,17.0,3917.0,638.0,1809.0,564.0,5.2586,INLAND
152900.0,-118.36,34.21,41.0,337.0,65.0,198.0,50.0,1.8929,<1H OCEAN
98900.0,-118.26,33.92,40.0,1076.0,244.0,705.0,255.0,1.7986,<1H OCEAN
185700.0,-118.2,34.11,36.0,1441.0,534.0,1809.0,500.0,2.1793,<1H OCEAN
311500.0,-122.2,37.84,30.0,2211.0,346.0,844.0,343.0,6.0666,NEAR BAY
320900.0,-122.06,36.98,15.0,3385.0,669.0,1571.0,615.0,4.2254,NEAR OCEAN
59200.0,-114.73,33.43,24.0,796.0,243.0,227.0,139.0,0.8964,INLAND
279300.0,-117.96,33.7,23.0,4417.0,740.0,1865.0,693.0,5.3428,<1H OCEAN
70400.0,-120.64,37.38,21.0,3157.0,637.0,2268.0,620.0,2.567,INLAND
146300.0,-122.05,37.11,39.0,1065.0,248.0,497.0,208.0,4.5972,NEAR OCEAN
126000.0,-119.81,36.83,19.0,6789.0,1200.0,2325.0,1109.0,4.049,INLAND
500001.0,-117.17,32.69,40.0,2236.0,331.0,767.0,316.0,5.3177,NEAR OCEAN
143400.0,-116.75,33.83,16.0,5277.0,1070.0,657.0,276.0,3.3333,INLAND
343800.0,-118.44,34.03,30.0,1039.0,303.0,606.0,274.0,3.125,<1H OCEAN
422200.0,-117.23,32.81,24.0,3271.0,508.0,1496.0,482.0,5.9359,NEAR OCEAN
207400.0,-117.89,34.08,25.0,2115.0,489.0,1107.0,477.0,3.1949,<1H OCEAN
122100.0,-123.22,39.15,36.0,1166.0,216.0,504.0,203.0,3.5938,<1H OCEAN
210700.0,-118.26,34.14,6.0,1727.0,506.0,1200.0,439.0,4.1083,<1H OCEAN
346900.0,-117.96,33.9,10.0,2423.0,356.0,1213.0,347.0,6.5635,<1H OCEAN
115300.0,-120.41,38.03,14.0,2061.0,465.0,859.0,462.0,2.1289,INLAND
223200.0,-118.01,33.79,30.0,2460.0,403.0,1277.0,395.0,5.4372,<1H OCEAN
97400.0,-118.24,33.92,42.0,328.0,100.0,605.0,87.0,2.4464,<1H OCEAN
200000.0,-118.36,34.09,36.0,1390.0,458.0,874.0,468.0,2.5812,<1H OCEAN
118500.0,-119.08,35.34,16.0,1535.0,238.0,768.0,236.0,5.4449,INLAND
450000.0,-118.35,34.07,48.0,890.0,255.0,434.0,232.0,3.6111,<1H OCEAN
263600.0,-118.28,34.24,32.0,2542.0,526.0,1278.0,493.0,4.45,<1H OCEAN
112500.0,-119.71,36.82,12.0,2144.0,568.0,1320.0,566.0,2.3381,INLAND
372200.0,-122.44,37.78,52.0,2695.0,657.0,1243.0,573.0,2.8569,NEAR BAY
103300.0,-121.37,38.66,17.0,4866.0,1056.0,2371.0,1030.0,2.4574,INLAND
178500.0,-117.9,33.73,26.0,1324.0,314.0,1804.0,311.0,3.9659,<1H OCEAN
306300.0,-122.23,37.76,52.0,1705.0,246.0,658.0,253.0,5.75,NEAR BAY
205700.0,-118.14,34.17,52.0,2687.0,600.0,1716.0,544.0,2.7201,<1H OCEAN
110100.0,-117.09,32.74,42.0,1986.0,472.0,1472.0,475.0,2.1757,NEAR OCEAN
