97600.0,-120.02,38.86,19.0,2429.0,459.0,883.0,300.0,3.017,INLAND
155600.0,-118.2,33.92,39.0,1050.0,217.0,895.0,207.0,3.1538,<1H OCEAN
124700.0,-117.51,34.0,36.0,3791.0,746.0,2258.0,672.0,3.2067,INLAND
165600.0,-118.08,33.91,30.0,3259.0,942.0,2744.0,895.0,2.8608,<1H OCEAN
278700.0,-117.65,33.6,15.0,5736.0,,2529.0,762.0,6.4114,<1H OCEAN
159300.0,-117.01,32.79,33.0,4015.0,663.0,1864.0,664.0,4.3152,<1H OCEAN
131500.0,-117.11,32.62,27.0,1846.0,509.0,1078.0,482.0,2.1719,NEAR OCEAN
193800.0,-118.29,34.05,30.0,1417.0,589.0,1615.0,540.0,1.3867,<1H OCEAN
188800.0,-117.93,34.07,34.0,1409.0,305.0,819.0,273.0,3.3977,<1H OCEAN
303800.0,-117.94,33.94,25.0,3250.0,546.0,1452.0,501.0,5.1084,<1H OCEAN
54400.0,-119.68,36.32,28.0,1325.0,276.0,873.0,240.0,2.5833,INLAND
341700.0,-122.44,37.78,52.0,2747.0,736.0,1309.0,653.0,2.943,NEAR BAY
126200.0,-117.06,34.03,27.0,1945.0,446.0,859.0,418.0,1.5203,INLAND
450000.0,-118.32,33.35,27.0,1675.0,521.0,744.0,331.0,2.1579,ISLAND
298200.0,-122.01,37.95,8.0,3866.0,539.0,1555.0,513.0,6.0901,NEAR BAY
191700.0,-118.48,34.2,23.0,2850.0,864.0,2249.0,777.0,2.6957,<1H OCEAN
95600.0,-122.35,37.94,47.0,1275.0,275.0,844.0,273.0,2.8967,NEAR BAY
130000.0,-118.12,34.7,7.0,4915.0,885.0,2833.0,874.0,4.3229,INLAND
269800.0,-122.04,37.58,14.0,14917.0,2708.0,8012.0,2606.0,5.6277,NEAR BAY
135300.0,-121.2,37.8,28.0,3264.0,576.0,1512.0,567.0,3.7546,INLAND
321300.0,-118.9,34.26,5.0,25187.0,3521.0,11956.0,3478.0,6.9712,<1H OCEAN
163400.0,-120.44,34.64,8.0,787.0,126.0,446.0,133.0,4.6023,NEAR OCEAN
500001.0,-118.38,33.75,23.0,8277.0,1290.0,3176.0,1159.0,7.6986,NEAR OCEAN
146900.0,-121.18,37.96,35.0,411.0,74.0,193.0,59.0,2.5625,INLAND
172400.0,-122.69,38.32,15.0,2536.0,414.0,1400.0,426.0,5.6613,<1H OCEAN
189700.0,-121.67,36.66,19.0,9371.0,1980.0,4259.0,1882.0,3.6875,<1H OCEAN
93000.0,-117.25,34.06,23.0,4503.0,1156.0,3264.0,937.0,1.9821,INLAND
76500.0,-122.32,40.42,17.0,3019.0,578.0,1538.0,545.0,2.793,INLAND
293900.0,-122.81,38.36,18.0,2399.0,389.0,1131.0,391.0,5.2769,<1H OCEAN
500001.0,-122.43,37.8,52.0,2802.0,622.0,954.0,572.0,4.5399,NEAR BAY
103600.0,-121.44,38.46,10.0,4446.0,897.0,2499.0,884.0,3.5461,INLAND
195800.0,-122.58,38.59,33.0,1239.0,262.0,539.0,246.0,3.5208,INLAND
179500.0,-121.82,37.28,31.0,1340.0,235.0,1336.0,270.0,4.2361,<1H OCEAN
205000.0,-118.09,34.15,52.0,670.0,141.0,268.0,110.0,3.5568,INLAND
283300.0,-118.3,34.1,37.0,5305.0,1980.0,3895.0,1874.0,2.0672,<1H OCEAN
120000.0,-121.35,38.68,20.0,7085.0,1222.0,3455.0,1229.0,4.3118,INLAND
179200.0,-118.41,34.23,35.0,1026.0,195.0,753.0,185.0,4.5909,<1H OCEAN
66300.0,-121.82,39.72,42.0,2978.0,694.0,1879.0,679.0,1.5064,INLAND
42500.0,-115.52,34.22,30.0,540.0,136.0,122.0,63.0,1.3333,INLAND
303700.0,-118.37,33.91,35.0,1742.0,283.0,812.0,282.0,5.6704,<1H OCEAN
58600.0,-116.17,33.53,13.0,1713.0,512.0,1978.0,442.0,2.1287,INLAND
179800.0,-118.59,34.2,21.0,1789.0,,2300.0,677.0,2.754,<1H OCEAN
174000.0,-117.99,33.87,16.0,1689.0,499.0,1260.0,453.0,3.1205,<1H OCEAN
154400.0,-117.13,32.76,41.0,1545.0,420.0,747.0,415.0,2.375,NEAR OCEAN
55000.0,-116.95,33.86,1.0,6.0,2.0,8.0,2.0,1.625,INLAND
356100.0,-118.42,33.96,24.0,4393.0,966.0,1257.0,579.0,5.0714,<1H OCEAN
141800.0,-121.26,38.67,18.0,1830.0,313.0,905.0,361.0,4.2273,INLAND
192700.0,-120.83,35.33,14.0,4155.0,787.0,2112.0,755.0,4.4766,NEAR OCEAN
155100.0,-118.3,33.91,30.0,1842.0,476.0,1491.0,420.0,3.0147,<1H OCEAN
211500.0,-118.02,33.77,33.0,2683.0,436.0,1520.0,456.0,5.0091,<1H OCEAN
500001.0,-119.59,34.43,28.0,2718.0,542.0,1066.0,442.0,4.2059,<1H OCEAN
70800.0,-115.56,32.78,46.0,2511.0,490.0,1583.0,469.0,3.0603,INLAND
146200.0,-119.12,35.37,13.0,4527.0,713.0,2170.0,671.0,4.8266,INLAND
206100.0,-117.8,33.87,16.0,5954.0,1281.0,3107.0,1209.0,4.2566,<1H OCEAN
139200.0,-117.99,34.12,35.0,1040.0,231.0,1040.0,242.0,2.5395,INLAND
100700.0,-121.95,38.02,9.0,3360.0,833.0,2041.0,810.0,2.1013,INLAND
310000.0,-118.48,34.03,19.0,902.0,284.0,414.0,272.0,1.3333,<1H OCEAN
162200.0,-118.05,34.05,36.0,1084.0,202.0,920.0,199.0,3.7279,<1H OCEAN
252000.0,-117.9,33.71,16.0,1917.0,317.0,1324.0,351.0,6.2488,<1H OCEAN
324300.0,-122.43,37.74,52.0,2229.0,498.0,1079.0,472.0,5.0196,NEAR BAY
438800.0,-122.27,37.54,5.0,2140.0,420.0,990.0,394.0,6.035,NEAR BAY
173000.0,-118.17,33.85,39.0,2247.0,526.0,1670.0,525.0,3.07,<1H OCEAN
249400.0,-117.87,33.82,26.0,2435.0,346.0,1088.0,350.0,5.9397,<1H OCEAN
50800.0,-118.98,35.38,34.0,1020.0,247.0,795.0,228.0,1.625,INLAND
270800.0,-122.06,37.38,20.0,4293.0,1272.0,2389.0,1210.0,4.2719,NEAR BAY
100200.0,-119.69,36.83,7.0,2075.0,353.0,1040.0,362.0,3.9943,INLAND
132800.0,-117.21,33.13,15.0,1889.0,368.0,754.0,409.0,2.2278,NEAR OCEAN
126500.0,-117.22,33.8,3.0,5284.0,920.0,2703.0,729.0,4.0717,INLAND
191100.0,-118.16,33.97,31.0,1363.0,428.0,1897.0,364.0,2.3929,<1H OCEAN
441000.0,-121.9,37.44,9.0,957.0,139.0,532.0,142.0,8.6675,<1H OCEAN
133100.0,-121.83,36.61,26.0,3723.0,789.0,2563.0,747.0,3.4531,<1H OCEAN
141100.0,-121.37,38.63,37.0,494.0,86.0,253.0,99.0,4.8194,INLAND
234100.0,-122.25,37.83,52.0,4190.0,1105.0,1786.0,1037.0,3.0897,NEAR BAY
149300.0,-118.17,34.01,36.0,1657.0,425.0,1689.0,418.0,2.7799,<1H OCEAN
434500.0,-121.8,37.19,45.0,1797.0,303.0,870.0,281.0,4.5417,<1H OCEAN
199500.0,-118.36,34.17,31.0,1939.0,505.0,1584.0,466.0,2.5234,<1H OCEAN
107200.0,-121.77,38.67,45.0,2438.0,462.0,1415.0,510.0,2.8351,INLAND
209700.0,-117.94,33.65,15.0,2016.0,443.0,1015.0,419.0,5.2732,<1H OCEAN
154300.0,-122.08,37.66,33.0,1547.0,372.0,1063.0,356.0,2.5625,NEAR BAY
500001.0,-118.84,34.11,12.0,7508.0,1058.0,2484.0,965.0,5.8788,NEAR OCEAN
200000.0,-118.28,34.08,42.0,997.0,374.0,982.0,372.0,2.9423,<1H OCEAN
460000.0,-122.55,37.91,48.0,1283.0,278.0,567.0,255.0,3.2794,NEAR BAY
228200.0,-122.53,37.63,27.0,2589.0,658.0,1386.0,608.0,2.9087,NEAR OCEAN
208300.0,-118.31,34.04,33.0,2691.0,726.0,2390.0,681.0,2.4048,<1H OCEAN
266400.0,-122.49,37.67,35.0,5275.0,903.0,2892.0,842.0,4.6771,NEAR OCEAN
112500.0,-121.31,38.58,10.0,2421.0,580.0,962.0,497.0,2.5035,INLAND
332100.0,-118.35,34.01,35.0,3776.0,,1583.0,749.0,3.5486,<1H OCEAN
131000.0,-117.3,33.25,22.0,2329.0,419.0,1456.0,381.0,3.7933,<1H OCEAN
116000.0,-120.46,38.15,16.0,4221.0,781.0,1516.0,697.0,2.3816,INLAND
115400.0,-121.2,38.67,26.0,1546.0,287.0,773.0,299.0,2.9803,INLAND
142200.0,-120.95,37.61,17.0,4054.0,654.0,2034.0,667.0,4.6833,INLAND
218200.0,-118.11,33.82,36.0,1742.0,340.0,857.0,341.0,4.6875,<1H OCEAN
300500.0,-118.1,34.17,44.0,4505.0,894.0,2296.0,899.0,3.4811,INLAND
80400.0,-119.39,36.55,30.0,1669.0,314.0,837.0,325.0,3.3869,INLAND
210700.0,-118.02,33.91,34.0,2518.0,429.0,1309.0,421.0,4.7861,<1H OCEAN
326600.0,-117.7,33.64,15.0,5743.0,773.0,2380.0,773.0,8.1926,<1H OCEAN
187500.0,-117.16,32.8,25.0,1399.0,329.0,1308.0,355.0,2.5682,NEAR OCEAN
162500.0,-117.22,33.22,15.0,1430.0,343.0,704.0,322.0,1.9571,<1H OCEAN
331100.0,-122.53,37.5,19.0,4768.0,807.0,2199.0,805.0,6.1896,NEAR OCEAN
500001.0,-118.1,34.12,49.0,3783.0,579.0,1601.0,539.0,6.3013,<1H OCEAN
95500.0,-118.24,33.94,39.0,1215.0,273.0,1211.0,265.0,1.7212,<1H OCEAN
64400.0,-120.73,37.38,37.0,653.0,176.0,827.0,176.0,1.9236,INLAND
166600.0,-120.47,34.66,4.0,3376.0,525.0,1684.0,535.0,4.9237,NEAR OCEAN
228100.0,-122.26,37.77,52.0,2097.0,444.0,915.0,413.0,2.9899,NEAR BAY
72000.0,-121.99,39.15,17.0,6440.0,1204.0,3266.0,1142.0,2.7137,INLAND
203200.0,-117.13,32.74,50.0,1527.0,338.0,728.0,322.0,2.625,NEAR OCEAN
192200.0,-122.16,37.69,36.0,1118.0,219.0,625.0,228.0,3.7813,NEAR BAY
67500.0,-122.41,37.98,36.0,60.0,15.0,42.0,25.0,1.4583,NEAR BAY
114200.0,-120.98,37.66,33.0,1959.0,342.0,984.0,356.0,4.5208,INLAND
72300.0,-120.46,37.29,30.0,2972.0,635.0,1940.0,590.0,2.3594,INLAND
157700.0,-118.32,34.01,50.0,1842.0,377.0,817.0,341.0,3.1548,<1H OCEAN
88800.0,-122.21,37.77,52.0,745.0,153.0,473.0,149.0,2.6765,NEAR BAY
195100.0,-122.39,37.73,46.0,1517.0,299.0,879.0,309.0,2.2222,NEAR BAY
500001.0,-122.37,37.58,34.0,2697.0,313.0,810.0,279.0,12.4291,NEAR OCEAN
161700.0,-117.97,33.86,34.0,2138.0,490.0,1682.0,463.0,3.6006,<1H OCEAN
81900.0,-117.28,34.14,40.0,2190.0,496.0,1214.0,493.0,2.3947,INLAND
378200.0,-117.75,33.54,21.0,8711.0,1544.0,3173.0,1396.0,5.0907,<1H OCEAN
90000.0,-122.17,37.75,48.0,1751.0,390.0,935.0,349.0,1.4375,NEAR BAY
201300.0,-122.05,37.05,41.0,2422.0,502.0,915.0,366.0,4.1679,NEAR OCEAN
351700.0,-118.43,33.98,19.0,8324.0,1590.0,2927.0,1538.0,7.5426,<1H OCEAN
340700.0,-122.25,37.82,52.0,2474.0,403.0,1104.0,398.0,5.883,NEAR BAY
410000.0,-117.27,32.83,39.0,1877.0,426.0,805.0,409.0,3.875,NEAR OCEAN
247200.0,-121.87,37.67,10.0,4337.0,800.0,1813.0,743.0,5.5,INLAND
116500.0,-120.25,38.03,21.0,4924.0,966.0,1175.0,454.0,2.9457,INLAND
346700.0,-117.29,33.08,18.0,3225.0,515.0,1463.0,476.0,5.7787,NEAR OCEAN
274100.0,-121.88,37.29,44.0,2026.0,396.0,908.0,383.0,4.1406,<1H OCEAN
349300.0,-118.31,34.16,38.0,2347.0,665.0,1317.0,547.0,3.2112,<1H OCEAN
160400.0,-117.83,33.73,20.0,5768.0,1597.0,4853.0,1465.0,3.5387,<1H OCEAN
495500.0,-118.48,34.15,31.0,2536.0,429.0,990.0,424.0,5.4591,<1H OCEAN
59800.0,-119.75,36.76,29.0,2077.0,524.0,1887.0,489.0,1.4107,INLAND
194700.0,-121.96,37.94,26.0,3084.0,505.0,1557.0,501.0,5.1582,INLAND
161800.0,-117.06,32.77,34.0,1730.0,373.0,730.0,350.0,2.0284,NEAR OCEAN
280800.0,-118.58,34.25,23.0,4883.0,769.0,2119.0,725.0,5.521,<1H OCEAN
240800.0,-118.11,33.87,15.0,3254.0,598.0,1772.0,618.0,5.0417,<1H OCEAN
150400.0,-117.0,32.87,18.0,11544.0,1979.0,6296.0,1923.0,4.4904,<1H OCEAN
172800.0,-117.03,33.13,15.0,7000.0,1185.0,3555.0,1118.0,4.7022,<1H OCEAN
500001.0,-118.57,34.09,14.0,7970.0,1142.0,2926.0,1096.0,11.2866,<1H OCEAN
263400.0,-118.05,33.99,42.0,2480.0,401.0,1085.0,438.0,5.193,<1H OCEAN
500001.0,-122.06,37.36,34.0,1747.0,250.0,662.0,257.0,6.8268,<1H OCEAN
111900.0,-119.78,36.84,7.0,4907.0,1075.0,2014.0,909.0,3.2147,INLAND
160600.0,-118.08,33.95,32.0,1962.0,387.0,1274.0,398.0,4.8304,<1H OCEAN
172600.0,-122.66,38.47,23.0,2246.0,437.0,1035.0,386.0,3.7617,<1H OCEAN
175000.0,-118.16,34.09,33.0,1515.0,415.0,1345.0,346.0,2.375,<1H OCEAN
251800.0,-122.49,38.22,33.0,1486.0,290.0,781.0,274.0,3.5647,NEAR BAY
113700.0,-121.34,37.96,23.0,2830.0,659.0,1554.0,654.0,3.0354,INLAND
187600.0,-117.84,34.12,34.0,2026.0,345.0,1142.0,332.0,4.392,INLAND
80400.0,-122.42,40.63,23.0,2248.0,489.0,1132.0,444.0,1.6429,INLAND
186500.0,-117.92,33.78,35.0,1654.0,323.0,1065.0,354.0,3.4837,<1H OCEAN
410700.0,-118.88,34.17,15.0,4260.0,,1701.0,669.0,5.1033,<1H OCEAN
441700.0,-122.46,37.78,52.0,2632.0,542.0,1364.0,544.0,3.4605,NEAR BAY
310900.0,-122.53,38.01,27.0,3121.0,531.0,1318.0,489.0,5.4781,NEAR BAY
164800.0,-118.19,33.95,41.0,1368.0,309.0,1244.0,312.0,3.0833,<1H OCEAN
219500.0,-118.16,33.84,36.0,2220.0,367.0,1002.0,351.0,5.0719,<1H OCEAN
175000.0,-120.33,39.3,16.0,868.0,178.0,44.0,21.0,3.0,INLAND
337600.0,-118.38,33.87,33.0,1993.0,371.0,918.0,361.0,6.9021,<1H OCEAN
111400.0,-124.26,40.58,52.0,2217.0,394.0,907.0,369.0,2.3571,NEAR OCEAN
96500.0,-117.3,34.24,38.0,4116.0,949.0,1196.0,422.0,3.5625,INLAND
85600.0,-119.21,37.25,44.0,3042.0,697.0,335.0,115.0,4.1838,INLAND
133200.0,-117.37,34.13,18.0,5877.0,1043.0,3114.0,1002.0,4.0294,INLAND
229000.0,-118.27,34.15,7.0,2837.0,776.0,2287.0,736.0,3.008,<1H OCEAN
186500.0,-117.92,33.74,13.0,4620.0,1265.0,3385.0,1109.0,3.1773,<1H OCEAN
87500.0,-122.52,38.7,26.0,102.0,17.0,43.0,13.0,0.536,INLAND
125000.0,-122.04,38.25,52.0,582.0,131.0,241.0,106.0,2.4,INLAND
129200.0,-117.31,33.75,19.0,3173.0,678.0,2204.0,606.0,2.1484,<1H OCEAN
400000.0,-118.35,34.06,48.0,3551.0,826.0,1601.0,827.0,3.2279,<1H OCEAN
129700.0,-117.03,32.74,35.0,1878.0,454.0,991.0,409.0,2.4345,NEAR OCEAN
79100.0,-122.17,40.2,28.0,1782.0,334.0,873.0,311.0,3.3594,INLAND
243900.0,-117.62,34.11,17.0,1869.0,311.0,831.0,262.0,6.148,INLAND
500001.0,-122.08,37.84,17.0,1320.0,159.0,1722.0,141.0,11.7064,NEAR BAY
100500.0,-121.25,36.32,12.0,4776.0,1082.0,4601.0,1066.0,2.9184,<1H OCEAN
302000.0,-118.14,33.95,37.0,1462.0,243.0,600.0,236.0,5.2015,<1H OCEAN
214200.0,-118.21,34.13,52.0,2465.0,611.0,1433.0,570.0,3.25,<1H OCEAN
65000.0,-121.54,39.12,17.0,4251.0,899.0,3265.0,934.0,2.3496,INLAND
137500.0,-118.22,34.05,36.0,1243.0,470.0,1668.0,444.0,1.0714,<1H OCEAN
93600.0,-118.27,33.95,35.0,2073.0,494.0,1753.0,490.0,1.5,<1H OCEAN
215600.0,-118.31,34.27,35.0,1446.0,274.0,759.0,291.0,6.0808,<1H OCEAN
270700.0,-118.31,33.84,52.0,1819.0,464.0,1068.0,424.0,3.625,<1H OCEAN
329400.0,-121.82,37.42,13.0,3752.0,572.0,1581.0,526.0,6.1091,<1H OCEAN
219900.0,-119.19,34.22,26.0,3175.0,736.0,2460.0,775.0,3.125,NEAR OCEAN
52600.0,-119.77,36.73,45.0,1081.0,241.0,821.0,230.0,1.7829,INLAND
350000.0,-117.99,33.69,12.0,2480.0,858.0,1441.0,788.0,1.6705,<1H OCEAN
500001.0,-117.72,33.49,4.0,3623.0,734.0,1129.0,530.0,5.7281,<1H OCEAN
98100.0,-117.64,34.07,30.0,2787.0,713.0,2647.0,693.0,2.2765,INLAND
65700.0,-118.82,36.13,43.0,1281.0,287.0,534.0,231.0,2.8906,INLAND
57400.0,-119.02,35.42,36.0,2044.0,447.0,1021.0,374.0,1.8472,INLAND
199300.0,-118.09,34.07,45.0,593.0,133.0,481.0,128.0,2.5938,<1H OCEAN
171200.0,-117.14,32.93,14.0,1946.0,463.0,1205.0,390.0,4.2109,<1H OCEAN
186800.0,-117.97,33.84,34.0,874.0,153.0,549.0,153.0,4.8667,<1H OCEAN
188300.0,-117.89,34.09,36.0,1811.0,320.0,1005.0,332.0,5.5629,<1H OCEAN
87500.0,-122.14,39.65,33.0,419.0,77.0,190.0,67.0,3.6429,INLAND
89200.0,-119.34,36.32,6.0,3266.0,604.0,1769.0,580.0,3.1574,INLAND
266400.0,-122.04,36.97,45.0,1302.0,245.0,621.0,258.0,5.1806,NEAR OCEAN
204200.0,-118.93,35.44,13.0,1439.0,237.0,557.0,227.0,6.1563,INLAND
311800.0,-122.48,37.74,52.0,2453.0,508.0,1056.0,453.0,3.6859,NEAR OCEAN
148900.0,-117.4,33.97,38.0,1383.0,238.0,649.0,232.0,5.0194,INLAND
187500.0,-121.14,37.7,29.0,1343.0,223.0,751.0,225.0,3.2391,INLAND
236300.0,-118.7,34.53,5.0,14275.0,2474.0,7158.0,2311.0,5.4284,INLAND
104200.0,-122.27,37.82,52.0,1630.0,456.0,1162.0,400.0,1.2475,NEAR BAY
179800.0,-121.5,38.54,44.0,1167.0,201.0,452.0,209.0,3.7344,INLAND
174500.0,-121.54,38.49,6.0,9104.0,1535.0,3759.0,1481.0,5.1442,INLAND
163500.0,-117.94,34.05,34.0,1729.0,324.0,1341.0,324.0,3.7708,<1H OCEAN
98400.0,-121.32,38.03,25.0,2474.0,513.0,1947.0,524.0,2.5742,INLAND
246700.0,-119.67,34.42,37.0,1673.0,444.0,1477.0,446.0,2.0643,<1H OCEAN
243200.0,-121.92,37.25,34.0,2231.0,360.0,1035.0,365.0,4.7917,<1H OCEAN
365700.0,-122.02,37.35,26.0,2785.0,418.0,1221.0,422.0,8.1078,<1H OCEAN
135200.0,-117.01,32.74,31.0,3473.0,,2098.0,677.0,2.6973,<1H OCEAN
254200.0,-118.24,34.23,43.0,1061.0,208.0,514.0,208.0,6.01,<1H OCEAN
