230600.0,-118.27,34.12,50.0,2037.0,440.0,1089.0,417.0,3.575,<1H OCEAN
195400.0,-118.14,33.86,37.0,1404.0,257.0,652.0,258.0,4.2062,<1H OCEAN
127800.0,-117.12,32.76,43.0,2336.0,644.0,1203.0,614.0,2.3594,NEAR OCEAN
146900.0,-122.18,38.49,15.0,1743.0,366.0,655.0,264.0,3.3393,INLAND
355300.0,-122.45,37.78,52.0,2686.0,606.0,1392.0,578.0,4.0,NEAR BAY
342200.0,-122.55,38.01,27.0,3966.0,577.0,1657.0,611.0,6.3314,NEAR BAY
202400.0,-118.07,34.09,35.0,1224.0,267.0,887.0,276.0,4.0987,<1H OCEAN
105200.0,-121.41,38.69,28.0,1601.0,308.0,848.0,305.0,3.6429,INLAND
154200.0,-118.44,34.18,17.0,1546.0,592.0,2423.0,556.0,2.1977,<1H OCEAN
248500.0,-122.23,37.76,52.0,1049.0,185.0,374.0,176.0,4.1458,NEAR BAY
150000.0,-120.83,37.52,6.0,1488.0,252.0,773.0,259.0,4.1859,INLAND
167100.0,-118.61,34.59,5.0,4028.0,896.0,2062.0,826.0,4.0579,INLAND
118200.0,-117.28,34.41,14.0,2105.0,396.0,960.0,396.0,2.9934,INLAND
469900.0,-122.23,37.45,29.0,1617.0,235.0,758.0,246.0,7.7932,NEAR OCEAN
456900.0,-117.82,33.81,19.0,2556.0,304.0,822.0,260.0,9.9055,<1H OCEAN
149400.0,-118.2,33.93,40.0,1929.0,417.0,1780.0,419.0,3.4402,<1H OCEAN
208600.0,-117.68,34.11,16.0,3190.0,471.0,1414.0,464.0,5.5292,INLAND
47800.0,-118.99,35.36,18.0,1524.0,354.0,1210.0,344.0,1.1136,INLAND
368400.0,-118.39,33.86,28.0,3619.0,764.0,1735.0,789.0,6.1404,<1H OCEAN
73200.0,-116.97,33.93,29.0,2793.0,722.0,1583.0,626.0,1.424,INLAND
138000.0,-117.43,33.91,15.0,14281.0,2511.0,7540.0,2245.0,4.3222,INLAND
100000.0,-121.27,37.56,31.0,1223.0,330.0,1067.0,245.0,2.8558,INLAND
95700.0,-117.68,35.64,15.0,3253.0,573.0,1408.0,586.0,5.2043,INLAND
170100.0,-117.13,32.74,46.0,3355.0,768.0,1457.0,708.0,2.6604,NEAR OCEAN
107900.0,-119.65,36.35,21.0,1745.0,266.0,837.0,292.0,4.3911,INLAND
55100.0,-120.09,36.19,12.0,1923.0,559.0,2809.0,535.0,1.4191,INLAND
189900.0,-118.01,33.93,34.0,2424.0,468.0,1293.0,444.0,3.275,<1H OCEAN
236100.0,-121.45,38.57,52.0,2006.0,412.0,825.0,384.0,3.2963,INLAND
147200.0,-117.99,34.07,31.0,1507.0,369.0,1548.0,347.0,3.4327,INLAND
239400.0,-118.31,34.26,37.0,1444.0,246.0,624.0,239.0,5.76,<1H OCEAN
88300.0,-117.29,34.17,35.0,4174.0,847.0,2127.0,778.0,3.2232,INLAND
471600.0,-122.24,37.83,52.0,2449.0,312.0,916.0,316.0,8.1194,NEAR BAY
169500.0,-120.07,39.24,20.0,3729.0,614.0,365.0,152.0,4.962,INLAND
500001.0,-118.49,34.06,42.0,2861.0,360.0,829.0,310.0,15.0001,<1H OCEAN
211700.0,-118.01,33.9,36.0,1382.0,257.0,685.0,255.0,5.125,<1H OCEAN
183900.0,-120.84,35.32,17.0,4197.0,802.0,1656.0,732.0,3.526,NEAR OCEAN
174300.0,-117.92,33.76,26.0,784.0,177.0,662.0,169.0,2.8438,<1H OCEAN
275000.0,-118.27,34.05,12.0,535.0,328.0,1194.0,365.0,1.2012,<1H OCEAN
103600.0,-119.99,38.94,24.0,1216.0,289.0,421.0,185.0,3.1625,INLAND
311800.0,-121.85,37.26,16.0,2312.0,303.0,1158.0,295.0,7.4323,<1H OCEAN
322900.0,-122.49,37.78,32.0,3028.0,815.0,1704.0,718.0,3.2028,NEAR BAY
391300.0,-121.92,37.34,52.0,2584.0,491.0,1087.0,433.0,4.4,<1H OCEAN
56100.0,-119.79,36.76,52.0,1185.0,260.0,635.0,239.0,1.175,INLAND
500001.0,-122.47,37.87,36.0,4471.0,618.0,1315.0,582.0,11.5706,NEAR BAY
174700.0,-122.31,38.33,26.0,2155.0,339.0,956.0,365.0,4.0132,NEAR BAY
173600.0,-117.33,33.19,15.0,3672.0,845.0,1827.0,796.0,2.9716,NEAR OCEAN
336000.0,-118.14,33.84,45.0,1908.0,361.0,890.0,342.0,4.575,<1H OCEAN
177800.0,-121.75,36.92,46.0,1362.0,321.0,1068.0,305.0,2.4615,<1H OCEAN
500001.0,-118.33,34.08,52.0,1777.0,454.0,671.0,439.0,3.5083,<1H OCEAN
380400.0,-122.44,37.75,52.0,1573.0,334.0,725.0,338.0,5.0505,NEAR BAY
205100.0,-121.77,37.99,4.0,5623.0,780.0,2429.0,716.0,5.4409,INLAND
70700.0,-119.06,35.32,15.0,3944.0,746.0,2355.0,757.0,3.569,INLAND
196900.0,-118.11,33.91,19.0,3056.0,759.0,1561.0,740.0,3.1369,<1H OCEAN
98100.0,-124.06,40.86,34.0,4183.0,,1891.0,669.0,3.2216,NEAR OCEAN
45000.0,-117.9,33.8,21.0,1342.0,326.0,748.0,335.0,2.9231,<1H OCEAN
101000.0,-122.06,40.55,17.0,3057.0,577.0,1497.0,556.0,3.5189,INLAND
115000.0,-117.48,33.98,20.0,2451.0,475.0,1785.0,456.0,3.3966,INLAND
136300.0,-117.92,34.0,36.0,116.0,30.0,193.0,35.0,3.8125,<1H OCEAN
93900.0,-121.35,37.97,33.0,3656.0,681.0,1698.0,671.0,3.1406,INLAND
438500.0,-118.6,34.09,43.0,2228.0,438.0,960.0,395.0,7.6091,<1H OCEAN
252200.0,-117.7,33.92,4.0,8301.0,1333.0,3941.0,1236.0,6.2141,<1H OCEAN
152500.0,-117.72,34.09,33.0,4979.0,934.0,2575.0,874.0,3.7958,INLAND
250000.0,-118.7,34.28,27.0,727.0,136.0,467.0,144.0,3.7188,<1H OCEAN
395100.0,-119.71,34.4,27.0,3782.0,771.0,1742.0,751.0,4.0451,NEAR OCEAN
187500.0,-118.29,34.09,34.0,2716.0,1114.0,2991.0,1021.0,1.7514,<1H OCEAN
86500.0,-121.59,39.78,16.0,2754.0,570.0,1063.0,543.0,1.4048,INLAND
146400.0,-121.34,38.04,16.0,3295.0,565.0,2279.0,576.0,3.6083,INLAND
226900.0,-118.34,34.18,45.0,1328.0,290.0,720.0,289.0,3.875,<1H OCEAN
95800.0,-119.8,36.83,17.0,1560.0,261.0,709.0,258.0,4.3315,INLAND
307400.0,-121.98,37.34,18.0,6649.0,1712.0,3604.0,1651.0,4.5368,<1H OCEAN
167300.0,-122.12,37.69,10.0,2227.0,560.0,1140.0,472.0,2.3973,NEAR BAY
475800.0,-121.88,37.64,20.0,1309.0,184.0,514.0,172.0,10.9506,INLAND
344200.0,-117.24,33.05,11.0,5827.0,882.0,2588.0,842.0,6.4027,NEAR OCEAN
123700.0,-118.31,34.01,52.0,1793.0,350.0,1303.0,366.0,3.0759,<1H OCEAN
127000.0,-116.92,32.86,11.0,2204.0,518.0,1472.0,497.0,2.3693,<1H OCEAN
68600.0,-115.57,32.8,33.0,1192.0,213.0,1066.0,211.0,4.5714,INLAND
175000.0,-118.27,34.03,50.0,395.0,232.0,948.0,243.0,1.7546,<1H OCEAN
244400.0,-118.03,33.82,17.0,1851.0,346.0,770.0,310.0,5.6093,<1H OCEAN
105600.0,-118.28,33.94,43.0,1201.0,292.0,840.0,252.0,2.7917,<1H OCEAN
290700.0,-117.82,33.67,17.0,2895.0,439.0,1588.0,450.0,6.276,<1H OCEAN
128500.0,-121.27,38.75,21.0,4812.0,1117.0,1985.0,1045.0,2.5083,INLAND
400000.0,-122.48,37.71,43.0,3850.0,1018.0,1497.0,829.0,3.5296,NEAR OCEAN
201800.0,-121.84,37.38,34.0,762.0,182.0,611.0,193.0,3.5625,<1H OCEAN
189600.0,-117.98,33.84,35.0,984.0,179.0,661.0,199.0,5.0747,<1H OCEAN
431600.0,-122.04,37.35,28.0,3250.0,485.0,1328.0,473.0,7.4729,<1H OCEAN
500001.0,-122.05,37.31,25.0,4111.0,538.0,1585.0,568.0,9.2298,<1H OCEAN
92300.0,-122.19,37.77,42.0,932.0,254.0,900.0,263.0,1.8039,NEAR BAY
410300.0,-122.23,37.81,52.0,2315.0,292.0,861.0,258.0,8.8793,NEAR BAY
459200.0,-122.38,37.59,44.0,2089.0,348.0,837.0,317.0,4.6628,NEAR OCEAN
133600.0,-121.36,38.6,36.0,1275.0,227.0,530.0,245.0,3.875,INLAND
486800.0,-118.03,34.15,43.0,1694.0,283.0,674.0,267.0,4.1797,INLAND
44600.0,-119.01,35.4,11.0,8739.0,2190.0,4781.0,1919.0,1.7109,INLAND
218800.0,-121.96,37.53,23.0,2215.0,475.0,1278.0,492.0,4.2955,<1H OCEAN
112500.0,-119.82,34.43,15.0,1482.0,345.0,669.0,379.0,3.0773,NEAR OCEAN
204200.0,-121.89,37.34,43.0,1423.0,467.0,1013.0,428.0,1.6708,<1H OCEAN
240900.0,-122.43,37.73,52.0,1985.0,401.0,1337.0,424.0,4.1071,NEAR BAY
193800.0,-116.67,32.97,16.0,349.0,74.0,120.0,43.0,5.359,<1H OCEAN
316600.0,-117.9,33.69,13.0,9947.0,1675.0,4071.0,1582.0,5.422,<1H OCEAN
81300.0,-122.29,37.8,52.0,1027.0,244.0,492.0,147.0,2.6094,NEAR BAY
275000.0,-117.95,33.88,34.0,1939.0,355.0,817.0,314.0,3.6705,<1H OCEAN
150000.0,-118.6,34.2,10.0,2869.0,941.0,2162.0,829.0,3.2297,<1H OCEAN
61800.0,-119.74,36.71,17.0,5872.0,1250.0,5034.0,1224.0,2.1905,INLAND
109100.0,-119.3,36.57,32.0,728.0,,461.0,149.0,3.0156,INLAND
172600.0,-118.3,33.91,34.0,1617.0,493.0,1530.0,500.0,2.6182,<1H OCEAN
274700.0,-117.9,34.06,33.0,1701.0,290.0,831.0,275.0,5.4469,<1H OCEAN
158200.0,-118.08,33.93,39.0,859.0,164.0,673.0,172.0,3.7143,<1H OCEAN
352800.0,-118.15,34.11,52.0,1000.0,192.0,363.0,158.0,4.2981,<1H OCEAN
332700.0,-118.02,33.98,23.0,1995.0,306.0,707.0,293.0,8.6677,<1H OCEAN
335200.0,-122.02,37.36,24.0,1709.0,437.0,892.0,408.0,4.9671,<1H OCEAN
182100.0,-118.1,34.08,21.0,1349.0,352.0,1188.0,330.0,2.5,<1H OCEAN
195600.0,-117.53,33.83,7.0,2191.0,324.0,1156.0,310.0,5.5362,INLAND
71700.0,-121.57,39.16,18.0,1632.0,367.0,769.0,330.0,3.1029,INLAND
196100.0,-121.96,37.95,7.0,3418.0,740.0,1583.0,676.0,3.6133,INLAND
135700.0,-118.16,34.07,41.0,247.0,55.0,925.0,50.0,3.5769,<1H OCEAN
65400.0,-116.15,33.64,10.0,1711.0,499.0,1896.0,443.0,1.6557,INLAND
500001.0,-122.47,37.74,52.0,2055.0,265.0,735.0,252.0,8.1189,NEAR BAY
153200.0,-121.42,37.74,35.0,796.0,132.0,313.0,152.0,3.15,INLAND
229300.0,-119.23,34.27,22.0,3536.0,615.0,1650.0,612.0,4.2381,NEAR OCEAN
261300.0,-117.81,33.73,17.0,1063.0,189.0,363.0,183.0,2.1719,<1H OCEAN
139000.0,-121.16,37.73,7.0,4956.0,941.0,3006.0,915.0,3.4426,INLAND
240400.0,-117.98,33.72,24.0,2826.0,547.0,1738.0,546.0,6.0494,<1H OCEAN
75900.0,-122.65,38.99,16.0,4279.0,951.0,1596.0,666.0,1.8571,INLAND
500001.0,-118.36,33.8,34.0,2629.0,369.0,966.0,375.0,10.1241,NEAR OCEAN
141400.0,-117.02,32.73,22.0,5201.0,865.0,3280.0,817.0,4.7952,NEAR OCEAN
225000.0,-118.44,34.04,49.0,32.0,7.0,14.0,7.0,2.1875,<1H OCEAN
226500.0,-118.14,34.18,47.0,3457.0,622.0,1700.0,579.0,3.5164,<1H OCEAN
440000.0,-120.11,34.62,16.0,2943.0,394.0,959.0,359.0,6.2094,NEAR OCEAN
170700.0,-117.13,33.14,16.0,1649.0,278.0,993.0,277.0,4.8526,<1H OCEAN
500001.0,-122.44,37.8,52.0,2865.0,593.0,1029.0,577.0,5.2539,NEAR BAY
460100.0,-117.81,33.84,17.0,4343.0,515.0,1605.0,484.0,10.5981,<1H OCEAN
177400.0,-117.04,32.83,8.0,2205.0,348.0,777.0,341.0,6.0266,<1H OCEAN
100000.0,-118.29,33.98,30.0,1162.0,318.0,1207.0,289.0,1.223,<1H OCEAN
79700.0,-122.18,37.73,44.0,548.0,119.0,435.0,136.0,2.1111,NEAR BAY
88600.0,-120.87,37.07,26.0,2036.0,401.0,1343.0,414.0,3.6331,INLAND
287800.0,-118.02,33.71,24.0,2598.0,443.0,1184.0,435.0,5.8623,<1H OCEAN
51500.0,-119.32,36.62,15.0,1070.0,256.0,1070.0,243.0,1.5642,INLAND
69900.0,-121.01,37.64,36.0,1981.0,507.0,1998.0,468.0,1.9013,INLAND
193800.0,-118.41,34.19,42.0,779.0,145.0,450.0,148.0,3.9792,<1H OCEAN
145800.0,-117.09,32.65,20.0,1445.0,323.0,573.0,334.0,2.619,NEAR OCEAN
177000.0,-121.71,36.88,19.0,2528.0,554.0,2332.0,492.0,3.7766,<1H OCEAN
296000.0,-118.59,34.17,36.0,1887.0,359.0,761.0,329.0,5.4847,<1H OCEAN
97900.0,-122.25,38.11,52.0,2846.0,705.0,1519.0,620.0,2.1976,NEAR BAY
111500.0,-117.35,34.09,14.0,5983.0,1224.0,3255.0,1150.0,2.5902,INLAND
213000.0,-117.93,33.65,26.0,5831.0,1546.0,4738.0,1477.0,3.1483,<1H OCEAN
311800.0,-118.54,34.26,22.0,5303.0,838.0,2372.0,807.0,5.6912,<1H OCEAN
289500.0,-121.88,36.98,21.0,4117.0,752.0,2001.0,763.0,4.8953,NEAR OCEAN
157000.0,-118.36,34.04,45.0,1767.0,417.0,1052.0,379.0,3.5161,<1H OCEAN
179700.0,-118.16,33.78,29.0,3684.0,1301.0,3891.0,1143.0,1.6955,NEAR OCEAN
272000.0,-121.91,37.24,30.0,2327.0,419.0,1114.0,372.0,4.7279,<1H OCEAN
81500.0,-117.23,33.78,23.0,3465.0,703.0,2672.0,607.0,1.9767,INLAND
303800.0,-118.46,33.99,41.0,885.0,285.0,562.0,268.0,3.1992,<1H OCEAN
107500.0,-117.24,34.14,6.0,2383.0,606.0,1301.0,488.0,3.016,INLAND
193800.0,-122.61,38.23,18.0,2042.0,420.0,914.0,400.0,2.9871,<1H OCEAN
181400.0,-120.69,35.52,26.0,2758.0,571.0,1291.0,522.0,2.925,<1H OCEAN
142600.0,-117.07,32.56,9.0,3648.0,895.0,3293.0,840.0,3.0992,NEAR OCEAN
184700.0,-122.12,37.67,33.0,3429.0,681.0,1798.0,694.0,3.9395,NEAR BAY
475000.0,-118.49,34.02,28.0,2545.0,752.0,1548.0,679.0,2.9125,<1H OCEAN
69800.0,-121.95,38.65,19.0,1265.0,228.0,755.0,218.0,3.3472,INLAND
166200.0,-118.2,33.97,28.0,2474.0,702.0,2830.0,694.0,2.754,<1H OCEAN
225900.0,-118.07,33.86,31.0,2943.0,518.0,1703.0,472.0,3.7091,<1H OCEAN
212500.0,-117.24,32.79,25.0,2135.0,691.0,566.0,320.0,2.6902,NEAR OCEAN
93600.0,-123.8,39.44,33.0,2024.0,459.0,1019.0,422.0,1.9208,<1H OCEAN
181300.0,-118.32,33.91,35.0,940.0,197.0,640.0,215.0,4.2,<1H OCEAN
243800.0,-117.6,33.45,4.0,2369.0,566.0,996.0,435.0,5.4031,NEAR OCEAN
262500.0,-119.06,34.62,10.0,416.0,110.0,436.0,70.0,2.2222,<1H OCEAN
482200.0,-118.37,33.81,33.0,5057.0,790.0,2021.0,748.0,6.8553,NEAR OCEAN
351200.0,-118.31,33.74,22.0,5042.0,974.0,2260.0,935.0,4.3472,NEAR OCEAN
395500.0,-122.25,37.49,40.0,2709.0,521.0,1156.0,510.0,4.6366,NEAR OCEAN
260500.0,-121.8,37.26,16.0,1868.0,285.0,995.0,284.0,5.9053,<1H OCEAN
97500.0,-121.47,39.51,19.0,3720.0,636.0,1304.0,607.0,2.6921,INLAND
127500.0,-121.32,38.71,14.0,4594.0,774.0,2474.0,782.0,4.5245,INLAND
96400.0,-120.86,37.77,38.0,1545.0,279.0,662.0,266.0,3.825,INLAND
161400.0,-117.2,32.83,35.0,1377.0,350.0,792.0,313.0,2.8472,NEAR OCEAN
101100.0,-121.32,38.57,25.0,692.0,146.0,504.0,167.0,3.6897,INLAND
240400.0,-121.9,37.25,28.0,2714.0,502.0,1389.0,490.0,5.7385,<1H OCEAN
500001.0,-118.42,34.05,52.0,2533.0,402.0,981.0,386.0,7.8164,<1H OCEAN
338700.0,-121.39,38.57,33.0,2648.0,357.0,863.0,359.0,8.4016,INLAND
468000.0,-121.92,36.54,33.0,5323.0,887.0,1670.0,740.0,3.9792,NEAR OCEAN
162800.0,-122.32,38.0,32.0,2275.0,397.0,1233.0,418.0,4.0437,NEAR BAY
54100.0,-119.37,36.21,35.0,2228.0,476.0,1567.0,449.0,1.4455,INLAND
132600.0,-121.98,38.35,16.0,1697.0,267.0,832.0,277.0,4.4375,INLAND
231600.0,-118.11,33.8,35.0,1034.0,180.0,444.0,177.0,5.4602,<1H OCEAN
95800.0,-120.35,39.34,29.0,1986.0,474.0,337.0,100.0,4.0278,INLAND
269200.0,-122.58,38.43,10.0,3597.0,661.0,1132.0,639.0,3.9375,<1H OCEAN
258600.0,-118.48,34.23,35.0,1963.0,310.0,919.0,297.0,4.7583,<1H OCEAN
179400.0,-117.03,32.69,5.0,3201.0,532.0,2061.0,536.0,5.0829,NEAR OCEAN
137500.0,-117.21,32.8,19.0,786.0,282.0,525.0,229.0,1.7273,NEAR OCEAN
500001.0,-117.81,33.82,20.0,2819.0,319.0,1019.0,319.0,12.2092,<1H OCEAN
102900.0,-118.24,33.91,38.0,745.0,152.0,721.0,160.0,1.875,<1H OCEAN
135800.0,-117.16,34.08,9.0,5306.0,993.0,2630.0,925.0,4.51,INLAND
150800.0,-122.13,38.0,33.0,2821.0,652.0,1206.0,640.0,2.5481,NEAR BAY
99200.0,-119.05,36.09,9.0,3297.0,568.0,1749.0,568.0,4.0217,INLAND
170800.0,-118.27,34.07,38.0,1270.0,556.0,1692.0,450.0,1.87,<1H OCEAN
356100.0,-121.94,37.76,4.0,6875.0,1439.0,2889.0,1307.0,4.6932,<1H OCEAN
70900.0,-119.76,36.8,29.0,3494.0,662.0,1781.0,616.0,2.5893,INLAND
188600.0,-122.82,38.64,29.0,2176.0,385.0,1117.0,374.0,3.8681,<1H OCEAN
303300.0,-118.4,33.96,44.0,1138.0,228.0,497.0,228.0,4.1852,<1H OCEAN
144000.0,-117.04,32.75,36.0,2297.0,418.0,1070.0,392.0,3.5192,NEAR OCEAN
500001.0,-122.07,37.35,35.0,1579.0,210.0,570.0,196.0,8.5888,<1H OCEAN
103800.0,-119.99,37.51,14.0,2878.0,617.0,1011.0,509.0,1.398,INLAND
130800.0,-118.17,34.01,30.0,1228.0,358.0,1603.0,323.0,3.0225,<1H OCEAN
22500.0,-122.32,37.93,33.0,296.0,73.0,216.0,63.0,2.675,NEAR BAY
280900.0,-118.3,34.19,14.0,3615.0,913.0,1924.0,852.0,3.5083,<1H OCEAN
66800.0,-117.15,34.83,30.0,5370.0,1062.0,2778.0,944.0,3.099,INLAND
165600.0,-119.2,34.18,22.0,6465.0,1397.0,2694.0,1370.0,2.9832,NEAR OCEAN
181800.0,-117.54,34.12,4.0,17577.0,2819.0,7766.0,2473.0,5.1333,INLAND
162500.0,-117.91,33.74,15.0,715.0,214.0,1394.0,244.0,3.3846,<1H OCEAN
