92200.0,-122.34,40.32,12.0,3848.0,689.0,2008.0,683.0,2.6352,INLAND
113400.0,-120.99,37.8,32.0,2564.0,513.0,1198.0,459.0,2.9083,INLAND
264100.0,-117.95,33.94,28.0,2851.0,496.0,1287.0,496.0,5.0782,<1H OCEAN
155300.0,-121.23,37.82,14.0,1847.0,325.0,1030.0,309.0,4.9271,INLAND
275000.0,-119.72,34.43,27.0,984.0,299.0,777.0,313.0,2.5694,<1H OCEAN
271100.0,-122.54,37.74,42.0,2006.0,415.0,1230.0,435.0,4.1786,NEAR OCEAN
227900.0,-119.0,34.19,5.0,3634.0,718.0,1317.0,743.0,4.2917,<1H OCEAN
76400.0,-122.42,40.44,16.0,994.0,,495.0,181.0,2.1875,INLAND
440500.0,-122.03,37.0,30.0,2077.0,342.0,816.0,328.0,5.2078,NEAR OCEAN
155400.0,-117.08,32.76,27.0,1221.0,254.0,606.0,259.0,3.0833,NEAR OCEAN
63300.0,-120.04,36.93,11.0,3606.0,699.0,2074.0,644.0,2.6941,INLAND
226700.0,-121.99,37.4,24.0,3217.0,689.0,1196.0,684.0,3.4896,<1H OCEAN
170800.0,-117.86,34.13,29.0,630.0,145.0,378.0,148.0,3.4107,INLAND
65900.0,-116.49,33.82,27.0,3316.0,636.0,2362.0,532.0,2.9569,INLAND
344600.0,-121.92,37.29,34.0,943.0,135.0,378.0,139.0,5.1765,<1H OCEAN
168100.0,-118.08,33.91,36.0,1551.0,297.0,1100.0,322.0,5.1187,<1H OCEAN
418200.0,-118.47,34.01,41.0,752.0,201.0,482.0,207.0,2.5417,<1H OCEAN
87700.0,-117.31,33.18,16.0,1835.0,430.0,599.0,399.0,2.0147,NEAR OCEAN
389900.0,-122.14,37.85,27.0,9147.0,1276.0,3371.0,1269.0,7.3267,NEAR BAY
105000.0,-119.98,37.43,12.0,2776.0,592.0,1236.0,489.0,2.5551,INLAND
128600.0,-122.24,37.8,52.0,1591.0,373.0,1118.0,347.0,2.1563,NEAR BAY
106300.0,-122.04,37.96,16.0,2913.0,723.0,1705.0,693.0,2.9097,NEAR BAY
98000.0,-116.31,33.66,7.0,4497.0,831.0,2248.0,713.0,3.6354,INLAND
125000.0,-118.19,34.05,37.0,349.0,79.0,276.0,64.0,3.2125,<1H OCEAN
336100.0,-122.48,37.76,52.0,3260.0,653.0,1594.0,632.0,4.4094,NEAR BAY
125500.0,-118.17,34.03,31.0,1014.0,252.0,1064.0,247.0,2.4167,<1H OCEAN
300000.0,-118.37,34.08,22.0,3008.0,938.0,1224.0,816.0,3.2149,<1H OCEAN
51800.0,-119.8,36.74,25.0,1717.0,542.0,1343.0,471.0,0.799,INLAND
96100.0,-118.24,33.92,40.0,1772.0,369.0,1122.0,324.0,3.2768,<1H OCEAN
500001.0,-122.34,37.55,25.0,4470.0,518.0,1507.0,504.0,13.3913,NEAR OCEAN
500001.0,-117.89,33.61,42.0,1301.0,280.0,539.0,249.0,5.0,<1H OCEAN
119900.0,-117.7,33.57,9.0,1204.0,355.0,469.0,293.0,3.6196,<1H OCEAN
258300.0,-117.19,32.75,33.0,1115.0,316.0,583.0,269.0,2.5882,NEAR OCEAN
234000.0,-118.13,34.2,45.0,1213.0,206.0,529.0,231.0,5.6629,INLAND
210000.0,-117.18,32.78,21.0,4185.0,1018.0,3122.0,993.0,3.0481,NEAR OCEAN
126800.0,-118.27,34.01,42.0,990.0,289.0,1167.0,281.0,1.4524,<1H OCEAN
118800.0,-118.32,34.18,49.0,192.0,41.0,83.0,38.0,3.0179,<1H OCEAN
394300.0,-122.18,37.45,37.0,5257.0,1360.0,2128.0,1264.0,4.0,NEAR BAY
117600.0,-121.99,38.36,35.0,2728.0,451.0,1290.0,452.0,3.2768,INLAND
145800.0,-118.22,34.07,35.0,1504.0,477.0,2059.0,498.0,2.0133,<1H OCEAN
162500.0,-118.09,34.0,35.0,1580.0,331.0,1290.0,338.0,4.1458,<1H OCEAN
129600.0,-117.74,34.04,27.0,2215.0,440.0,1987.0,449.0,3.0429,INLAND
88100.0,-121.32,37.96,46.0,1832.0,365.0,975.0,373.0,2.0398,INLAND
91700.0,-122.11,39.82,27.0,1065.0,214.0,508.0,198.0,2.625,INLAND
400000.0,-118.14,33.75,39.0,1995.0,634.0,867.0,567.0,4.0795,NEAR OCEAN
191100.0,-121.88,37.3,16.0,2692.0,749.0,1674.0,681.0,2.6763,<1H OCEAN
170100.0,-121.35,38.6,27.0,4314.0,611.0,1662.0,575.0,5.0997,INLAND
188700.0,-121.25,38.8,14.0,5094.0,729.0,1974.0,705.0,5.5205,INLAND
106300.0,-118.92,35.13,29.0,1297.0,262.0,909.0,253.0,1.9236,INLAND
158900.0,-117.94,34.04,33.0,1493.0,331.0,1571.0,354.0,3.8864,<1H OCEAN
99000.0,-121.29,38.02,12.0,2006.0,426.0,1849.0,396.0,2.5437,INLAND
285800.0,-121.99,37.33,33.0,2023.0,425.0,1016.0,405.0,3.9417,<1H OCEAN
244800.0,-118.11,33.8,36.0,1680.0,291.0,744.0,280.0,4.66,<1H OCEAN
128300.0,-122.25,40.6,16.0,2753.0,494.0,1414.0,459.0,3.8323,INLAND
287500.0,-118.37,34.07,44.0,2703.0,663.0,1045.0,619.0,3.201,<1H OCEAN
58400.0,-120.98,37.6,36.0,1437.0,,1073.0,320.0,2.1779,INLAND
188500.0,-118.09,34.09,36.0,1068.0,246.0,949.0,250.0,2.3462,<1H OCEAN
182900.0,-117.99,33.81,23.0,3284.0,795.0,3257.0,758.0,2.4526,<1H OCEAN
192700.0,-118.2,33.79,47.0,2549.0,626.0,1388.0,606.0,3.0135,NEAR OCEAN
143200.0,-116.88,32.81,35.0,2926.0,562.0,1590.0,506.0,4.2014,<1H OCEAN
232500.0,-117.98,33.93,27.0,3142.0,509.0,1520.0,503.0,6.2924,<1H OCEAN
187500.0,-122.39,37.78,5.0,1405.0,515.0,725.0,392.0,3.6037,NEAR BAY
187500.0,-118.3,34.05,34.0,1453.0,588.0,1987.0,589.0,2.096,<1H OCEAN
138100.0,-117.07,32.76,14.0,2523.0,545.0,1297.0,525.0,2.3886,NEAR OCEAN
287500.0,-122.28,37.9,52.0,1369.0,249.0,490.0,248.0,4.1212,NEAR BAY
88300.0,-117.26,34.15,33.0,2271.0,389.0,1100.0,380.0,3.5978,INLAND
265000.0,-118.35,33.91,31.0,2583.0,663.0,1675.0,612.0,3.5234,<1H OCEAN
430100.0,-122.04,37.37,23.0,5135.0,911.0,2351.0,863.0,5.2319,<1H OCEAN
73500.0,-117.11,32.78,16.0,2470.0,830.0,1170.0,724.0,3.5562,NEAR OCEAN
500001.0,-122.06,37.37,18.0,3058.0,661.0,1377.0,675.0,6.1299,<1H OCEAN
85800.0,-121.62,39.76,14.0,2063.0,559.0,934.0,529.0,1.7788,INLAND
216900.0,-118.48,34.25,35.0,1442.0,276.0,795.0,268.0,4.9688,<1H OCEAN
96900.0,-118.02,34.62,38.0,248.0,55.0,261.0,53.0,2.1413,INLAND
97200.0,-118.25,33.98,37.0,1045.0,361.0,1666.0,337.0,1.7929,<1H OCEAN
171900.0,-122.2,38.09,18.0,6860.0,1079.0,3205.0,1058.0,5.2957,NEAR BAY
136600.0,-117.23,33.89,5.0,11775.0,2031.0,6686.0,1911.0,4.1953,INLAND
44000.0,-121.16,41.78,42.0,2918.0,576.0,1182.0,440.0,2.1434,INLAND
159500.0,-117.9,33.75,28.0,1346.0,291.0,1575.0,278.0,3.425,<1H OCEAN
167900.0,-118.03,33.97,36.0,2149.0,527.0,1359.0,481.0,2.824,<1H OCEAN
140900.0,-118.43,34.26,43.0,729.0,172.0,935.0,174.0,2.9519,<1H OCEAN
160500.0,-119.3,34.29,26.0,3665.0,932.0,2775.0,870.0,1.9286,NEAR OCEAN
58800.0,-119.34,35.6,16.0,1584.0,309.0,1011.0,268.0,2.4961,INLAND
124300.0,-117.68,34.03,16.0,2859.0,668.0,1946.0,591.0,3.0396,INLAND
196900.0,-122.1,37.68,37.0,1352.0,342.0,691.0,324.0,3.4032,NEAR BAY
187500.0,-122.38,37.73,20.0,120.0,27.0,55.0,19.0,2.625,NEAR BAY
161100.0,-117.99,33.88,42.0,1461.0,302.0,986.0,314.0,3.9559,<1H OCEAN
445700.0,-117.24,32.83,18.0,3109.0,501.0,949.0,368.0,7.4351,NEAR OCEAN
166100.0,-117.94,33.78,40.0,299.0,68.0,163.0,70.0,3.0125,<1H OCEAN
173400.0,-117.2,34.04,24.0,1587.0,222.0,676.0,234.0,6.0715,INLAND
85300.0,-120.49,37.32,13.0,3474.0,927.0,2149.0,821.0,1.9528,INLAND
156900.0,-117.27,33.2,34.0,1852.0,322.0,978.0,332.0,4.3542,<1H OCEAN
395300.0,-118.37,33.85,25.0,5622.0,998.0,2537.0,1009.0,5.785,<1H OCEAN
149600.0,-118.33,33.99,46.0,1582.0,315.0,777.0,286.0,3.2083,<1H OCEAN
350000.0,-118.5,33.97,52.0,709.0,329.0,388.0,313.0,2.2643,<1H OCEAN
229400.0,-122.46,37.68,23.0,2812.0,769.0,1983.0,681.0,2.9413,NEAR OCEAN
128000.0,-118.3,34.0,52.0,1718.0,354.0,1026.0,312.0,2.0,<1H OCEAN
310900.0,-122.28,37.53,34.0,1980.0,385.0,970.0,391.0,5.1207,NEAR OCEAN
149100.0,-122.75,38.43,36.0,1599.0,345.0,1086.0,314.0,2.6667,<1H OCEAN
167500.0,-118.18,33.95,42.0,2608.0,610.0,2062.0,616.0,3.5341,<1H OCEAN
148100.0,-120.93,37.66,10.0,7566.0,1348.0,3227.0,1199.0,4.744,INLAND
90400.0,-119.98,38.93,25.0,1262.0,293.0,534.0,226.0,2.6607,INLAND
183900.0,-117.93,33.85,31.0,2149.0,465.0,966.0,302.0,3.875,<1H OCEAN
227300.0,-120.89,35.37,29.0,2046.0,588.0,846.0,410.0,1.65,NEAR OCEAN
98000.0,-117.35,34.5,10.0,2163.0,392.0,1174.0,362.0,3.375,INLAND
450000.0,-117.86,33.67,16.0,20.0,5.0,15.0,5.0,3.875,<1H OCEAN
51500.0,-119.36,36.2,33.0,1955.0,398.0,1412.0,397.0,2.25,INLAND
208900.0,-118.25,34.11,43.0,2222.0,635.0,1817.0,606.0,2.7466,<1H OCEAN
300000.0,-117.67,33.46,18.0,1679.0,271.0,783.0,257.0,5.3999,<1H OCEAN
194100.0,-118.36,34.17,44.0,2295.0,560.0,1543.0,528.0,2.3851,<1H OCEAN
93300.0,-117.24,34.06,9.0,3603.0,786.0,1782.0,718.0,3.2604,INLAND
81800.0,-122.19,37.75,28.0,856.0,189.0,435.0,162.0,0.8012,NEAR BAY
386700.0,-118.38,34.14,42.0,1253.0,225.0,492.0,224.0,7.7112,<1H OCEAN
412500.0,-122.44,37.78,44.0,1545.0,334.0,561.0,326.0,3.875,NEAR BAY
178700.0,-118.43,34.24,35.0,1416.0,261.0,995.0,272.0,3.7143,<1H OCEAN
224100.0,-121.86,37.26,16.0,2814.0,485.0,1305.0,465.0,5.5121,<1H OCEAN
114300.0,-117.09,32.66,37.0,1232.0,330.0,1086.0,330.0,1.6389,NEAR OCEAN
125000.0,-122.23,39.53,8.0,1268.0,336.0,1237.0,326.0,1.3708,INLAND
120700.0,-117.39,33.95,35.0,1599.0,284.0,721.0,287.0,4.125,INLAND
87500.0,-121.5,38.57,44.0,1375.0,351.0,766.0,321.0,2.1719,INLAND
254700.0,-118.13,33.96,38.0,1040.0,202.0,557.0,228.0,4.0,<1H OCEAN
229300.0,-118.15,34.1,36.0,3514.0,818.0,2277.0,828.0,3.1211,<1H OCEAN
500001.0,-118.51,34.11,29.0,9013.0,1117.0,2919.0,1061.0,13.947,<1H OCEAN
59500.0,-118.97,35.39,38.0,2121.0,433.0,1547.0,441.0,2.774,INLAND
40000.0,-120.38,40.98,27.0,777.0,185.0,318.0,115.0,1.6833,INLAND
446200.0,-118.31,34.22,27.0,7714.0,1132.0,3199.0,1100.0,7.1262,<1H OCEAN
219700.0,-117.98,33.73,18.0,3833.0,,2192.0,996.0,3.4679,<1H OCEAN
67000.0,-121.46,38.64,20.0,1517.0,323.0,1287.0,328.0,1.6607,INLAND
105400.0,-117.4,34.08,21.0,3622.0,667.0,2503.0,720.0,3.8531,INLAND
411200.0,-122.0,37.36,17.0,2070.0,,797.0,275.0,8.6155,<1H OCEAN
439000.0,-117.79,33.77,21.0,4349.0,553.0,1680.0,519.0,6.9014,<1H OCEAN
146200.0,-122.73,38.44,28.0,1073.0,241.0,652.0,238.0,2.4,<1H OCEAN
88300.0,-118.24,33.94,34.0,796.0,180.0,673.0,144.0,2.0769,<1H OCEAN
388500.0,-122.01,36.91,19.0,691.0,191.0,324.0,167.0,3.1312,NEAR OCEAN
191700.0,-121.0,39.23,15.0,2809.0,450.0,1267.0,408.0,4.0426,INLAND
272400.0,-122.27,37.97,10.0,15259.0,2275.0,7266.0,2338.0,6.0666,NEAR BAY
220100.0,-118.07,33.87,28.0,2399.0,436.0,1613.0,429.0,3.6339,<1H OCEAN
172100.0,-118.19,33.98,36.0,4179.0,,4582.0,1196.0,2.0087,<1H OCEAN
98500.0,-121.98,38.05,31.0,2810.0,518.0,1640.0,503.0,3.3661,INLAND
237500.0,-117.99,33.71,18.0,1994.0,578.0,3031.0,577.0,2.7614,<1H OCEAN
151200.0,-117.13,32.91,16.0,3230.0,579.0,1825.0,576.0,4.2969,<1H OCEAN
316000.0,-118.88,34.2,23.0,4862.0,597.0,1938.0,594.0,7.3409,<1H OCEAN
321900.0,-118.38,33.87,17.0,2791.0,579.0,1467.0,583.0,5.7415,<1H OCEAN
205300.0,-118.53,34.2,33.0,3270.0,818.0,2118.0,763.0,3.225,<1H OCEAN
500001.0,-118.4,33.88,36.0,3022.0,482.0,1278.0,494.0,7.2651,<1H OCEAN
182600.0,-118.01,34.07,22.0,6311.0,1572.0,6666.0,1456.0,2.9334,INLAND
88300.0,-119.71,36.74,18.0,8099.0,1670.0,4476.0,1514.0,2.4728,INLAND
371100.0,-122.27,37.89,52.0,2640.0,366.0,973.0,355.0,7.266,NEAR BAY
232500.0,-117.92,33.88,52.0,1270.0,276.0,609.0,211.0,3.75,<1H OCEAN
450000.0,-120.92,37.63,39.0,45.0,8.0,22.0,9.0,1.7679,INLAND
157300.0,-122.17,37.78,42.0,1524.0,260.0,651.0,267.0,3.6875,NEAR BAY
350000.0,-118.28,33.74,16.0,855.0,271.0,486.0,250.0,0.7591,NEAR OCEAN
112500.0,-120.43,38.25,13.0,763.0,161.0,311.0,125.0,2.4583,INLAND
137500.0,-118.33,33.94,31.0,3757.0,1102.0,3288.0,964.0,1.9309,<1H OCEAN
144700.0,-120.43,34.9,27.0,2019.0,354.0,1029.0,346.0,3.5391,<1H OCEAN
98800.0,-124.0,40.92,29.0,1429.0,,672.0,266.0,2.9485,<1H OCEAN
332400.0,-121.9,37.67,15.0,2130.0,273.0,876.0,285.0,7.2639,<1H OCEAN
500001.0,-118.34,34.11,40.0,5485.0,1242.0,2034.0,1133.0,3.6974,<1H OCEAN
177300.0,-118.37,34.18,35.0,2949.0,794.0,2106.0,746.0,2.9228,<1H OCEAN
80800.0,-119.83,36.8,16.0,6101.0,1200.0,3407.0,1134.0,3.125,INLAND
57500.0,-114.98,33.07,18.0,1183.0,363.0,374.0,127.0,3.1607,INLAND
74300.0,-115.37,32.81,23.0,1458.0,294.0,866.0,275.0,2.3594,INLAND
500001.0,-118.46,33.98,27.0,2217.0,520.0,806.0,458.0,3.8935,<1H OCEAN
500001.0,-122.06,37.27,16.0,1612.0,221.0,567.0,208.0,10.5793,<1H OCEAN
91900.0,-119.66,36.35,15.0,1724.0,374.0,947.0,391.0,3.1094,INLAND
324000.0,-118.37,33.88,44.0,1325.0,245.0,669.0,253.0,4.4211,<1H OCEAN
80000.0,-121.47,38.51,52.0,20.0,4.0,74.0,9.0,3.625,INLAND
192200.0,-121.41,36.84,23.0,1771.0,356.0,1105.0,338.0,3.7049,INLAND
51600.0,-119.62,36.56,30.0,1722.0,372.0,1467.0,403.0,1.8878,INLAND
96100.0,-119.68,37.19,10.0,3113.0,589.0,1508.0,512.0,2.8167,INLAND
78900.0,-119.69,36.83,28.0,1868.0,350.0,898.0,329.0,3.1814,INLAND
170400.0,-121.81,37.99,18.0,2807.0,445.0,1315.0,437.0,4.8194,INLAND
197600.0,-122.11,37.64,31.0,1487.0,280.0,854.0,301.0,5.2312,NEAR BAY
96200.0,-123.2,39.15,27.0,990.0,238.0,592.0,225.0,2.0074,<1H OCEAN
159100.0,-117.65,34.02,9.0,2107.0,411.0,1138.0,389.0,4.4042,INLAND
193300.0,-122.65,38.25,23.0,4030.0,,1852.0,778.0,3.402,<1H OCEAN
125000.0,-117.35,33.68,10.0,516.0,107.0,282.0,96.0,4.2788,<1H OCEAN
137500.0,-121.85,37.34,27.0,1481.0,409.0,1505.0,391.0,2.5769,<1H OCEAN
127400.0,-118.31,33.96,52.0,2523.0,460.0,1167.0,413.0,3.0625,<1H OCEAN
144500.0,-117.97,34.13,33.0,2038.0,473.0,1546.0,469.0,3.4777,INLAND
177700.0,-117.99,33.76,17.0,2545.0,737.0,1468.0,699.0,1.9439,<1H OCEAN
163900.0,-117.93,34.09,34.0,2192.0,431.0,1376.0,428.0,3.9861,<1H OCEAN
97900.0,-117.31,34.25,29.0,4610.0,,1569.0,592.0,2.7663,INLAND
187500.0,-122.15,37.74,49.0,1494.0,316.0,611.0,288.0,2.2,NEAR BAY
160600.0,-117.08,33.03,10.0,2296.0,450.0,818.0,405.0,4.3424,<1H OCEAN
500001.0,-117.22,33.87,16.0,56.0,7.0,39.0,14.0,2.625,INLAND
131300.0,-118.24,33.8,28.0,636.0,169.0,788.0,143.0,3.6161,NEAR OCEAN
147300.0,-121.29,38.65,27.0,2744.0,464.0,1340.0,452.0,3.8816,INLAND
228000.0,-121.96,37.53,28.0,2949.0,529.0,1538.0,545.0,4.9615,<1H OCEAN
172600.0,-121.81,37.35,28.0,3477.0,671.0,2990.0,648.0,4.4671,<1H OCEAN
164600.0,-121.24,36.34,33.0,1691.0,308.0,792.0,262.0,2.6648,<1H OCEAN
123700.0,-121.32,38.59,24.0,4378.0,910.0,2149.0,812.0,2.5035,INLAND
280300.0,-117.82,33.88,15.0,5392.0,895.0,2531.0,827.0,6.2185,<1H OCEAN
201800.0,-121.76,38.57,11.0,15018.0,3008.0,7984.0,2962.0,3.1371,INLAND
118800.0,-120.35,38.04,16.0,1499.0,326.0,733.0,286.0,2.5729,INLAND
345500.0,-122.55,37.59,31.0,1331.0,245.0,598.0,225.0,4.1827,NEAR OCEAN
271600.0,-117.95,33.63,17.0,6745.0,1547.0,2688.0,1535.0,3.9917,<1H OCEAN
331200.0,-119.84,34.45,26.0,4424.0,616.0,1839.0,601.0,6.3654,NEAR OCEAN
162700.0,-118.17,33.88,42.0,1645.0,371.0,1161.0,351.0,3.0893,<1H OCEAN
87500.0,-122.28,37.82,52.0,1238.0,288.0,622.0,259.0,1.5057,NEAR BAY
411300.0,-117.2,33.07,5.0,10394.0,1617.0,4496.0,1553.0,5.9289,NEAR OCEAN
186900.0,-116.97,32.75,28.0,3519.0,583.0,1720.0,590.0,4.7973,<1H OCEAN
139200.0,-121.89,39.71,26.0,2741.0,451.0,1217.0,437.0,3.7007,INLAND
132000.0,-119.36,36.33,11.0,3221.0,617.0,1351.0,565.0,2.9844,INLAND
172900.0,-116.6,33.06,23.0,1731.0,365.0,612.0,258.0,2.7813,INLAND
216700.0,-122.18,38.35,24.0,407.0,68.0,175.0,61.0,6.0266,INLAND
91000.0,-117.53,33.88,22.0,2855.0,667.0,2453.0,624.0,3.1312,INLAND
500001.0,-121.92,36.55,52.0,2616.0,483.0,582.0,313.0,3.275,NEAR OCEAN
