168300.0,-121.56,39.69,8.0,2836.0,522.0,1163.0,512.0,3.13,INLAND
63500.0,-121.26,37.96,35.0,1511.0,316.0,892.0,304.0,1.7898,INLAND
500001.0,-117.95,33.63,29.0,1496.0,282.0,463.0,215.0,6.0516,<1H OCEAN
286500.0,-118.34,33.87,28.0,2948.0,566.0,1445.0,524.0,5.3743,<1H OCEAN
278300.0,-118.32,34.16,46.0,2345.0,453.0,1031.0,427.0,4.3173,<1H OCEAN
157200.0,-117.66,34.08,33.0,3659.0,590.0,1773.0,615.0,3.9227,INLAND
78600.0,-117.32,34.09,30.0,1129.0,251.0,1034.0,237.0,2.3917,INLAND
186600.0,-118.75,34.28,27.0,1452.0,251.0,928.0,259.0,4.6908,<1H OCEAN
105900.0,-124.17,41.76,20.0,2673.0,538.0,1282.0,514.0,2.4605,NEAR OCEAN
216900.0,-121.98,37.58,20.0,4126.0,1031.0,2079.0,975.0,3.6832,<1H OCEAN
137500.0,-121.44,38.6,16.0,2987.0,864.0,1240.0,755.0,2.8231,INLAND
233300.0,-117.89,33.71,24.0,4365.0,804.0,2663.0,753.0,4.5814,<1H OCEAN
500001.0,-118.37,33.77,26.0,6339.0,876.0,2540.0,880.0,10.1447,NEAR OCEAN
405000.0,-122.28,37.51,33.0,4719.0,,1980.0,757.0,6.1064,NEAR OCEAN
196700.0,-117.63,33.62,9.0,4257.0,785.0,1293.0,745.0,3.7139,<1H OCEAN
233100.0,-118.01,33.78,26.0,2343.0,377.0,1166.0,373.0,6.0,<1H OCEAN
302200.0,-117.96,33.98,25.0,1259.0,184.0,599.0,170.0,5.7407,<1H OCEAN
193400.0,-117.93,33.79,34.0,3592.0,616.0,2138.0,605.0,5.2129,<1H OCEAN
176700.0,-118.24,34.11,39.0,1148.0,348.0,1161.0,333.0,2.2167,<1H OCEAN
149000.0,-121.1,37.8,35.0,1853.0,331.0,958.0,340.0,3.3578,INLAND
226200.0,-120.66,35.26,15.0,5540.0,1319.0,2383.0,1165.0,2.2656,NEAR OCEAN
75600.0,-119.86,36.45,19.0,2439.0,462.0,1416.0,469.0,2.4474,INLAND
113300.0,-121.31,38.57,9.0,2748.0,521.0,1663.0,565.0,3.5192,INLAND
158300.0,-118.22,34.07,36.0,839.0,250.0,1079.0,245.0,1.7463,<1H OCEAN
210000.0,-118.29,34.08,34.0,479.0,182.0,557.0,170.0,1.525,<1H OCEAN
280000.0,-122.44,37.78,52.0,3510.0,791.0,1703.0,657.0,2.8654,NEAR BAY
213400.0,-117.25,33.05,16.0,2794.0,476.0,1387.0,442.0,4.3286,NEAR OCEAN
183800.0,-118.32,33.94,38.0,1067.0,170.0,499.0,169.0,4.6389,<1H OCEAN
131700.0,-121.43,38.56,41.0,1105.0,227.0,443.0,210.0,3.1827,INLAND
175000.0,-121.19,37.81,8.0,4019.0,857.0,1959.0,782.0,2.7321,INLAND
153100.0,-121.84,39.68,38.0,549.0,105.0,275.0,94.0,3.5375,INLAND
99100.0,-121.32,38.02,26.0,2851.0,533.0,1544.0,499.0,3.5379,INLAND
396400.0,-118.31,33.75,34.0,2338.0,393.0,1031.0,373.0,6.287,NEAR OCEAN
253300.0,-121.81,37.23,16.0,1674.0,281.0,850.0,254.0,5.3157,<1H OCEAN
192200.0,-118.26,33.83,28.0,4112.0,861.0,3211.0,841.0,4.4539,<1H OCEAN
284700.0,-117.18,32.75,36.0,2282.0,534.0,918.0,531.0,2.7222,NEAR OCEAN
90600.0,-121.0,37.64,52.0,530.0,177.0,325.0,158.0,1.1875,INLAND
253600.0,-122.26,37.86,35.0,5161.0,1744.0,3276.0,1742.0,1.6307,NEAR BAY
174400.0,-117.03,32.79,31.0,2366.0,383.0,1077.0,387.0,4.2992,<1H OCEAN
282200.0,-117.99,33.67,19.0,3808.0,790.0,1776.0,756.0,4.625,<1H OCEAN
370000.0,-122.54,37.9,48.0,2491.0,460.0,937.0,455.0,4.4375,NEAR BAY
500001.0,-118.46,33.99,35.0,1214.0,300.0,478.0,265.0,4.0156,<1H OCEAN
66000.0,-119.78,36.8,34.0,3426.0,623.0,1938.0,647.0,2.8994,INLAND
318400.0,-122.4,37.61,35.0,2084.0,549.0,1077.0,545.0,3.1628,NEAR OCEAN
105000.0,-122.38,40.61,14.0,4773.0,1133.0,2101.0,1072.0,1.7227,INLAND
127200.0,-121.97,38.34,11.0,1500.0,319.0,899.0,304.0,4.5568,INLAND
216700.0,-117.85,33.8,34.0,1593.0,283.0,872.0,255.0,3.825,<1H OCEAN
277600.0,-118.03,33.87,16.0,2306.0,393.0,1368.0,387.0,5.93,<1H OCEAN
153500.0,-118.22,33.94,42.0,1115.0,297.0,1412.0,325.0,3.0903,<1H OCEAN
260300.0,-121.57,37.0,18.0,7241.0,1225.0,4168.0,1138.0,4.5714,INLAND
163700.0,-121.43,38.57,38.0,2507.0,446.0,888.0,448.0,4.0972,INLAND
136400.0,-118.42,34.26,26.0,1788.0,521.0,2582.0,484.0,2.1062,<1H OCEAN
126300.0,-122.15,37.75,40.0,1445.0,256.0,849.0,255.0,3.8913,NEAR BAY
382200.0,-122.1,37.93,20.0,10212.0,1424.0,4083.0,1374.0,8.039,NEAR BAY
177000.0,-120.35,37.95,13.0,2104.0,407.0,960.0,401.0,2.4,INLAND
70200.0,-120.66,40.41,52.0,2081.0,478.0,1051.0,419.0,2.2992,INLAND
338100.0,-118.36,34.05,50.0,3518.0,812.0,1724.0,758.0,3.0833,<1H OCEAN
140600.0,-118.17,34.02,41.0,676.0,216.0,851.0,199.0,2.3077,<1H OCEAN
197600.0,-117.17,32.82,21.0,2869.0,596.0,1471.0,577.0,3.0375,NEAR OCEAN
125000.0,-117.37,33.98,52.0,201.0,44.0,130.0,24.0,2.025,INLAND
171300.0,-122.06,38.27,14.0,6920.0,996.0,3196.0,978.0,5.0672,INLAND
320800.0,-117.7,33.47,20.0,1577.0,363.0,764.0,333.0,4.1563,<1H OCEAN
270000.0,-122.2,37.48,32.0,640.0,166.0,991.0,160.0,1.9844,NEAR BAY
158600.0,-120.43,34.88,22.0,2580.0,381.0,1149.0,372.0,5.0113,<1H OCEAN
359400.0,-118.11,34.2,36.0,4915.0,725.0,1897.0,700.0,6.827,INLAND
175000.0,-118.06,34.03,36.0,21.0,7.0,21.0,9.0,2.375,<1H OCEAN
233300.0,-121.87,37.66,52.0,775.0,134.0,315.0,123.0,5.0677,INLAND
500001.0,-121.86,37.21,23.0,2552.0,305.0,916.0,316.0,9.1974,<1H OCEAN
500001.0,-118.52,34.01,25.0,2757.0,738.0,1014.0,633.0,3.1433,<1H OCEAN
91500.0,-118.25,33.89,35.0,1582.0,391.0,1957.0,404.0,2.4537,<1H OCEAN
81100.0,-117.72,33.61,26.0,2653.0,621.0,774.0,584.0,2.49,<1H OCEAN
187500.0,-118.27,34.06,45.0,564.0,353.0,1172.0,319.0,1.494,<1H OCEAN
228900.0,-119.18,34.26,22.0,2334.0,359.0,1298.0,363.0,5.5275,NEAR OCEAN
314900.0,-118.39,33.99,43.0,612.0,135.0,402.0,142.0,5.1322,<1H OCEAN
156700.0,-118.1,33.98,34.0,1357.0,310.0,1042.0,287.0,3.4083,<1H OCEAN
94400.0,-121.44,38.68,19.0,2476.0,534.0,1355.0,463.0,2.0625,INLAND
185600.0,-118.09,34.06,31.0,1146.0,289.0,1163.0,258.0,2.2083,<1H OCEAN
120600.0,-117.09,32.68,30.0,2662.0,653.0,1997.0,605.0,2.8089,NEAR OCEAN
62500.0,-119.69,36.74,17.0,2438.0,598.0,1563.0,538.0,1.5449,INLAND
168900.0,-121.66,36.69,6.0,10613.0,2485.0,7249.0,2375.0,3.7912,<1H OCEAN
255000.0,-118.3,33.74,40.0,1896.0,416.0,950.0,383.0,2.425,NEAR OCEAN
303900.0,-117.04,32.66,22.0,3362.0,630.0,1471.0,612.0,4.1442,NEAR OCEAN
202800.0,-117.99,33.9,33.0,2161.0,383.0,1235.0,383.0,5.6454,<1H OCEAN
62000.0,-119.7,36.3,10.0,956.0,201.0,693.0,220.0,2.2895,INLAND
67000.0,-119.02,35.41,21.0,2534.0,554.0,1297.0,517.0,2.0575,INLAND
118300.0,-118.26,34.01,46.0,879.0,253.0,1010.0,221.0,2.1776,<1H OCEAN
252200.0,-117.81,33.75,23.0,3498.0,636.0,1574.0,642.0,5.021,<1H OCEAN
142000.0,-117.23,33.94,7.0,13195.0,2696.0,6763.0,2437.0,3.5851,INLAND
500001.0,-118.38,34.05,35.0,3517.0,879.0,1632.0,784.0,3.0956,<1H OCEAN
192300.0,-118.38,34.17,30.0,2016.0,622.0,1359.0,557.0,2.7708,<1H OCEAN
146400.0,-116.98,32.86,16.0,7718.0,1423.0,4383.0,1394.0,4.0693,<1H OCEAN
79000.0,-124.27,40.69,36.0,2349.0,528.0,1194.0,465.0,2.5179,NEAR OCEAN
135800.0,-121.33,38.62,19.0,1853.0,415.0,772.0,397.0,2.2574,INLAND
131500.0,-117.54,34.11,16.0,2114.0,374.0,1463.0,399.0,3.9241,INLAND
232500.0,-118.39,34.03,28.0,1722.0,536.0,1161.0,481.0,3.2228,<1H OCEAN
125000.0,-121.1,38.94,42.0,410.0,117.0,706.0,112.0,1.0179,INLAND
89300.0,-122.19,37.77,41.0,2036.0,510.0,1412.0,454.0,2.0469,NEAR BAY
80000.0,-118.44,35.13,34.0,1170.0,290.0,602.0,266.0,1.7917,INLAND
314200.0,-122.48,37.71,39.0,3615.0,632.0,1571.0,615.0,5.1149,NEAR OCEAN
422000.0,-118.23,34.18,47.0,1853.0,345.0,757.0,310.0,3.6875,<1H OCEAN
215000.0,-118.15,34.13,34.0,824.0,224.0,430.0,213.0,3.6389,<1H OCEAN
432100.0,-118.4,33.98,39.0,714.0,118.0,314.0,117.0,5.9856,<1H OCEAN
245200.0,-117.02,32.67,20.0,1505.0,184.0,635.0,182.0,6.5772,NEAR OCEAN
270200.0,-122.5,37.75,45.0,1620.0,,941.0,328.0,4.3859,NEAR OCEAN
143800.0,-122.72,38.42,26.0,3604.0,734.0,2605.0,704.0,3.0969,<1H OCEAN
282100.0,-117.81,34.01,12.0,9197.0,1642.0,4332.0,1554.0,4.9589,<1H OCEAN
370400.0,-118.23,34.15,40.0,2124.0,370.0,998.0,372.0,5.3369,<1H OCEAN
308400.0,-118.53,34.26,18.0,3674.0,,1590.0,550.0,8.176,<1H OCEAN
108900.0,-117.02,33.81,10.0,6317.0,1335.0,2625.0,1094.0,2.3,INLAND
261000.0,-122.47,38.34,15.0,2411.0,446.0,1144.0,407.0,4.3472,<1H OCEAN
157600.0,-117.93,34.01,23.0,3188.0,836.0,3883.0,840.0,2.1863,<1H OCEAN
94600.0,-119.35,36.32,10.0,3817.0,719.0,1686.0,714.0,3.8235,INLAND
68300.0,-121.63,39.14,39.0,1874.0,411.0,822.0,377.0,2.5038,INLAND
246900.0,-119.71,34.42,49.0,1560.0,436.0,1041.0,411.0,2.925,<1H OCEAN
500001.0,-122.37,37.58,43.0,2506.0,432.0,967.0,428.0,4.7404,NEAR OCEAN
196900.0,-121.06,37.67,31.0,906.0,146.0,383.0,129.0,3.4167,INLAND
500001.0,-117.21,33.03,20.0,3370.0,433.0,1020.0,408.0,11.0911,NEAR OCEAN
200700.0,-121.84,38.65,29.0,3167.0,548.0,1554.0,534.0,4.3487,INLAND
219000.0,-122.28,37.78,50.0,1487.0,306.0,730.0,327.0,2.5139,NEAR BAY
372400.0,-117.95,33.67,25.0,1799.0,233.0,810.0,265.0,8.289,<1H OCEAN
162500.0,-117.94,33.93,33.0,1770.0,370.0,1346.0,366.0,4.0833,<1H OCEAN
191700.0,-118.35,34.32,52.0,102.0,29.0,54.0,32.0,1.9875,<1H OCEAN
213900.0,-122.41,37.71,40.0,2054.0,433.0,1738.0,429.0,4.9926,NEAR BAY
131300.0,-122.28,37.8,38.0,684.0,176.0,344.0,155.0,2.0114,NEAR BAY
219400.0,-121.82,37.31,15.0,1504.0,294.0,1267.0,291.0,5.5145,<1H OCEAN
112100.0,-117.73,34.09,30.0,2345.0,496.0,1897.0,454.0,2.4375,INLAND
166700.0,-116.88,33.05,11.0,7217.0,1583.0,4197.0,1502.0,2.8827,<1H OCEAN
100000.0,-117.11,32.75,11.0,1607.0,478.0,1384.0,450.0,2.05,NEAR OCEAN
80000.0,-118.96,36.66,18.0,1302.0,424.0,320.0,133.0,3.1964,INLAND
240000.0,-122.02,37.09,35.0,1818.0,368.0,682.0,254.0,4.8611,NEAR OCEAN
254400.0,-118.09,33.81,36.0,1878.0,323.0,846.0,325.0,7.1937,<1H OCEAN
372300.0,-118.42,34.15,18.0,1880.0,420.0,681.0,333.0,4.3214,<1H OCEAN
329200.0,-122.48,37.75,49.0,2203.0,407.0,1052.0,405.0,4.4375,NEAR BAY
93100.0,-118.27,33.94,30.0,1764.0,397.0,1406.0,362.0,1.449,<1H OCEAN
60900.0,-120.47,37.29,16.0,749.0,222.0,1277.0,224.0,1.2054,INLAND
55200.0,-119.22,35.68,16.0,2874.0,677.0,3078.0,651.0,1.8843,INLAND
143800.0,-118.2,34.04,44.0,1399.0,386.0,1419.0,373.0,1.8224,<1H OCEAN
88300.0,-119.69,36.69,36.0,1432.0,269.0,836.0,237.0,2.1563,INLAND
112500.0,-121.97,37.44,17.0,127.0,28.0,219.0,22.0,4.5179,<1H OCEAN
500001.0,-122.21,37.43,23.0,5741.0,1012.0,1843.0,888.0,5.7211,NEAR OCEAN
58600.0,-115.52,32.98,32.0,1615.0,382.0,1307.0,345.0,1.4583,INLAND
259400.0,-118.36,33.98,45.0,1559.0,305.0,891.0,341.0,4.4038,<1H OCEAN
104800.0,-118.31,33.99,45.0,1489.0,339.0,791.0,316.0,2.2339,<1H OCEAN
110000.0,-117.72,33.62,21.0,2322.0,518.0,662.0,457.0,3.1679,<1H OCEAN
98000.0,-117.26,34.16,31.0,3538.0,658.0,1715.0,663.0,3.7125,INLAND
258400.0,-118.57,34.22,27.0,2795.0,606.0,1702.0,586.0,3.7798,<1H OCEAN
194000.0,-117.97,33.93,33.0,1700.0,369.0,981.0,362.0,4.5461,<1H OCEAN
169200.0,-122.06,37.63,23.0,1939.0,356.0,841.0,364.0,3.3611,NEAR BAY
84900.0,-120.06,37.02,13.0,6301.0,1080.0,3840.0,1033.0,3.5258,INLAND
192500.0,-121.89,37.33,42.0,1279.0,358.0,1254.0,340.0,2.2583,<1H OCEAN
155400.0,-118.17,33.98,31.0,1236.0,329.0,1486.0,337.0,3.0938,<1H OCEAN
226400.0,-121.92,36.61,27.0,1619.0,352.0,831.0,344.0,4.3,NEAR OCEAN
346900.0,-118.46,34.0,36.0,1392.0,260.0,679.0,247.0,4.7344,<1H OCEAN
127500.0,-120.85,37.51,5.0,2899.0,745.0,1593.0,633.0,2.2292,INLAND
298300.0,-122.4,37.76,52.0,4265.0,912.0,1555.0,836.0,4.119,NEAR BAY
393800.0,-122.04,37.31,29.0,2476.0,434.0,1217.0,416.0,6.2045,<1H OCEAN
80400.0,-121.67,40.61,8.0,2411.0,463.0,786.0,297.0,2.1513,INLAND
239800.0,-117.5,33.87,4.0,6755.0,1017.0,2866.0,850.0,5.0493,INLAND
163400.0,-122.3,38.25,18.0,3548.0,880.0,1476.0,699.0,3.7188,NEAR BAY
345800.0,-117.25,32.72,36.0,2632.0,450.0,2038.0,419.0,6.5319,NEAR OCEAN
259300.0,-118.92,34.18,17.0,2400.0,352.0,1067.0,323.0,6.3522,<1H OCEAN
500001.0,-118.65,34.21,5.0,5429.0,665.0,2315.0,687.0,9.6465,<1H OCEAN
314400.0,-117.19,33.34,15.0,3310.0,488.0,1104.0,460.0,6.1009,<1H OCEAN
268800.0,-122.07,37.89,38.0,2139.0,343.0,809.0,340.0,5.5636,NEAR BAY
84700.0,-117.19,34.08,22.0,2467.0,555.0,1567.0,494.0,2.6536,INLAND
315500.0,-122.04,37.65,10.0,8299.0,1326.0,3827.0,1288.0,6.2579,NEAR BAY
192400.0,-121.38,36.85,13.0,4115.0,782.0,2903.0,747.0,3.7316,INLAND
179400.0,-118.34,33.99,47.0,1107.0,199.0,437.0,178.0,3.7344,<1H OCEAN
204200.0,-121.92,37.34,35.0,357.0,120.0,377.0,99.0,3.0139,<1H OCEAN
345500.0,-116.57,33.64,10.0,489.0,82.0,183.0,74.0,6.2702,INLAND
229800.0,-122.09,37.42,23.0,4874.0,1251.0,2699.0,1163.0,3.8003,NEAR BAY
207300.0,-118.15,33.93,30.0,3096.0,628.0,1676.0,587.0,4.6583,<1H OCEAN
231900.0,-117.93,33.8,29.0,1672.0,267.0,891.0,281.0,4.8611,<1H OCEAN
212500.0,-122.39,38.0,33.0,44.0,6.0,23.0,11.0,4.125,NEAR BAY
160900.0,-121.39,38.62,45.0,2696.0,624.0,1059.0,582.0,1.8176,INLAND
263800.0,-117.23,32.74,44.0,1404.0,229.0,513.0,217.0,4.1806,NEAR OCEAN
102600.0,-118.28,33.97,31.0,1068.0,271.0,1091.0,281.0,1.689,<1H OCEAN
135300.0,-122.34,37.95,44.0,1675.0,317.0,806.0,311.0,3.0694,NEAR BAY
40900.0,-119.13,36.13,28.0,1673.0,385.0,1434.0,371.0,2.0586,INLAND
230400.0,-118.53,34.23,27.0,2131.0,543.0,1065.0,528.0,3.2404,<1H OCEAN
272800.0,-117.83,33.9,23.0,2446.0,360.0,1196.0,359.0,6.5755,<1H OCEAN
287300.0,-122.24,37.81,52.0,1490.0,238.0,634.0,256.0,6.0302,NEAR BAY
80100.0,-119.85,36.76,10.0,2067.0,450.0,845.0,354.0,1.8214,INLAND
52900.0,-118.99,35.33,36.0,1590.0,367.0,1311.0,390.0,1.6786,INLAND
131900.0,-117.05,32.59,26.0,1919.0,345.0,1326.0,341.0,4.2679,NEAR OCEAN
162800.0,-121.68,37.98,19.0,3388.0,599.0,1707.0,575.0,3.6411,INLAND
197400.0,-122.75,38.48,4.0,6487.0,1112.0,2958.0,1131.0,4.5417,<1H OCEAN
154200.0,-123.15,39.31,19.0,1026.0,205.0,424.0,152.0,2.8833,INLAND
182500.0,-121.83,37.34,26.0,1848.0,339.0,1952.0,327.0,4.087,<1H OCEAN
156300.0,-122.07,38.0,37.0,978.0,202.0,462.0,184.0,3.625,NEAR BAY
66400.0,-117.32,34.12,39.0,2210.0,498.0,1752.0,477.0,1.4066,INLAND
116700.0,-121.09,39.22,25.0,2200.0,439.0,1045.0,419.0,2.6042,INLAND
72500.0,-119.44,36.6,34.0,864.0,184.0,579.0,171.0,2.0417,INLAND
242700.0,-121.98,37.36,34.0,1735.0,318.0,1019.0,301.0,4.5625,<1H OCEAN
84100.0,-121.46,38.51,32.0,2437.0,592.0,1596.0,557.0,1.68,INLAND
195100.0,-118.0,33.84,30.0,1549.0,325.0,885.0,299.0,4.0039,<1H OCEAN
188000.0,-117.16,32.82,28.0,2291.0,371.0,1098.0,382.0,4.6875,NEAR OCEAN
444200.0,-118.19,33.83,43.0,2641.0,411.0,1011.0,444.0,6.4468,NEAR OCEAN
275000.0,-121.97,37.3,31.0,3340.0,735.0,1891.0,686.0,4.8542,<1H OCEAN
165700.0,-117.92,34.09,35.0,1810.0,318.0,1164.0,332.0,5.0123,<1H OCEAN
217700.0,-118.5,34.2,34.0,1617.0,344.0,938.0,305.0,3.915,<1H OCEAN
168400.0,-118.06,33.84,20.0,5643.0,1231.0,3841.0,1195.0,4.0542,<1H OCEAN
178000.0,-118.06,33.98,40.0,1410.0,255.0,932.0,273.0,4.2206,<1H OCEAN
182500.0,-117.93,33.86,35.0,931.0,181.0,516.0,174.0,5.5867,<1H OCEAN
124500.0,-117.25,33.2,22.0,2361.0,618.0,1472.0,596.0,2.0625,<1H OCEAN
157200.0,-117.36,34.28,18.0,3903.0,715.0,1388.0,428.0,4.2386,INLAND
