137500.0,-117.97,34.11,18.0,123.0,28.0,121.0,26.0,3.0417,INLAND
79500.0,-119.78,36.85,12.0,782.0,166.0,292.0,164.0,2.8274,INLAND
140800.0,-117.37,34.13,12.0,1893.0,493.0,1054.0,389.0,2.3456,INLAND
192300.0,-121.66,36.67,40.0,2878.0,592.0,1444.0,564.0,3.1439,<1H OCEAN
279600.0,-119.05,34.24,24.0,4341.0,646.0,1929.0,703.0,5.4298,<1H OCEAN
205900.0,-118.45,34.24,7.0,3299.0,794.0,2343.0,647.0,3.0865,<1H OCEAN
455900.0,-122.44,37.76,38.0,2202.0,452.0,833.0,435.0,6.8939,NEAR BAY
135300.0,-120.45,34.65,27.0,2215.0,578.0,1544.0,527.0,1.9257,NEAR OCEAN
209100.0,-122.3,37.91,40.0,2866.0,617.0,1305.0,589.0,3.6321,NEAR BAY
128800.0,-121.28,38.14,38.0,2803.0,500.0,1223.0,509.0,4.119,INLAND
114100.0,-118.27,34.01,47.0,921.0,264.0,881.0,221.0,1.4327,<1H OCEAN
295600.0,-122.0,37.58,6.0,4405.0,717.0,2071.0,688.0,5.8151,<1H OCEAN
345800.0,-118.4,33.92,25.0,1453.0,271.0,695.0,283.0,5.9499,<1H OCEAN
85000.0,-121.49,38.59,20.0,463.0,180.0,486.0,190.0,1.0313,INLAND
210200.0,-118.2,33.8,45.0,2456.0,495.0,1300.0,450.0,3.9792,NEAR OCEAN
171900.0,-118.07,33.93,5.0,906.0,187.0,1453.0,158.0,4.125,<1H OCEAN
246300.0,-118.36,33.98,46.0,1425.0,283.0,782.0,273.0,5.057,<1H OCEAN
183300.0,-122.31,38.33,21.0,1922.0,344.0,1051.0,342.0,3.6042,NEAR BAY
359600.0,-122.47,37.76,52.0,2680.0,740.0,1587.0,713.0,2.5933,NEAR BAY
33200.0,-118.98,35.35,21.0,496.0,131.0,511.0,124.0,1.7614,INLAND
255600.0,-122.55,38.1,26.0,5188.0,892.0,2341.0,906.0,5.0029,NEAR BAY
211300.0,-121.93,37.32,50.0,1135.0,215.0,500.0,207.0,4.2614,<1H OCEAN
121500.0,-117.22,33.9,8.0,8302.0,1461.0,5155.0,1370.0,4.0467,INLAND
292900.0,-122.42,37.63,46.0,1811.0,337.0,796.0,333.0,3.43,NEAR OCEAN
408500.0,-117.18,32.75,52.0,1539.0,212.0,535.0,224.0,5.392,NEAR OCEAN
65000.0,-122.8,39.08,17.0,1880.0,467.0,798.0,342.0,1.4676,INLAND
318800.0,-119.7,34.43,35.0,1402.0,369.0,654.0,385.0,2.6205,<1H OCEAN
500001.0,-118.78,34.05,28.0,1343.0,215.0,487.0,199.0,6.83,NEAR OCEAN
162500.0,-118.04,33.9,36.0,15.0,5.0,15.0,6.0,0.4999,<1H OCEAN
204600.0,-118.67,34.27,10.0,3753.0,678.0,1859.0,660.0,4.9946,<1H OCEAN
216900.0,-117.81,33.74,24.0,2696.0,649.0,1908.0,626.0,3.3047,<1H OCEAN
138200.0,-118.23,34.66,25.0,2627.0,387.0,1059.0,338.0,3.6382,INLAND
77400.0,-121.55,40.48,14.0,2413.0,524.0,805.0,329.0,2.7857,INLAND
261000.0,-118.03,33.72,24.0,5203.0,957.0,2465.0,946.0,5.163,<1H OCEAN
224900.0,-118.58,34.19,35.0,2329.0,399.0,966.0,336.0,3.8839,<1H OCEAN
65200.0,-121.43,38.61,40.0,1134.0,252.0,675.0,249.0,1.3696,INLAND
125000.0,-117.22,32.75,26.0,696.0,185.0,384.0,184.0,2.6121,NEAR OCEAN
135200.0,-117.01,34.01,15.0,5592.0,891.0,2419.0,840.0,4.7193,INLAND
113000.0,-117.76,34.04,36.0,2242.0,448.0,2052.0,447.0,3.4464,INLAND
375000.0,-118.05,34.02,31.0,40.0,8.0,25.0,7.0,2.125,<1H OCEAN
236800.0,-117.78,33.68,14.0,1750.0,336.0,852.0,300.0,4.6793,<1H OCEAN
500001.0,-117.26,32.83,24.0,1663.0,199.0,578.0,187.0,10.7721,NEAR OCEAN
279600.0,-118.35,33.87,34.0,2823.0,500.0,1429.0,483.0,5.5,<1H OCEAN
136100.0,-121.0,39.26,14.0,810.0,151.0,302.0,138.0,3.1094,INLAND
150600.0,-118.23,33.98,30.0,2562.0,959.0,3909.0,955.0,1.9929,<1H OCEAN
189200.0,-118.33,33.96,42.0,1686.0,361.0,737.0,319.0,2.3,<1H OCEAN
255100.0,-121.93,37.27,35.0,1855.0,345.0,985.0,329.0,6.0196,<1H OCEAN
158100.0,-118.02,34.04,28.0,6175.0,1449.0,5041.0,1408.0,2.8821,<1H OCEAN
325400.0,-122.63,38.34,15.0,2153.0,345.0,979.0,335.0,5.1966,<1H OCEAN
164300.0,-122.28,37.86,52.0,1659.0,367.0,788.0,346.0,2.8214,NEAR BAY
82800.0,-120.86,37.5,34.0,4272.0,996.0,2916.0,962.0,1.9829,INLAND
107300.0,-122.24,38.11,52.0,2050.0,492.0,1277.0,463.0,3.0507,NEAR BAY
315200.0,-122.49,37.74,52.0,2302.0,457.0,1154.0,424.0,4.5744,NEAR OCEAN
71000.0,-120.62,37.35,18.0,874.0,203.0,572.0,190.0,1.6833,INLAND
407200.0,-122.32,37.54,34.0,3661.0,692.0,1608.0,656.0,5.0774,NEAR OCEAN
69600.0,-122.16,39.78,32.0,1288.0,221.0,562.0,203.0,2.325,INLAND
112500.0,-118.23,33.99,37.0,378.0,176.0,714.0,156.0,2.1912,<1H OCEAN
500001.0,-122.21,37.43,20.0,975.0,134.0,324.0,146.0,9.7796,NEAR OCEAN
73300.0,-118.15,35.06,15.0,1069.0,296.0,569.0,263.0,2.0441,INLAND
311600.0,-122.04,37.37,33.0,2757.0,489.0,1201.0,481.0,5.0453,<1H OCEAN
57600.0,-119.1,36.42,26.0,1775.0,416.0,1217.0,383.0,1.8801,INLAND
220100.0,-117.93,33.65,34.0,2141.0,425.0,1559.0,429.0,4.2036,<1H OCEAN
437400.0,-118.03,34.11,34.0,2837.0,460.0,1344.0,458.0,6.5722,INLAND
277300.0,-117.65,33.46,19.0,7034.0,1139.0,2824.0,1068.0,6.0873,<1H OCEAN
192000.0,-118.13,34.02,41.0,734.0,190.0,565.0,191.0,2.2813,<1H OCEAN
328000.0,-121.81,37.37,24.0,962.0,146.0,492.0,155.0,7.2861,<1H OCEAN
77100.0,-119.1,36.19,17.0,1564.0,396.0,713.0,362.0,1.6186,INLAND
62700.0,-123.66,41.3,22.0,1580.0,372.0,686.0,264.0,1.8065,<1H OCEAN
250000.0,-121.99,38.48,17.0,1824.0,348.0,934.0,305.0,4.6719,INLAND
145900.0,-121.41,36.85,11.0,1708.0,394.0,1474.0,372.0,2.8839,INLAND
500001.0,-122.48,37.73,52.0,1597.0,240.0,566.0,231.0,5.1681,NEAR OCEAN
97200.0,-121.62,39.79,11.0,3835.0,727.0,1456.0,658.0,2.5374,INLAND
161900.0,-118.18,33.87,38.0,2664.0,626.0,1627.0,604.0,3.7527,<1H OCEAN
134100.0,-123.01,38.79,32.0,2697.0,529.0,1417.0,535.0,3.2546,<1H OCEAN
290500.0,-118.3,33.76,18.0,9659.0,1716.0,4336.0,1674.0,5.7764,<1H OCEAN
129700.0,-118.18,33.78,36.0,1697.0,550.0,1379.0,434.0,1.2746,NEAR OCEAN
157400.0,-117.31,33.67,9.0,981.0,169.0,596.0,156.0,3.1832,<1H OCEAN
164700.0,-118.26,33.78,21.0,2188.0,706.0,2265.0,652.0,1.9923,NEAR OCEAN
75800.0,-117.29,34.13,44.0,2337.0,563.0,1238.0,467.0,1.5156,INLAND
52500.0,-121.28,37.96,28.0,1942.0,724.0,1618.0,638.0,0.9365,INLAND
185400.0,-122.71,38.45,39.0,2739.0,573.0,1223.0,569.0,2.9663,<1H OCEAN
208300.0,-120.84,37.92,27.0,471.0,84.0,195.0,72.0,3.3333,INLAND
208600.0,-121.95,37.36,27.0,3236.0,832.0,2230.0,798.0,3.5625,<1H OCEAN
340100.0,-122.02,37.31,33.0,2563.0,434.0,1230.0,418.0,6.3197,<1H OCEAN
165400.0,-120.61,35.12,31.0,1486.0,345.0,823.0,322.0,2.6974,<1H OCEAN
67500.0,-117.09,32.63,27.0,2920.0,770.0,1935.0,746.0,2.4148,NEAR OCEAN
400000.0,-118.44,34.01,43.0,1408.0,246.0,651.0,240.0,4.5795,<1H OCEAN
340900.0,-122.06,37.88,34.0,4781.0,703.0,1879.0,714.0,6.5378,NEAR BAY
184200.0,-117.94,33.76,27.0,2512.0,506.0,1861.0,511.0,4.2386,<1H OCEAN
138100.0,-116.95,32.78,33.0,2432.0,443.0,1147.0,427.0,3.3906,<1H OCEAN
166600.0,-118.09,33.89,27.0,3399.0,882.0,2465.0,811.0,3.099,<1H OCEAN
319400.0,-122.27,37.24,30.0,2762.0,593.0,1581.0,502.0,5.1002,NEAR OCEAN
53400.0,-115.52,33.13,18.0,1109.0,283.0,1006.0,253.0,2.163,INLAND
209600.0,-118.25,34.15,15.0,3712.0,1005.0,1888.0,890.0,3.6875,<1H OCEAN
253700.0,-117.21,33.2,22.0,3337.0,518.0,1288.0,466.0,5.04,<1H OCEAN
151900.0,-118.04,33.93,35.0,1805.0,387.0,1505.0,366.0,4.1667,<1H OCEAN
120700.0,-118.26,33.89,36.0,923.0,165.0,603.0,191.0,3.5687,<1H OCEAN
335900.0,-121.98,37.31,28.0,3840.0,629.0,1883.0,662.0,6.4095,<1H OCEAN
102100.0,-118.28,33.96,34.0,2074.0,562.0,1913.0,514.0,1.6156,<1H OCEAN
500001.0,-122.08,37.82,4.0,2045.0,237.0,830.0,252.0,11.3421,NEAR BAY
208200.0,-117.19,32.82,34.0,3850.0,608.0,1619.0,602.0,5.0465,NEAR OCEAN
157700.0,-117.71,34.02,17.0,12689.0,2426.0,7343.0,2230.0,3.6361,INLAND
158300.0,-118.45,34.18,22.0,2516.0,826.0,3350.0,713.0,2.0192,<1H OCEAN
260700.0,-121.62,37.09,37.0,1593.0,303.0,1030.0,287.0,3.9306,<1H OCEAN
114000.0,-120.69,35.64,38.0,2564.0,546.0,1301.0,481.0,2.0076,<1H OCEAN
222100.0,-118.35,33.99,45.0,1764.0,401.0,679.0,334.0,3.2021,<1H OCEAN
94700.0,-121.39,39.61,22.0,2828.0,610.0,986.0,391.0,2.8871,INLAND
281700.0,-117.02,32.64,5.0,260.0,41.0,157.0,42.0,6.5151,NEAR OCEAN
284600.0,-118.33,34.2,43.0,2322.0,418.0,1106.0,433.0,4.3631,<1H OCEAN
90600.0,-117.48,34.1,30.0,2287.0,531.0,1796.0,503.0,2.5833,INLAND
136300.0,-118.2,34.04,52.0,1249.0,307.0,1223.0,297.0,2.07,<1H OCEAN
244200.0,-117.59,33.93,17.0,338.0,47.0,200.0,46.0,7.8118,INLAND
60200.0,-119.29,36.35,15.0,1740.0,319.0,1332.0,308.0,2.5743,INLAND
210100.0,-121.96,37.99,2.0,3129.0,707.0,1606.0,698.0,2.9591,INLAND
85800.0,-122.19,37.76,26.0,1293.0,297.0,984.0,303.0,1.9479,NEAR BAY
107800.0,-122.36,37.96,30.0,950.0,317.0,1073.0,280.0,1.8664,NEAR BAY
180000.0,-117.91,33.85,22.0,1178.0,289.0,865.0,294.0,3.025,<1H OCEAN
156300.0,-121.41,38.55,14.0,2534.0,705.0,1495.0,583.0,1.9167,INLAND
55400.0,-116.31,34.13,20.0,2352.0,556.0,1217.0,481.0,1.6063,INLAND
95800.0,-121.02,37.62,14.0,5737.0,1286.0,4722.0,1210.0,1.6731,INLAND
308900.0,-118.31,33.8,29.0,2795.0,572.0,1469.0,557.0,3.7167,<1H OCEAN
143800.0,-118.16,33.89,38.0,483.0,113.0,389.0,108.0,2.1859,<1H OCEAN
90500.0,-119.12,36.69,13.0,3963.0,812.0,1905.0,671.0,2.2278,INLAND
188600.0,-117.89,34.07,35.0,1439.0,261.0,804.0,271.0,3.9808,<1H OCEAN
152800.0,-118.3,34.04,35.0,1090.0,345.0,1605.0,330.0,2.1518,<1H OCEAN
292900.0,-120.71,35.5,12.0,3098.0,453.0,1433.0,434.0,5.2508,<1H OCEAN
181800.0,-120.43,34.95,43.0,2020.0,344.0,692.0,310.0,3.6815,<1H OCEAN
500001.0,-118.03,34.16,36.0,1640.0,239.0,693.0,253.0,6.6888,INLAND
87500.0,-117.15,32.8,27.0,1937.0,537.0,1211.0,482.0,2.75,NEAR OCEAN
500001.0,-119.39,34.32,19.0,3238.0,629.0,1195.0,443.0,4.8472,NEAR OCEAN
157100.0,-122.1,37.69,44.0,2341.0,500.0,1256.0,485.0,2.9507,NEAR BAY
163800.0,-118.16,34.17,52.0,1193.0,228.0,703.0,221.0,3.1741,<1H OCEAN
279900.0,-121.98,37.16,42.0,2533.0,433.0,957.0,398.0,5.3468,<1H OCEAN
193500.0,-117.9,33.9,19.0,2176.0,414.0,1002.0,402.0,4.9743,<1H OCEAN
103800.0,-121.63,39.16,7.0,1879.0,444.0,1065.0,410.0,2.4183,INLAND
157600.0,-117.13,32.75,20.0,2271.0,602.0,992.0,520.0,2.2599,NEAR OCEAN
231800.0,-117.11,32.95,11.0,4694.0,824.0,2223.0,783.0,4.9485,<1H OCEAN
97300.0,-122.18,37.77,42.0,1180.0,257.0,877.0,268.0,2.8125,NEAR BAY
132000.0,-122.28,37.84,52.0,729.0,160.0,395.0,155.0,1.6875,NEAR BAY
119400.0,-121.78,38.68,43.0,3766.0,847.0,1855.0,817.0,2.3468,INLAND
136100.0,-118.31,33.97,48.0,1541.0,314.0,819.0,312.0,3.0917,<1H OCEAN
91100.0,-122.04,38.0,16.0,3077.0,733.0,1447.0,709.0,3.2484,NEAR BAY
90200.0,-121.9,38.04,36.0,1489.0,331.0,838.0,259.0,1.2024,INLAND
142400.0,-118.44,34.27,29.0,1701.0,419.0,1616.0,371.0,3.3603,<1H OCEAN
50700.0,-120.26,37.11,33.0,1097.0,254.0,627.0,253.0,1.2794,INLAND
51700.0,-119.64,36.33,41.0,3095.0,766.0,1852.0,721.0,1.4524,INLAND
241700.0,-121.92,36.62,52.0,1001.0,191.0,425.0,184.0,3.7614,NEAR OCEAN
55300.0,-121.25,37.95,40.0,1703.0,362.0,1208.0,373.0,2.0817,INLAND
82700.0,-117.4,33.94,30.0,1198.0,251.0,1019.0,214.0,3.0509,INLAND
305600.0,-118.31,34.07,28.0,2362.0,949.0,2759.0,894.0,2.2364,<1H OCEAN
183800.0,-117.1,33.17,12.0,2465.0,412.0,1226.0,428.0,5.4819,<1H OCEAN
171700.0,-119.69,36.73,30.0,2437.0,349.0,1005.0,380.0,7.2211,INLAND
100000.0,-120.32,37.91,16.0,108.0,18.0,54.0,22.0,4.375,INLAND
186900.0,-117.32,33.25,7.0,2499.0,420.0,1314.0,398.0,4.85,<1H OCEAN
188400.0,-121.36,38.42,6.0,3254.0,465.0,1168.0,345.0,5.1811,INLAND
311000.0,-118.55,34.18,32.0,3011.0,529.0,1287.0,525.0,5.0605,<1H OCEAN
67000.0,-117.33,34.06,42.0,530.0,123.0,390.0,124.0,1.0469,INLAND
438300.0,-118.33,34.11,38.0,3495.0,1100.0,1939.0,994.0,2.2148,<1H OCEAN
230600.0,-122.07,37.67,27.0,3239.0,671.0,1469.0,616.0,3.2465,NEAR BAY
134900.0,-121.36,37.99,8.0,1801.0,380.0,684.0,350.0,4.2589,INLAND
393700.0,-117.98,33.89,18.0,2939.0,437.0,1278.0,435.0,7.1425,<1H OCEAN
226000.0,-117.71,33.57,4.0,3289.0,753.0,1285.0,651.0,4.045,<1H OCEAN
114100.0,-120.0,38.9,21.0,1653.0,419.0,737.0,308.0,1.9727,INLAND
304600.0,-118.27,34.1,50.0,2113.0,398.0,793.0,418.0,4.7132,<1H OCEAN
500001.0,-117.9,33.63,28.0,2370.0,352.0,832.0,347.0,7.1148,<1H OCEAN
235000.0,-118.14,34.07,42.0,1036.0,199.0,656.0,215.0,4.1902,<1H OCEAN
282500.0,-117.93,33.84,26.0,2811.0,612.0,1374.0,566.0,3.475,<1H OCEAN
93600.0,-121.44,38.54,39.0,2855.0,,1217.0,562.0,3.2404,INLAND
70900.0,-120.93,39.9,20.0,1511.0,328.0,791.0,320.0,2.0221,INLAND
238900.0,-121.73,37.68,17.0,20354.0,3493.0,8768.0,3293.0,5.4496,INLAND
327500.0,-117.82,33.88,18.0,1982.0,300.0,1027.0,324.0,7.0526,<1H OCEAN
99600.0,-117.03,32.71,34.0,2328.0,444.0,1684.0,429.0,3.25,NEAR OCEAN
164600.0,-118.2,33.96,37.0,2127.0,533.0,2021.0,480.0,2.9773,<1H OCEAN
387400.0,-117.03,33.0,6.0,6139.0,793.0,2693.0,770.0,7.7569,<1H OCEAN
142200.0,-121.34,38.61,22.0,1778.0,408.0,875.0,375.0,2.6023,INLAND
366100.0,-118.41,34.17,27.0,3277.0,648.0,1382.0,615.0,3.875,<1H OCEAN
500001.0,-118.42,34.05,38.0,4888.0,1126.0,1698.0,937.0,4.8304,<1H OCEAN
170500.0,-118.21,34.12,35.0,1937.0,439.0,1523.0,412.0,3.5638,<1H OCEAN
146900.0,-122.23,37.8,52.0,1192.0,289.0,772.0,257.0,2.3833,NEAR BAY
263800.0,-121.96,36.97,23.0,4324.0,1034.0,1844.0,875.0,3.0777,NEAR OCEAN
53200.0,-119.03,35.41,37.0,1761.0,443.0,911.0,365.0,2.0331,INLAND
231900.0,-117.95,33.7,17.0,5781.0,924.0,2585.0,915.0,5.343,<1H OCEAN
72700.0,-120.71,37.39,40.0,680.0,160.0,785.0,175.0,2.6058,INLAND
420000.0,-121.82,36.86,17.0,1573.0,272.0,142.0,55.0,2.1719,NEAR OCEAN
58700.0,-119.74,36.76,42.0,2093.0,470.0,1621.0,438.0,1.7994,INLAND
144900.0,-117.1,32.57,26.0,2343.0,371.0,1221.0,372.0,4.3601,NEAR OCEAN
214300.0,-116.74,33.62,11.0,2385.0,661.0,682.0,242.0,2.9141,INLAND
215000.0,-118.41,33.99,39.0,3014.0,822.0,3212.0,777.0,1.1985,<1H OCEAN
277800.0,-117.21,32.85,15.0,2593.0,521.0,901.0,456.0,4.2065,NEAR OCEAN
330400.0,-117.9,34.05,33.0,629.0,76.0,253.0,75.0,7.6286,<1H OCEAN
238800.0,-122.81,38.08,19.0,1615.0,366.0,815.0,337.0,3.4609,NEAR OCEAN
186700.0,-117.88,34.14,32.0,1764.0,365.0,924.0,329.0,3.875,INLAND
183900.0,-117.87,33.88,24.0,2655.0,702.0,1519.0,708.0,3.3036,<1H OCEAN
165300.0,-119.3,34.29,50.0,3128.0,825.0,2535.0,783.0,2.3669,NEAR OCEAN
320700.0,-118.07,33.79,26.0,4422.0,624.0,1936.0,625.0,6.4288,<1H OCEAN
158100.0,-118.15,33.97,32.0,1174.0,373.0,1758.0,361.0,2.4263,<1H OCEAN
500001.0,-118.38,33.81,36.0,1018.0,148.0,329.0,169.0,10.5045,NEAR OCEAN
45800.0,-119.46,35.14,30.0,2943.0,,1565.0,584.0,2.5313,INLAND
151600.0,-118.35,34.04,49.0,1104.0,266.0,668.0,297.0,3.0856,<1H OCEAN
195800.0,-118.27,34.25,39.0,699.0,150.0,358.0,143.0,4.4375,<1H OCEAN
93800.0,-119.69,36.81,13.0,1524.0,366.0,994.0,370.0,2.5446,INLAND
298900.0,-122.43,37.73,52.0,1142.0,224.0,494.0,206.0,5.0602,NEAR BAY
60600.0,-121.45,38.64,23.0,1481.0,343.0,1079.0,315.0,1.867,INLAND
173400.0,-117.86,33.75,31.0,1761.0,515.0,1810.0,468.0,1.9309,<1H OCEAN
184900.0,-122.08,37.69,42.0,1414.0,274.0,629.0,244.0,3.3478,NEAR BAY
364900.0,-118.15,34.1,39.0,3856.0,867.0,1847.0,830.0,3.4559,<1H OCEAN
