96700.0,-118.26,33.95,44.0,1771.0,378.0,1296.0,399.0,1.6389,<1H OCEAN
300000.0,-122.52,38.67,35.0,1705.0,321.0,708.0,253.0,3.4539,INLAND
314300.0,-118.43,34.0,37.0,1340.0,358.0,1008.0,340.0,3.7614,<1H OCEAN
84600.0,-122.18,37.75,43.0,1036.0,233.0,652.0,213.0,2.069,NEAR BAY
184900.0,-121.89,37.32,43.0,1105.0,241.0,982.0,206.0,2.1149,<1H OCEAN
393200.0,-122.53,37.93,42.0,2171.0,362.0,887.0,347.0,6.6125,NEAR BAY
70800.0,-117.29,34.11,48.0,1498.0,448.0,1586.0,455.0,1.1687,INLAND
159100.0,-117.86,33.72,32.0,1461.0,340.0,1909.0,346.0,3.5511,<1H OCEAN
268300.0,-119.89,34.44,25.0,2786.0,470.0,1669.0,462.0,5.5184,NEAR OCEAN
93800.0,-122.26,38.11,52.0,793.0,216.0,505.0,194.0,1.9667,NEAR BAY
256700.0,-118.06,34.1,43.0,1833.0,355.0,786.0,334.0,3.5761,<1H OCEAN
69400.0,-115.56,32.8,15.0,1171.0,328.0,1024.0,298.0,1.3882,INLAND
162500.0,-117.38,33.19,17.0,353.0,112.0,359.0,118.0,1.5625,NEAR OCEAN
119400.0,-120.09,36.95,16.0,3222.0,511.0,1425.0,503.0,4.1544,INLAND
95200.0,-119.06,35.36,9.0,1228.0,234.0,409.0,212.0,4.3482,INLAND
121900.0,-117.01,32.83,17.0,15401.0,3280.0,7302.0,3176.0,3.3067,<1H OCEAN
500001.0,-118.36,34.12,26.0,3902.0,610.0,1468.0,632.0,8.5136,<1H OCEAN
500001.0,-122.44,37.79,52.0,1335.0,151.0,402.0,157.0,10.8783,NEAR BAY
186800.0,-118.39,34.22,35.0,1790.0,334.0,1277.0,345.0,5.0818,<1H OCEAN
84700.0,-122.62,38.92,13.0,520.0,115.0,249.0,109.0,1.8417,INLAND
205600.0,-118.15,34.08,44.0,1053.0,251.0,941.0,256.0,3.125,<1H OCEAN
241700.0,-118.21,34.1,36.0,2000.0,533.0,1234.0,535.0,3.7437,<1H OCEAN
376700.0,-117.27,33.02,13.0,5723.0,1242.0,2450.0,1140.0,4.7179,NEAR OCEAN
164000.0,-117.02,32.81,27.0,1950.0,317.0,950.0,320.0,4.0656,<1H OCEAN
240700.0,-117.75,34.12,25.0,5411.0,998.0,2243.0,1019.0,4.3148,INLAND
113900.0,-118.93,34.82,24.0,806.0,168.0,323.0,136.0,3.5,INLAND
288200.0,-117.76,33.87,16.0,3182.0,429.0,1663.0,428.0,7.0592,<1H OCEAN
118000.0,-117.07,32.69,29.0,1429.0,293.0,1091.0,317.0,3.4609,NEAR OCEAN
60000.0,-124.17,40.8,52.0,661.0,316.0,392.0,244.0,0.957,NEAR OCEAN
335500.0,-121.76,37.3,6.0,3526.0,559.0,1378.0,491.0,6.1463,<1H OCEAN
175000.0,-122.26,37.87,52.0,1087.0,371.0,3337.0,350.0,1.4012,NEAR BAY
216800.0,-121.55,38.51,14.0,5490.0,851.0,2415.0,837.0,6.5253,INLAND
219400.0,-121.76,38.55,23.0,8800.0,1857.0,6330.0,1832.0,2.065,INLAND
457300.0,-118.47,34.15,7.0,6306.0,1473.0,2381.0,1299.0,4.642,<1H OCEAN
53100.0,-121.56,39.51,46.0,1885.0,385.0,871.0,347.0,1.6352,INLAND
176000.0,-118.91,34.18,17.0,3220.0,716.0,1381.0,733.0,2.8958,<1H OCEAN
259200.0,-121.91,37.69,18.0,2876.0,423.0,1395.0,427.0,6.3132,<1H OCEAN
500001.0,-117.27,32.84,26.0,3940.0,657.0,1180.0,600.0,6.1025,NEAR OCEAN
52800.0,-121.51,38.26,52.0,910.0,212.0,429.0,212.0,1.6458,INLAND
99600.0,-120.99,37.64,41.0,1580.0,385.0,881.0,361.0,2.7538,INLAND
222000.0,-122.07,37.59,13.0,2578.0,551.0,1680.0,528.0,4.825,NEAR BAY
109500.0,-122.22,37.79,44.0,1487.0,314.0,961.0,272.0,3.5156,NEAR BAY
147200.0,-121.35,38.09,32.0,1706.0,292.0,923.0,284.0,5.5057,INLAND
266700.0,-117.88,33.83,25.0,1785.0,248.0,750.0,251.0,6.8407,<1H OCEAN
128100.0,-120.4,38.06,12.0,1430.0,310.0,517.0,240.0,2.6544,INLAND
99700.0,-121.19,37.93,27.0,1621.0,363.0,909.0,345.0,2.1513,INLAND
254200.0,-122.04,37.67,29.0,1694.0,251.0,690.0,242.0,6.0501,NEAR BAY
225000.0,-122.03,36.97,36.0,337.0,69.0,223.0,68.0,3.2404,NEAR OCEAN
162200.0,-117.29,33.63,7.0,16010.0,2726.0,7139.0,2426.0,3.8056,<1H OCEAN
250000.0,-118.31,33.79,38.0,1601.0,352.0,711.0,304.0,3.3958,<1H OCEAN
303100.0,-122.24,37.47,36.0,2021.0,433.0,1117.0,432.0,3.929,NEAR OCEAN
185900.0,-118.3,34.26,40.0,1065.0,214.0,605.0,183.0,4.1964,<1H OCEAN
277600.0,-118.1,33.85,19.0,993.0,174.0,572.0,175.0,5.7039,<1H OCEAN
112600.0,-117.38,34.08,11.0,5684.0,1139.0,3095.0,1036.0,3.6875,INLAND
134200.0,-118.19,34.03,42.0,2250.0,629.0,2588.0,609.0,1.9719,<1H OCEAN
218000.0,-118.29,33.84,34.0,2617.0,558.0,1396.0,515.0,5.061,<1H OCEAN
144900.0,-117.65,34.08,38.0,2750.0,572.0,1410.0,483.0,3.3836,INLAND
181000.0,-121.92,38.34,2.0,7747.0,1133.0,3481.0,1083.0,6.1112,INLAND
122700.0,-117.11,32.76,28.0,1457.0,397.0,672.0,342.0,1.9799,NEAR OCEAN
213300.0,-122.71,38.46,23.0,3220.0,603.0,1299.0,591.0,3.9261,<1H OCEAN
264800.0,-121.86,37.42,20.0,5032.0,808.0,2695.0,801.0,6.6227,<1H OCEAN
68700.0,-117.23,34.13,10.0,1145.0,293.0,726.0,251.0,1.645,INLAND
162100.0,-121.34,38.61,20.0,5801.0,1148.0,2586.0,1063.0,3.9063,INLAND
152500.0,-118.21,34.04,43.0,1502.0,477.0,1844.0,477.0,1.9405,<1H OCEAN
146600.0,-118.08,34.58,5.0,1113.0,186.0,631.0,168.0,4.1719,INLAND
291500.0,-117.2,33.38,14.0,5392.0,821.0,2350.0,810.0,5.0507,<1H OCEAN
329600.0,-122.47,37.76,48.0,2064.0,484.0,1055.0,467.0,2.8711,NEAR BAY
242500.0,-122.4,38.34,33.0,1408.0,273.0,520.0,212.0,3.5781,<1H OCEAN
98800.0,-118.25,33.96,42.0,1326.0,295.0,918.0,258.0,2.3864,<1H OCEAN
426100.0,-122.13,37.87,18.0,1820.0,220.0,728.0,229.0,10.3713,NEAR BAY
140300.0,-117.88,33.74,31.0,1120.0,296.0,1718.0,268.0,2.8077,<1H OCEAN
216100.0,-117.23,32.8,31.0,1403.0,388.0,724.0,371.0,2.6403,NEAR OCEAN
171400.0,-118.08,33.94,21.0,3933.0,949.0,2219.0,820.0,2.4926,<1H OCEAN
211800.0,-122.07,37.97,20.0,1705.0,353.0,856.0,341.0,3.7262,NEAR BAY
143500.0,-121.37,38.39,15.0,1883.0,254.0,893.0,256.0,6.2575,INLAND
234600.0,-118.31,34.04,52.0,1277.0,285.0,954.0,334.0,2.5833,<1H OCEAN
124400.0,-117.27,34.4,8.0,6042.0,979.0,3031.0,991.0,3.3438,INLAND
170800.0,-117.91,33.83,32.0,1855.0,527.0,2568.0,504.0,2.5509,<1H OCEAN
93400.0,-116.31,33.67,15.0,2214.0,410.0,1152.0,350.0,2.9187,INLAND
129000.0,-121.62,36.67,45.0,1827.0,408.0,1507.0,410.0,2.8942,<1H OCEAN
276100.0,-122.3,37.57,36.0,2406.0,436.0,1189.0,403.0,4.7917,NEAR BAY
237400.0,-117.23,33.1,4.0,1862.0,291.0,685.0,248.0,7.745,NEAR OCEAN
191100.0,-118.17,33.77,45.0,2508.0,797.0,1340.0,720.0,2.6786,NEAR OCEAN
500001.0,-118.46,33.97,19.0,1658.0,427.0,648.0,378.0,3.8698,<1H OCEAN
94100.0,-119.69,36.25,35.0,2011.0,349.0,970.0,300.0,2.395,INLAND
195700.0,-118.47,34.25,34.0,1732.0,399.0,1120.0,401.0,4.1492,<1H OCEAN
280600.0,-118.35,34.09,47.0,1800.0,546.0,921.0,478.0,2.8021,<1H OCEAN
312100.0,-118.26,34.24,35.0,1535.0,283.0,816.0,287.0,6.1873,<1H OCEAN
252900.0,-117.97,33.71,26.0,2553.0,405.0,1337.0,411.0,5.3737,<1H OCEAN
278700.0,-117.77,33.72,10.0,2815.0,431.0,1181.0,398.0,6.5743,<1H OCEAN
192000.0,-118.03,33.97,22.0,2185.0,623.0,1644.0,606.0,2.593,<1H OCEAN
103000.0,-118.28,33.99,37.0,1971.0,513.0,1673.0,464.0,1.4625,<1H OCEAN
116500.0,-116.58,32.69,19.0,4085.0,876.0,2133.0,718.0,2.919,INLAND
76700.0,-121.29,37.98,49.0,2501.0,565.0,1171.0,550.0,2.5043,INLAND
341400.0,-118.42,33.93,39.0,2988.0,605.0,1466.0,610.0,4.9286,<1H OCEAN
84500.0,-119.87,36.78,4.0,6102.0,1114.0,3406.0,1115.0,3.4213,INLAND
93800.0,-117.89,33.62,24.0,1016.0,238.0,465.0,236.0,3.0625,<1H OCEAN
192300.0,-122.0,37.99,28.0,4035.0,641.0,1881.0,659.0,5.4607,INLAND
93000.0,-118.14,34.71,33.0,2347.0,461.0,1482.0,374.0,2.8194,INLAND
97000.0,-117.08,32.7,36.0,2103.0,390.0,1279.0,392.0,2.4135,NEAR OCEAN
284100.0,-122.41,37.62,49.0,1464.0,302.0,636.0,259.0,4.25,NEAR OCEAN
134100.0,-121.35,38.61,25.0,4916.0,1243.0,2140.0,1136.0,2.5511,INLAND
82300.0,-122.12,40.14,34.0,1950.0,407.0,1029.0,376.0,2.5197,INLAND
217300.0,-122.39,37.73,43.0,4864.0,972.0,3134.0,959.0,4.3393,NEAR BAY
168800.0,-122.83,38.58,17.0,5199.0,1023.0,2036.0,890.0,3.2452,<1H OCEAN
150000.0,-122.09,37.69,43.0,500.0,110.0,273.0,120.0,3.3125,NEAR BAY
177700.0,-118.27,33.8,38.0,1446.0,327.0,980.0,319.0,3.35,<1H OCEAN
266700.0,-118.56,34.19,34.0,2185.0,372.0,986.0,347.0,4.8125,<1H OCEAN
66700.0,-119.8,36.68,31.0,2214.0,432.0,1326.0,416.0,2.1691,INLAND
374300.0,-118.24,34.16,40.0,2549.0,591.0,1156.0,546.0,3.3333,<1H OCEAN
331900.0,-118.34,33.84,36.0,1407.0,231.0,676.0,231.0,5.269,<1H OCEAN
61200.0,-119.08,36.2,30.0,1677.0,358.0,1159.0,365.0,2.4554,INLAND
160400.0,-116.92,32.8,33.0,1518.0,268.0,857.0,272.0,3.5586,<1H OCEAN
81700.0,-124.11,40.95,19.0,1734.0,365.0,866.0,342.0,2.96,NEAR OCEAN
406500.0,-122.47,37.76,52.0,2941.0,783.0,1545.0,726.0,2.9899,NEAR BAY
248700.0,-119.53,34.4,14.0,1671.0,383.0,1079.0,365.0,3.1389,<1H OCEAN
209400.0,-118.37,34.16,11.0,2901.0,871.0,1659.0,789.0,3.1106,<1H OCEAN
500001.0,-118.48,34.05,36.0,2143.0,434.0,751.0,396.0,6.7496,<1H OCEAN
167400.0,-120.87,38.71,13.0,2692.0,470.0,1302.0,420.0,4.0,INLAND
418800.0,-118.44,34.01,41.0,1309.0,221.0,534.0,228.0,5.1708,<1H OCEAN
193000.0,-120.43,34.87,21.0,2131.0,329.0,1094.0,353.0,4.6648,<1H OCEAN
191900.0,-121.09,38.97,13.0,1467.0,221.0,688.0,231.0,5.2536,INLAND
108000.0,-120.5,37.34,16.0,1245.0,231.0,956.0,219.0,3.4559,INLAND
133800.0,-120.76,38.6,14.0,2925.0,625.0,1226.0,437.0,2.5865,INLAND
234600.0,-121.92,36.62,52.0,867.0,199.0,391.0,187.0,2.6713,NEAR OCEAN
167300.0,-122.01,37.37,11.0,2559.0,694.0,1309.0,668.0,4.1847,<1H OCEAN
500001.0,-117.84,33.6,21.0,4281.0,582.0,1443.0,576.0,9.0519,<1H OCEAN
69000.0,-116.99,34.88,23.0,6060.0,1165.0,2920.0,1072.0,3.1528,INLAND
188000.0,-118.0,33.85,34.0,1078.0,205.0,575.0,206.0,4.5083,<1H OCEAN
69600.0,-119.79,36.81,35.0,1877.0,328.0,1155.0,353.0,3.069,INLAND
375000.0,-118.89,34.33,23.0,366.0,62.0,265.0,66.0,3.125,<1H OCEAN
279900.0,-118.1,34.02,33.0,1143.0,172.0,508.0,174.0,4.9107,<1H OCEAN
137500.0,-122.23,37.79,30.0,999.0,264.0,1011.0,263.0,1.8854,NEAR BAY
71800.0,-116.9,33.93,34.0,3183.0,738.0,1820.0,647.0,2.2321,INLAND
108900.0,-120.55,38.43,18.0,1564.0,357.0,618.0,277.0,2.3549,INLAND
96900.0,-117.11,32.79,16.0,2574.0,771.0,1129.0,721.0,3.3849,NEAR OCEAN
297900.0,-122.48,37.7,33.0,4492.0,,3477.0,1537.0,3.0546,NEAR OCEAN
79800.0,-121.58,39.16,36.0,1206.0,197.0,537.0,204.0,3.3611,INLAND
196900.0,-117.86,34.1,29.0,1185.0,197.0,588.0,196.0,5.0832,<1H OCEAN
184100.0,-117.18,32.83,23.0,2105.0,525.0,1218.0,484.0,3.375,NEAR OCEAN
335500.0,-118.42,34.18,31.0,2887.0,646.0,1626.0,637.0,3.6745,<1H OCEAN
90400.0,-118.99,35.4,43.0,2225.0,392.0,890.0,374.0,4.0208,INLAND
116100.0,-118.27,34.01,35.0,1193.0,355.0,1784.0,341.0,1.8652,<1H OCEAN
394200.0,-121.88,37.24,14.0,7174.0,950.0,2782.0,899.0,8.3065,<1H OCEAN
191900.0,-121.84,37.29,24.0,3403.0,656.0,2829.0,612.0,4.775,<1H OCEAN
269600.0,-117.14,34.01,26.0,7561.0,1051.0,2909.0,1012.0,7.2972,INLAND
201600.0,-118.13,33.86,37.0,2259.0,425.0,1183.0,413.0,5.1805,<1H OCEAN
270600.0,-118.0,34.16,52.0,1354.0,227.0,531.0,206.0,4.8059,INLAND
363500.0,-117.63,33.45,5.0,3549.0,604.0,1571.0,534.0,5.3705,NEAR OCEAN
143300.0,-118.65,36.57,20.0,1431.0,416.0,570.0,225.0,1.4821,INLAND
107900.0,-122.17,37.76,47.0,2118.0,413.0,965.0,382.0,2.1842,NEAR BAY
92000.0,-118.24,33.94,30.0,940.0,211.0,1071.0,204.0,1.2679,<1H OCEAN
215700.0,-122.25,37.77,52.0,2650.0,566.0,1468.0,567.0,3.0161,NEAR BAY
168800.0,-121.72,37.98,5.0,7105.0,1143.0,3523.0,1088.0,5.0468,INLAND
193800.0,-120.85,37.57,27.0,819.0,157.0,451.0,150.0,3.4934,INLAND
320700.0,-118.04,33.83,19.0,4526.0,830.0,2318.0,748.0,4.6681,<1H OCEAN
500001.0,-118.38,34.07,48.0,2799.0,596.0,1235.0,561.0,4.4896,<1H OCEAN
500001.0,-118.51,34.03,37.0,4072.0,905.0,1468.0,923.0,3.8571,<1H OCEAN
267800.0,-118.02,33.72,22.0,8844.0,1706.0,4404.0,1594.0,4.4453,<1H OCEAN
214300.0,-122.09,37.07,33.0,3581.0,734.0,1780.0,663.0,4.3429,NEAR OCEAN
194300.0,-117.67,34.04,13.0,2295.0,374.0,1284.0,378.0,5.2551,INLAND
183900.0,-118.33,34.03,33.0,2314.0,624.0,1714.0,582.0,1.7377,<1H OCEAN
161000.0,-117.6,33.86,23.0,2949.0,473.0,1671.0,477.0,5.195,INLAND
70100.0,-122.56,41.69,21.0,2010.0,360.0,947.0,306.0,2.4107,INLAND
112500.0,-122.08,39.25,52.0,224.0,38.0,120.0,45.0,3.017,INLAND
166200.0,-118.09,33.92,35.0,1994.0,419.0,1491.0,428.0,3.7383,<1H OCEAN
254500.0,-118.34,34.16,44.0,1717.0,391.0,848.0,353.0,3.6111,<1H OCEAN
445900.0,-121.97,37.23,22.0,2781.0,523.0,1291.0,516.0,4.6065,<1H OCEAN
160200.0,-117.94,34.04,36.0,1431.0,354.0,1367.0,334.0,3.5592,<1H OCEAN
134400.0,-117.08,32.59,30.0,144.0,52.0,220.0,48.0,2.3929,NEAR OCEAN
178400.0,-122.31,37.91,43.0,2549.0,511.0,1060.0,528.0,3.6417,NEAR BAY
91900.0,-121.42,38.72,10.0,3054.0,528.0,1932.0,510.0,3.0903,INLAND
144800.0,-117.46,33.9,10.0,9738.0,2130.0,4936.0,1840.0,3.3187,INLAND
380000.0,-120.66,35.2,13.0,5138.0,713.0,1838.0,645.0,5.9676,NEAR OCEAN
57000.0,-121.46,38.55,40.0,2077.0,435.0,1454.0,385.0,2.0074,INLAND
152300.0,-118.36,33.94,33.0,939.0,284.0,1309.0,250.0,3.4063,<1H OCEAN
100600.0,-122.4,40.51,20.0,1750.0,352.0,834.0,340.0,2.485,INLAND
215000.0,-118.13,34.16,52.0,1787.0,427.0,1107.0,410.0,2.5664,<1H OCEAN
190000.0,-118.28,34.07,32.0,1777.0,536.0,1684.0,489.0,2.3636,<1H OCEAN
83400.0,-117.41,34.0,38.0,2228.0,571.0,1697.0,530.0,1.9052,INLAND
159200.0,-118.21,34.09,37.0,1822.0,498.0,1961.0,506.0,1.9881,<1H OCEAN
96800.0,-117.09,32.71,29.0,2238.0,523.0,2061.0,504.0,2.5559,NEAR OCEAN
194800.0,-117.89,33.77,29.0,2577.0,445.0,1849.0,470.0,4.4732,<1H OCEAN
198100.0,-117.97,33.93,35.0,1887.0,328.0,989.0,351.0,4.1321,<1H OCEAN
350000.0,-117.7,33.47,21.0,1857.0,399.0,881.0,380.0,3.8403,<1H OCEAN
364300.0,-122.44,37.77,52.0,2705.0,647.0,1355.0,628.0,2.0161,NEAR BAY
200000.0,-118.2,33.77,52.0,1375.0,457.0,1089.0,317.0,2.2344,NEAR OCEAN
225000.0,-118.14,34.14,24.0,10239.0,2823.0,4210.0,2565.0,3.6997,<1H OCEAN
315600.0,-118.18,33.84,35.0,1415.0,294.0,591.0,291.0,2.9798,NEAR OCEAN
206300.0,-119.27,34.28,50.0,1710.0,412.0,915.0,380.0,3.1757,NEAR OCEAN
108900.0,-118.21,33.93,39.0,354.0,73.0,184.0,58.0,2.7679,<1H OCEAN
109000.0,-119.31,36.32,44.0,2032.0,308.0,791.0,336.0,4.0298,INLAND
144000.0,-123.23,39.13,33.0,1176.0,211.0,529.0,217.0,3.8958,<1H OCEAN
299200.0,-117.86,33.9,25.0,3205.0,409.0,1291.0,408.0,7.2478,<1H OCEAN
98400.0,-118.22,33.9,22.0,312.0,107.0,583.0,119.0,1.9423,<1H OCEAN
76800.0,-121.3,37.96,24.0,1212.0,366.0,1202.0,343.0,1.7875,INLAND
81500.0,-120.93,37.73,14.0,2799.0,,2294.0,596.0,2.6343,INLAND
171900.0,-122.27,37.82,21.0,896.0,453.0,735.0,438.0,0.9218,NEAR BAY
500001.0,-122.21,37.44,35.0,1140.0,193.0,486.0,199.0,4.6908,NEAR OCEAN
72900.0,-119.57,36.7,34.0,1759.0,354.0,899.0,337.0,2.6823,INLAND
154200.0,-117.93,34.09,37.0,1185.0,225.0,769.0,235.0,4.4625,<1H OCEAN
109400.0,-117.7,35.64,8.0,2683.0,416.0,1154.0,399.0,5.8625,INLAND
291700.0,-121.94,37.94,26.0,1299.0,174.0,533.0,180.0,6.2296,INLAND
165100.0,-122.5,38.35,25.0,1566.0,352.0,784.0,362.0,3.075,<1H OCEAN
274600.0,-121.91,37.24,24.0,5046.0,1001.0,2449.0,968.0,4.7118,<1H OCEAN
111500.0,-121.43,37.74,52.0,994.0,258.0,623.0,264.0,1.725,INLAND
